<?xml version="1.0" encoding="UTF-8" standalone="no"?><svg xmlns="http://www.w3.org/2000/svg" xmlns:xlink="http://www.w3.org/1999/xlink" contentScriptType="application/ecmascript" contentStyleType="text/css" height="1044px" preserveAspectRatio="none" style="width:1284px;height:1044px;background:#FFFFFF;" version="1.1" viewBox="0 0 1284 1044" width="1284px" zoomAndPan="magnify"><defs><filter height="300%" id="f5ad7vlk3akho" width="300%" x="-1" y="-1"><feGaussianBlur result="blurOut" stdDeviation="1.2"/><feColorMatrix in="blurOut" result="blurOut2" type="matrix" values="0 0 0 0 0 0 0 0 0 0 0 0 0 0 0 0 0 0 .4 0"/><feOffset dx="2.4" dy="2.4" in="blurOut2" result="blurOut3"/><feBlend in="SourceGraphic" in2="blurOut3" mode="normal"/></filter></defs><g><rect fill="#FFFFFF" filter="url(#f5ad7vlk3akho)" height="928.0641" style="stroke:#A80036;stroke-width:0.6;" width="6" x="47.4" y="59.7656"/><rect fill="#FFFFFF" filter="url(#f5ad7vlk3akho)" height="928.0641" style="stroke:#A80036;stroke-width:0.6;" width="6" x="419.4" y="59.7656"/><rect fill="#FFFFFF" filter="url(#f5ad7vlk3akho)" height="411.2203" style="stroke:#A80036;stroke-width:0.6;" width="6" x="514.5" y="97.3875"/><rect fill="#FFFFFF" filter="url(#f5ad7vlk3akho)" height="399.7781" style="stroke:#A80036;stroke-width:0.6;" width="6" x="514.5" y="582.6516"/><rect fill="#FFFFFF" filter="url(#f5ad7vlk3akho)" height="18" style="stroke:#A80036;stroke-width:0.6;" width="6" x="755.7" y="821.5641"/><rect fill="#FFFFFF" filter="url(#f5ad7vlk3akho)" height="18" style="stroke:#A80036;stroke-width:0.6;" width="6" x="829.5" y="857.775"/><rect fill="#FFFFFF" filter="url(#f5ad7vlk3akho)" height="18" style="stroke:#A80036;stroke-width:0.6;" width="6" x="906" y="170.9859"/><rect fill="#FFFFFF" filter="url(#f5ad7vlk3akho)" height="18" style="stroke:#A80036;stroke-width:0.6;" width="6" x="906" y="207.1969"/><rect fill="#FFFFFF" filter="url(#f5ad7vlk3akho)" height="18" style="stroke:#A80036;stroke-width:0.6;" width="6" x="983.4" y="243.4078"/><rect fill="#FFFFFF" filter="url(#f5ad7vlk3akho)" height="18" style="stroke:#A80036;stroke-width:0.6;" width="6" x="983.4" y="279.6188"/><rect fill="#FFFFFF" filter="url(#f5ad7vlk3akho)" height="66.0328" style="stroke:#A80036;stroke-width:0.6;" width="6" x="1064.7" y="893.9859"/><rect fill="#FFFFFF" filter="url(#f5ad7vlk3akho)" height="70.2328" style="stroke:#A80036;stroke-width:0.6;" width="6" x="1196.7" y="912.1969"/><rect fill="#FFFFFF" filter="url(#f5ad7vlk3akho)" height="259.8984" style="stroke:#000000;stroke-width:1.2;" width="552" x="479.4" y="146.5641"/><rect fill="#FFFFFF" filter="url(#f5ad7vlk3akho)" height="72.5344" style="stroke:#000000;stroke-width:1.2;" width="106.5" x="479.4" y="414.8625"/><rect fill="#FFFFFF" height="35.5125" style="stroke:none;stroke-width:0.6;" width="106.5" x="479.4" y="451.8844"/><rect fill="#FFFFFF" filter="url(#f5ad7vlk3akho)" height="227.5125" style="stroke:#000000;stroke-width:1.2;" width="588.9" x="6" y="540.0188"/><rect fill="#FFFFFF" filter="url(#f5ad7vlk3akho)" height="72.5344" style="stroke:#000000;stroke-width:1.2;" width="106.5" x="479.4" y="591.6516"/><rect fill="#FFFFFF" height="35.5125" style="stroke:none;stroke-width:0.6;" width="106.5" x="479.4" y="628.6734"/><rect fill="#FFFFFF" filter="url(#f5ad7vlk3akho)" height="72.5344" style="stroke:#000000;stroke-width:1.2;" width="109.5" x="479.4" y="672.5859"/><rect fill="#FFFFFF" height="35.5125" style="stroke:none;stroke-width:0.6;" width="109.5" x="479.4" y="709.6078"/><line style="stroke:#A80036;stroke-width:0.6;stroke-dasharray:5.0,5.0;" x1="50.4" x2="50.4" y1="53.7656" y2="993.2297"/><line style="stroke:#A80036;stroke-width:0.6;stroke-dasharray:5.0,5.0;" x1="422.1" x2="422.1" y1="53.7656" y2="993.2297"/><line style="stroke:#A80036;stroke-width:0.6;stroke-dasharray:5.0,5.0;" x1="517.2" x2="517.2" y1="97.9594" y2="993.2297"/><line style="stroke:#A80036;stroke-width:0.6;stroke-dasharray:5.0,5.0;" x1="653.4" x2="653.4" y1="53.7656" y2="993.2297"/><line style="stroke:#A80036;stroke-width:0.6;stroke-dasharray:5.0,5.0;" x1="698.4" x2="698.4" y1="53.7656" y2="993.2297"/><line style="stroke:#A80036;stroke-width:0.6;stroke-dasharray:5.0,5.0;" x1="758.4" x2="758.4" y1="53.7656" y2="993.2297"/><line style="stroke:#A80036;stroke-width:0.6;stroke-dasharray:5.0,5.0;" x1="832.2" x2="832.2" y1="53.7656" y2="993.2297"/><line style="stroke:#A80036;stroke-width:0.6;stroke-dasharray:5.0,5.0;" x1="909" x2="909" y1="53.7656" y2="993.2297"/><line style="stroke:#A80036;stroke-width:0.6;stroke-dasharray:5.0,5.0;" x1="986.4" x2="986.4" y1="53.7656" y2="993.2297"/><line style="stroke:#A80036;stroke-width:0.6;stroke-dasharray:5.0,5.0;" x1="1067.4" x2="1067.4" y1="53.7656" y2="993.2297"/><line style="stroke:#A80036;stroke-width:0.6;stroke-dasharray:5.0,5.0;" x1="1199.4" x2="1199.4" y1="53.7656" y2="993.2297"/><text fill="#000000" font-family="sans-serif" font-size="8.4" lengthAdjust="spacing" textLength="73.2" x="12" y="51.9199">Center Coordinator</text><ellipse cx="50.4" cy="9" fill="#FEFECE" filter="url(#f5ad7vlk3akho)" rx="4.8" ry="4.8" style="stroke:#A80036;stroke-width:1.2;"/><path d="M50.4,13.8 L50.4,30 M42.6,18.6 L58.2,18.6 M50.4,30 L42.6,39 M50.4,30 L58.2,39 " fill="none" filter="url(#f5ad7vlk3akho)" style="stroke:#A80036;stroke-width:1.2;"/><text fill="#000000" font-family="sans-serif" font-size="8.4" lengthAdjust="spacing" textLength="73.2" x="12" y="1001.3496">Center Coordinator</text><ellipse cx="50.4" cy="1009.1953" fill="#FEFECE" filter="url(#f5ad7vlk3akho)" rx="4.8" ry="4.8" style="stroke:#A80036;stroke-width:1.2;"/><path d="M50.4,1013.9953 L50.4,1030.1953 M42.6,1018.7953 L58.2,1018.7953 M50.4,1030.1953 L42.6,1039.1953 M50.4,1030.1953 L58.2,1039.1953 " fill="none" filter="url(#f5ad7vlk3akho)" style="stroke:#A80036;stroke-width:1.2;"/><rect fill="#FEFECE" filter="url(#f5ad7vlk3akho)" height="18.9656" style="stroke:#A80036;stroke-width:0.8999999999999999;" width="47.4" x="397.5" y="31.8"/><text fill="#000000" font-family="sans-serif" font-size="8.4" lengthAdjust="spacing" textLength="39" x="401.7" y="44.7199">:SortFileUi</text><rect fill="#FEFECE" filter="url(#f5ad7vlk3akho)" height="18.9656" style="stroke:#A80036;stroke-width:0.8999999999999999;" width="47.4" x="397.5" y="992.6297"/><text fill="#000000" font-family="sans-serif" font-size="8.4" lengthAdjust="spacing" textLength="39" x="401.7" y="1005.5496">:SortFileUi</text><rect fill="#FEFECE" filter="url(#f5ad7vlk3akho)" height="18.9656" style="stroke:#A80036;stroke-width:0.8999999999999999;" width="61.8" x="485.4" y="992.6297"/><text fill="#000000" font-family="sans-serif" font-size="8.4" lengthAdjust="spacing" textLength="53.4" x="489.6" y="1005.5496">:Sortcontroller</text><rect fill="#FEFECE" filter="url(#f5ad7vlk3akho)" height="18.9656" style="stroke:#A80036;stroke-width:0.8999999999999999;" width="25.8" x="639.6" y="31.8"/><text fill="#000000" font-family="sans-serif" font-size="8.4" lengthAdjust="spacing" textLength="17.4" x="643.8" y="44.7199">:App</text><rect fill="#FEFECE" filter="url(#f5ad7vlk3akho)" height="18.9656" style="stroke:#A80036;stroke-width:0.8999999999999999;" width="25.8" x="639.6" y="992.6297"/><text fill="#000000" font-family="sans-serif" font-size="8.4" lengthAdjust="spacing" textLength="17.4" x="643.8" y="1005.5496">:App</text><rect fill="#FEFECE" filter="url(#f5ad7vlk3akho)" height="18.9656" style="stroke:#A80036;stroke-width:0.8999999999999999;" width="46.8" x="673.8" y="31.8"/><text fill="#000000" font-family="sans-serif" font-size="8.4" lengthAdjust="spacing" textLength="38.4" x="678" y="44.7199">:Company</text><rect fill="#FEFECE" filter="url(#f5ad7vlk3akho)" height="18.9656" style="stroke:#A80036;stroke-width:0.8999999999999999;" width="46.8" x="673.8" y="992.6297"/><text fill="#000000" font-family="sans-serif" font-size="8.4" lengthAdjust="spacing" textLength="38.4" x="678" y="1005.5496">:Company</text><rect fill="#FEFECE" filter="url(#f5ad7vlk3akho)" height="18.9656" style="stroke:#A80036;stroke-width:0.8999999999999999;" width="57" x="729" y="31.8"/><text fill="#000000" font-family="sans-serif" font-size="8.4" lengthAdjust="spacing" textLength="48.6" x="733.2" y="44.7199">:AuthFacade</text><rect fill="#FEFECE" filter="url(#f5ad7vlk3akho)" height="18.9656" style="stroke:#A80036;stroke-width:0.8999999999999999;" width="57" x="729" y="992.6297"/><text fill="#000000" font-family="sans-serif" font-size="8.4" lengthAdjust="spacing" textLength="48.6" x="733.2" y="1005.5496">:AuthFacade</text><rect fill="#FEFECE" filter="url(#f5ad7vlk3akho)" height="18.9656" style="stroke:#A80036;stroke-width:0.8999999999999999;" width="73.8" x="794.4" y="31.8"/><text fill="#000000" font-family="sans-serif" font-size="8.4" lengthAdjust="spacing" textLength="65.4" x="798.6" y="44.7199">CoordinatorStore</text><rect fill="#FEFECE" filter="url(#f5ad7vlk3akho)" height="18.9656" style="stroke:#A80036;stroke-width:0.8999999999999999;" width="73.8" x="794.4" y="992.6297"/><text fill="#000000" font-family="sans-serif" font-size="8.4" lengthAdjust="spacing" textLength="65.4" x="798.6" y="1005.5496">CoordinatorStore</text><rect fill="#FEFECE" filter="url(#f5ad7vlk3akho)" height="18.9656" style="stroke:#A80036;stroke-width:0.8999999999999999;" width="62.4" x="876.6" y="31.8"/><text fill="#000000" font-family="sans-serif" font-size="8.4" lengthAdjust="spacing" textLength="54" x="880.8" y="44.7199">NHSUserStore</text><rect fill="#FEFECE" filter="url(#f5ad7vlk3akho)" height="18.9656" style="stroke:#A80036;stroke-width:0.8999999999999999;" width="62.4" x="876.6" y="992.6297"/><text fill="#000000" font-family="sans-serif" font-size="8.4" lengthAdjust="spacing" textLength="54" x="880.8" y="1005.5496">NHSUserStore</text><rect fill="#FEFECE" filter="url(#f5ad7vlk3akho)" height="18.9656" style="stroke:#A80036;stroke-width:0.8999999999999999;" width="75.6" x="947.4" y="31.8"/><text fill="#000000" font-family="sans-serif" font-size="8.4" lengthAdjust="spacing" textLength="67.2" x="951.6" y="44.7199">VaccineAdmStore</text><rect fill="#FEFECE" filter="url(#f5ad7vlk3akho)" height="18.9656" style="stroke:#A80036;stroke-width:0.8999999999999999;" width="75.6" x="947.4" y="992.6297"/><text fill="#000000" font-family="sans-serif" font-size="8.4" lengthAdjust="spacing" textLength="67.2" x="951.6" y="1005.5496">VaccineAdmStore</text><rect fill="#FEFECE" filter="url(#f5ad7vlk3akho)" height="18.9656" style="stroke:#A80036;stroke-width:0.8999999999999999;" width="70.2" x="1031.4" y="31.8"/><text fill="#000000" font-family="sans-serif" font-size="8.4" lengthAdjust="spacing" textLength="61.8" x="1035.6" y="44.7199">VaccinationDTO</text><rect fill="#FEFECE" filter="url(#f5ad7vlk3akho)" height="18.9656" style="stroke:#A80036;stroke-width:0.8999999999999999;" width="70.2" x="1031.4" y="992.6297"/><text fill="#000000" font-family="sans-serif" font-size="8.4" lengthAdjust="spacing" textLength="61.8" x="1035.6" y="1005.5496">VaccinationDTO</text><rect fill="#FEFECE" filter="url(#f5ad7vlk3akho)" height="18.9656" style="stroke:#A80036;stroke-width:0.8999999999999999;" width="87" x="1155" y="31.8"/><text fill="#000000" font-family="sans-serif" font-size="8.4" lengthAdjust="spacing" textLength="78.6" x="1159.2" y="44.7199">VaccinationLogStore</text><rect fill="#FEFECE" filter="url(#f5ad7vlk3akho)" height="18.9656" style="stroke:#A80036;stroke-width:0.8999999999999999;" width="87" x="1155" y="992.6297"/><text fill="#000000" font-family="sans-serif" font-size="8.4" lengthAdjust="spacing" textLength="78.6" x="1159.2" y="1005.5496">VaccinationLogStore</text><rect fill="#FFFFFF" filter="url(#f5ad7vlk3akho)" height="928.0641" style="stroke:#A80036;stroke-width:0.6;" width="6" x="47.4" y="59.7656"/><rect fill="#FFFFFF" filter="url(#f5ad7vlk3akho)" height="928.0641" style="stroke:#A80036;stroke-width:0.6;" width="6" x="419.4" y="59.7656"/><rect fill="#FFFFFF" filter="url(#f5ad7vlk3akho)" height="411.2203" style="stroke:#A80036;stroke-width:0.6;" width="6" x="514.5" y="97.3875"/><rect fill="#FFFFFF" filter="url(#f5ad7vlk3akho)" height="399.7781" style="stroke:#A80036;stroke-width:0.6;" width="6" x="514.5" y="582.6516"/><rect fill="#FFFFFF" filter="url(#f5ad7vlk3akho)" height="18" style="stroke:#A80036;stroke-width:0.6;" width="6" x="755.7" y="821.5641"/><rect fill="#FFFFFF" filter="url(#f5ad7vlk3akho)" height="18" style="stroke:#A80036;stroke-width:0.6;" width="6" x="829.5" y="857.775"/><rect fill="#FFFFFF" filter="url(#f5ad7vlk3akho)" height="18" style="stroke:#A80036;stroke-width:0.6;" width="6" x="906" y="170.9859"/><rect fill="#FFFFFF" filter="url(#f5ad7vlk3akho)" height="18" style="stroke:#A80036;stroke-width:0.6;" width="6" x="906" y="207.1969"/><rect fill="#FFFFFF" filter="url(#f5ad7vlk3akho)" height="18" style="stroke:#A80036;stroke-width:0.6;" width="6" x="983.4" y="243.4078"/><rect fill="#FFFFFF" filter="url(#f5ad7vlk3akho)" height="18" style="stroke:#A80036;stroke-width:0.6;" width="6" x="983.4" y="279.6188"/><rect fill="#FFFFFF" filter="url(#f5ad7vlk3akho)" height="66.0328" style="stroke:#A80036;stroke-width:0.6;" width="6" x="1064.7" y="893.9859"/><rect fill="#FFFFFF" filter="url(#f5ad7vlk3akho)" height="70.2328" style="stroke:#A80036;stroke-width:0.6;" width="6" x="1196.7" y="912.1969"/><polygon fill="#A80036" points="412.2,70.7766,418.2,73.1766,412.2,75.5766,414.6,73.1766" style="stroke:#A80036;stroke-width:0.6;"/><line style="stroke:#A80036;stroke-width:0.6;" x1="53.4" x2="415.8" y1="73.1766" y2="73.1766"/><text fill="#000000" font-family="sans-serif" font-size="7.8" font-weight="bold" lengthAdjust="spacing" textLength="4.2" x="57.6" y="70.2627">1</text><text fill="#000000" font-family="sans-serif" font-size="7.8" lengthAdjust="spacing" textLength="131.4" x="64.2" y="70.2627">"Asks to read and sort the legacy file"</text><polygon fill="#A80036" points="478.2,88.9875,484.2,91.3875,478.2,93.7875,480.6,91.3875" style="stroke:#A80036;stroke-width:0.6;"/><line style="stroke:#A80036;stroke-width:0.6;stroke-dasharray:2.0,2.0;" x1="425.4" x2="481.8" y1="91.3875" y2="91.3875"/><text fill="#000000" font-family="sans-serif" font-size="7.8" font-weight="bold" lengthAdjust="spacing" textLength="4.2" x="429.6" y="88.4736">2</text><text fill="#000000" font-family="sans-serif" font-size="7.8" lengthAdjust="spacing" textLength="39" x="436.2" y="88.4736">create(app)</text><rect fill="#FEFECE" filter="url(#f5ad7vlk3akho)" height="18.9656" style="stroke:#A80036;stroke-width:0.8999999999999999;" width="61.8" x="485.4" y="77.9766"/><text fill="#000000" font-family="sans-serif" font-size="8.4" lengthAdjust="spacing" textLength="53.4" x="489.6" y="90.8965">:Sortcontroller</text><polygon fill="#A80036" points="646.5,116.9531,652.5,119.3531,646.5,121.7531,648.9,119.3531" style="stroke:#A80036;stroke-width:0.6;"/><line style="stroke:#A80036;stroke-width:0.6;" x1="520.5" x2="650.1" y1="119.3531" y2="119.3531"/><text fill="#000000" font-family="sans-serif" font-size="7.8" font-weight="bold" lengthAdjust="spacing" textLength="4.2" x="524.7" y="116.4393">3</text><text fill="#000000" font-family="sans-serif" font-size="7.8" lengthAdjust="spacing" textLength="48.6" x="531.3" y="116.4393">getCompany()</text><polygon fill="#A80036" points="691.2,135.1641,697.2,137.5641,691.2,139.9641,693.6,137.5641" style="stroke:#A80036;stroke-width:0.6;"/><line style="stroke:#A80036;stroke-width:0.6;" x1="520.5" x2="694.8" y1="137.5641" y2="137.5641"/><text fill="#000000" font-family="sans-serif" font-size="7.8" font-weight="bold" lengthAdjust="spacing" textLength="4.2" x="524.7" y="134.6502">4</text><text fill="#000000" font-family="sans-serif" font-size="7.8" lengthAdjust="spacing" textLength="38.4" x="531.3" y="134.6502">getStores()</text><path d="M479.4,146.5641 L523.2,146.5641 L523.2,151.3641 L517.2,157.3641 L479.4,157.3641 L479.4,146.5641 " fill="#EEEEEE" style="stroke:#000000;stroke-width:0.6;"/><rect fill="none" height="259.8984" style="stroke:#000000;stroke-width:1.2;" width="552" x="479.4" y="146.5641"/><text fill="#000000" font-family="sans-serif" font-size="7.8" font-weight="bold" lengthAdjust="spacing" textLength="16.8" x="488.4" y="155.2611">loop</text><text fill="#000000" font-family="sans-serif" font-size="6.6" font-weight="bold" lengthAdjust="spacing" textLength="72" x="532.2" y="154.6154">[while file is not over]</text><polygon fill="#A80036" points="898.8,168.5859,904.8,170.9859,898.8,173.3859,901.2,170.9859" style="stroke:#A80036;stroke-width:0.6;"/><line style="stroke:#A80036;stroke-width:0.6;" x1="520.5" x2="902.4" y1="170.9859" y2="170.9859"/><text fill="#000000" font-family="sans-serif" font-size="7.8" font-weight="bold" lengthAdjust="spacing" textLength="4.2" x="524.7" y="168.0721">5</text><text fill="#000000" font-family="sans-serif" font-size="7.8" lengthAdjust="spacing" textLength="106.2" x="531.3" y="168.0721">VerifySNSNumber(snsnumber)</text><polygon fill="#A80036" points="898.8,204.7969,904.8,207.1969,898.8,209.5969,901.2,207.1969" style="stroke:#A80036;stroke-width:0.6;"/><line style="stroke:#A80036;stroke-width:0.6;" x1="520.5" x2="902.4" y1="207.1969" y2="207.1969"/><text fill="#000000" font-family="sans-serif" font-size="7.8" font-weight="bold" lengthAdjust="spacing" textLength="4.2" x="524.7" y="204.283">6</text><text fill="#000000" font-family="sans-serif" font-size="7.8" lengthAdjust="spacing" textLength="100.2" x="531.3" y="204.283">getNameBySNS(snsnumber)</text><polygon fill="#A80036" points="976.2,241.0078,982.2,243.4078,976.2,245.8078,978.6,243.4078" style="stroke:#A80036;stroke-width:0.6;"/><line style="stroke:#A80036;stroke-width:0.6;" x1="520.5" x2="979.8" y1="243.4078" y2="243.4078"/><text fill="#000000" font-family="sans-serif" font-size="7.8" font-weight="bold" lengthAdjust="spacing" textLength="4.2" x="524.7" y="240.4939">7</text><text fill="#000000" font-family="sans-serif" font-size="7.8" lengthAdjust="spacing" textLength="73.2" x="531.3" y="240.4939">VerifyVaccine(Brand)</text><polygon fill="#A80036" points="976.2,277.2188,982.2,279.6188,976.2,282.0188,978.6,279.6188" style="stroke:#A80036;stroke-width:0.6;"/><line style="stroke:#A80036;stroke-width:0.6;" x1="520.5" x2="979.8" y1="279.6188" y2="279.6188"/><text fill="#000000" font-family="sans-serif" font-size="7.8" font-weight="bold" lengthAdjust="spacing" textLength="4.2" x="524.7" y="276.7049">8</text><text fill="#000000" font-family="sans-serif" font-size="7.8" lengthAdjust="spacing" textLength="88.2" x="531.3" y="276.7049">getVaccineDetails(Brand)</text><line style="stroke:#A80036;stroke-width:0.6;" x1="520.5" x2="545.7" y1="315.8297" y2="315.8297"/><line style="stroke:#A80036;stroke-width:0.6;" x1="545.7" x2="545.7" y1="315.8297" y2="323.6297"/><line style="stroke:#A80036;stroke-width:0.6;" x1="521.1" x2="545.7" y1="323.6297" y2="323.6297"/><polygon fill="#A80036" points="527.1,321.2297,521.1,323.6297,527.1,326.0297,524.7,323.6297" style="stroke:#A80036;stroke-width:0.6;"/><text fill="#000000" font-family="sans-serif" font-size="7.8" font-weight="bold" lengthAdjust="spacing" textLength="4.2" x="524.7" y="312.9158">9</text><text fill="#000000" font-family="sans-serif" font-size="7.8" lengthAdjust="spacing" textLength="69.6" x="531.3" y="312.9158">verify schedule Date</text><line style="stroke:#A80036;stroke-width:0.6;" x1="520.5" x2="545.7" y1="341.8406" y2="341.8406"/><line style="stroke:#A80036;stroke-width:0.6;" x1="545.7" x2="545.7" y1="341.8406" y2="349.6406"/><line style="stroke:#A80036;stroke-width:0.6;" x1="521.1" x2="545.7" y1="349.6406" y2="349.6406"/><polygon fill="#A80036" points="527.1,347.2406,521.1,349.6406,527.1,352.0406,524.7,349.6406" style="stroke:#A80036;stroke-width:0.6;"/><text fill="#000000" font-family="sans-serif" font-size="7.8" font-weight="bold" lengthAdjust="spacing" textLength="8.4" x="524.7" y="338.9268">10</text><text fill="#000000" font-family="sans-serif" font-size="7.8" lengthAdjust="spacing" textLength="59.4" x="535.5" y="338.9268">verify Arrival Date</text><line style="stroke:#A80036;stroke-width:0.6;" x1="520.5" x2="545.7" y1="367.8516" y2="367.8516"/><line style="stroke:#A80036;stroke-width:0.6;" x1="545.7" x2="545.7" y1="367.8516" y2="375.6516"/><line style="stroke:#A80036;stroke-width:0.6;" x1="521.1" x2="545.7" y1="375.6516" y2="375.6516"/><polygon fill="#A80036" points="527.1,373.2516,521.1,375.6516,527.1,378.0516,524.7,375.6516" style="stroke:#A80036;stroke-width:0.6;"/><text fill="#000000" font-family="sans-serif" font-size="7.8" font-weight="bold" lengthAdjust="spacing" textLength="8.4" x="524.7" y="364.9377">11</text><text fill="#000000" font-family="sans-serif" font-size="7.8" lengthAdjust="spacing" textLength="111" x="535.5" y="364.9377">verify Nurse Administration Date</text><line style="stroke:#A80036;stroke-width:0.6;" x1="520.5" x2="545.7" y1="393.8625" y2="393.8625"/><line style="stroke:#A80036;stroke-width:0.6;" x1="545.7" x2="545.7" y1="393.8625" y2="401.6625"/><line style="stroke:#A80036;stroke-width:0.6;" x1="521.1" x2="545.7" y1="401.6625" y2="401.6625"/><polygon fill="#A80036" points="527.1,399.2625,521.1,401.6625,527.1,404.0625,524.7,401.6625" style="stroke:#A80036;stroke-width:0.6;"/><text fill="#000000" font-family="sans-serif" font-size="7.8" font-weight="bold" lengthAdjust="spacing" textLength="8.4" x="524.7" y="390.9486">12</text><text fill="#000000" font-family="sans-serif" font-size="7.8" lengthAdjust="spacing" textLength="58.2" x="535.5" y="390.9486">verify Leave Date</text><path d="M479.4,414.8625 L516,414.8625 L516,419.6625 L510,425.6625 L479.4,425.6625 L479.4,414.8625 " fill="#EEEEEE" style="stroke:#000000;stroke-width:0.6;"/><rect fill="none" height="72.5344" style="stroke:#000000;stroke-width:1.2;" width="106.5" x="479.4" y="414.8625"/><text fill="#000000" font-family="sans-serif" font-size="7.8" font-weight="bold" lengthAdjust="spacing" textLength="9.6" x="488.4" y="423.5596">alt</text><text fill="#000000" font-family="sans-serif" font-size="6.6" font-weight="bold" lengthAdjust="spacing" textLength="41.4" x="525" y="422.9139">[BubbleSort]</text><line style="stroke:#A80036;stroke-width:0.6;" x1="520.5" x2="545.7" y1="439.2844" y2="439.2844"/><line style="stroke:#A80036;stroke-width:0.6;" x1="545.7" x2="545.7" y1="439.2844" y2="447.0844"/><line style="stroke:#A80036;stroke-width:0.6;" x1="521.1" x2="545.7" y1="447.0844" y2="447.0844"/><polygon fill="#A80036" points="527.1,444.6844,521.1,447.0844,527.1,449.4844,524.7,447.0844" style="stroke:#A80036;stroke-width:0.6;"/><text fill="#000000" font-family="sans-serif" font-size="7.8" font-weight="bold" lengthAdjust="spacing" textLength="8.4" x="524.7" y="436.3705">13</text><text fill="#000000" font-family="sans-serif" font-size="7.8" lengthAdjust="spacing" textLength="43.2" x="535.5" y="436.3705">BubbleSort()</text><line style="stroke:#000000;stroke-width:0.6;stroke-dasharray:2.0,2.0;" x1="479.4" x2="585.9" y1="452.4844" y2="452.4844"/><text fill="#000000" font-family="sans-serif" font-size="6.6" font-weight="bold" lengthAdjust="spacing" textLength="37.2" x="482.4" y="459.3357">[QuickSort]</text><line style="stroke:#A80036;stroke-width:0.6;" x1="520.5" x2="545.7" y1="474.7969" y2="474.7969"/><line style="stroke:#A80036;stroke-width:0.6;" x1="545.7" x2="545.7" y1="474.7969" y2="482.5969"/><line style="stroke:#A80036;stroke-width:0.6;" x1="521.1" x2="545.7" y1="482.5969" y2="482.5969"/><polygon fill="#A80036" points="527.1,480.1969,521.1,482.5969,527.1,484.9969,524.7,482.5969" style="stroke:#A80036;stroke-width:0.6;"/><text fill="#000000" font-family="sans-serif" font-size="7.8" font-weight="bold" lengthAdjust="spacing" textLength="8.4" x="524.7" y="471.883">14</text><text fill="#000000" font-family="sans-serif" font-size="7.8" lengthAdjust="spacing" textLength="39.6" x="535.5" y="471.883">QuickSort()</text><line style="stroke:#A80036;stroke-width:0.6;" x1="520.5" x2="545.7" y1="508.0078" y2="508.0078"/><line style="stroke:#A80036;stroke-width:0.6;" x1="545.7" x2="545.7" y1="508.0078" y2="515.8078"/><line style="stroke:#A80036;stroke-width:0.6;" x1="517.5" x2="545.7" y1="515.8078" y2="515.8078"/><polygon fill="#A80036" points="523.5,513.4078,517.5,515.8078,523.5,518.2078,521.1,515.8078" style="stroke:#A80036;stroke-width:0.6;"/><text fill="#000000" font-family="sans-serif" font-size="7.8" font-weight="bold" lengthAdjust="spacing" textLength="8.4" x="524.7" y="505.0939">15</text><text fill="#000000" font-family="sans-serif" font-size="7.8" lengthAdjust="spacing" textLength="22.2" x="535.5" y="505.0939">order()</text><polygon fill="#A80036" points="60,528.6188,54,531.0188,60,533.4187,57.6,531.0188" style="stroke:#A80036;stroke-width:0.6;"/><line style="stroke:#A80036;stroke-width:0.6;" x1="56.4" x2="418.8" y1="531.0188" y2="531.0188"/><text fill="#000000" font-family="sans-serif" font-size="7.8" font-weight="bold" lengthAdjust="spacing" textLength="8.4" x="63.6" y="528.1049">16</text><text fill="#000000" font-family="sans-serif" font-size="7.8" lengthAdjust="spacing" textLength="223.8" x="74.4" y="528.1049">Shows all validated information sorted and give more sort options</text><path d="M6,540.0188 L49.8,540.0188 L49.8,544.8188 L43.8,550.8188 L6,550.8188 L6,540.0188 " fill="#EEEEEE" style="stroke:#000000;stroke-width:0.6;"/><rect fill="none" height="227.5125" style="stroke:#000000;stroke-width:1.2;" width="588.9" x="6" y="540.0188"/><text fill="#000000" font-family="sans-serif" font-size="7.8" font-weight="bold" lengthAdjust="spacing" textLength="16.8" x="15" y="548.7158">loop</text><text fill="#000000" font-family="sans-serif" font-size="6.6" font-weight="bold" lengthAdjust="spacing" textLength="62.4" x="58.8" y="548.0701">[while user wants]</text><polygon fill="#A80036" points="412.2,562.0406,418.2,564.4406,412.2,566.8406,414.6,564.4406" style="stroke:#A80036;stroke-width:0.6;"/><line style="stroke:#A80036;stroke-width:0.6;" x1="53.4" x2="415.8" y1="564.4406" y2="564.4406"/><text fill="#000000" font-family="sans-serif" font-size="7.8" font-weight="bold" lengthAdjust="spacing" textLength="8.4" x="57.6" y="561.5268">17</text><text fill="#000000" font-family="sans-serif" font-size="7.8" lengthAdjust="spacing" textLength="340.8" x="68.4" y="561.5268">Selects Sort Settings (sort by Arrival or Leave Date; what day to search; ascending or descending)</text><polygon fill="#A80036" points="507.3,580.2516,513.3,582.6516,507.3,585.0516,509.7,582.6516" style="stroke:#A80036;stroke-width:0.6;"/><line style="stroke:#A80036;stroke-width:0.6;" x1="425.4" x2="510.9" y1="582.6516" y2="582.6516"/><text fill="#000000" font-family="sans-serif" font-size="7.8" font-weight="bold" lengthAdjust="spacing" textLength="8.4" x="429.6" y="579.7377">18</text><text fill="#000000" font-family="sans-serif" font-size="7.8" lengthAdjust="spacing" textLength="62.4" x="440.4" y="579.7377">Sort(SortSettings)</text><path d="M479.4,591.6516 L516,591.6516 L516,596.4516 L510,602.4516 L479.4,602.4516 L479.4,591.6516 " fill="#EEEEEE" style="stroke:#000000;stroke-width:0.6;"/><rect fill="none" height="72.5344" style="stroke:#000000;stroke-width:1.2;" width="106.5" x="479.4" y="591.6516"/><text fill="#000000" font-family="sans-serif" font-size="7.8" font-weight="bold" lengthAdjust="spacing" textLength="9.6" x="488.4" y="600.3486">alt</text><text fill="#000000" font-family="sans-serif" font-size="6.6" font-weight="bold" lengthAdjust="spacing" textLength="41.4" x="525" y="599.7029">[BubbleSort]</text><line style="stroke:#A80036;stroke-width:0.6;" x1="520.5" x2="545.7" y1="616.0734" y2="616.0734"/><line style="stroke:#A80036;stroke-width:0.6;" x1="545.7" x2="545.7" y1="616.0734" y2="623.8734"/><line style="stroke:#A80036;stroke-width:0.6;" x1="521.1" x2="545.7" y1="623.8734" y2="623.8734"/><polygon fill="#A80036" points="527.1,621.4734,521.1,623.8734,527.1,626.2734,524.7,623.8734" style="stroke:#A80036;stroke-width:0.6;"/><text fill="#000000" font-family="sans-serif" font-size="7.8" font-weight="bold" lengthAdjust="spacing" textLength="8.4" x="524.7" y="613.1596">19</text><text fill="#000000" font-family="sans-serif" font-size="7.8" lengthAdjust="spacing" textLength="43.2" x="535.5" y="613.1596">BubbleSort()</text><line style="stroke:#000000;stroke-width:0.6;stroke-dasharray:2.0,2.0;" x1="479.4" x2="585.9" y1="629.2734" y2="629.2734"/><text fill="#000000" font-family="sans-serif" font-size="6.6" font-weight="bold" lengthAdjust="spacing" textLength="37.2" x="482.4" y="636.1248">[QuickSort]</text><line style="stroke:#A80036;stroke-width:0.6;" x1="520.5" x2="545.7" y1="651.5859" y2="651.5859"/><line style="stroke:#A80036;stroke-width:0.6;" x1="545.7" x2="545.7" y1="651.5859" y2="659.3859"/><line style="stroke:#A80036;stroke-width:0.6;" x1="521.1" x2="545.7" y1="659.3859" y2="659.3859"/><polygon fill="#A80036" points="527.1,656.9859,521.1,659.3859,527.1,661.7859,524.7,659.3859" style="stroke:#A80036;stroke-width:0.6;"/><text fill="#000000" font-family="sans-serif" font-size="7.8" font-weight="bold" lengthAdjust="spacing" textLength="8.4" x="524.7" y="648.6721">20</text><text fill="#000000" font-family="sans-serif" font-size="7.8" lengthAdjust="spacing" textLength="39.6" x="535.5" y="648.6721">QuickSort()</text><path d="M479.4,672.5859 L516,672.5859 L516,677.3859 L510,683.3859 L479.4,683.3859 L479.4,672.5859 " fill="#EEEEEE" style="stroke:#000000;stroke-width:0.6;"/><rect fill="none" height="72.5344" style="stroke:#000000;stroke-width:1.2;" width="109.5" x="479.4" y="672.5859"/><text fill="#000000" font-family="sans-serif" font-size="7.8" font-weight="bold" lengthAdjust="spacing" textLength="9.6" x="488.4" y="681.283">alt</text><text fill="#000000" font-family="sans-serif" font-size="6.6" font-weight="bold" lengthAdjust="spacing" textLength="55.8" x="525" y="680.6373">[Sort Ascending]</text><line style="stroke:#A80036;stroke-width:0.6;" x1="520.5" x2="545.7" y1="697.0078" y2="697.0078"/><line style="stroke:#A80036;stroke-width:0.6;" x1="545.7" x2="545.7" y1="697.0078" y2="704.8078"/><line style="stroke:#A80036;stroke-width:0.6;" x1="521.1" x2="545.7" y1="704.8078" y2="704.8078"/><polygon fill="#A80036" points="527.1,702.4078,521.1,704.8078,527.1,707.2078,524.7,704.8078" style="stroke:#A80036;stroke-width:0.6;"/><text fill="#000000" font-family="sans-serif" font-size="7.8" font-weight="bold" lengthAdjust="spacing" textLength="8.4" x="524.7" y="694.0939">21</text><text fill="#000000" font-family="sans-serif" font-size="7.8" lengthAdjust="spacing" textLength="22.2" x="535.5" y="694.0939">order()</text><line style="stroke:#000000;stroke-width:0.6;stroke-dasharray:2.0,2.0;" x1="479.4" x2="588.9" y1="710.2078" y2="710.2078"/><text fill="#000000" font-family="sans-serif" font-size="6.6" font-weight="bold" lengthAdjust="spacing" textLength="59.4" x="482.4" y="717.0592">[Sort Descending]</text><line style="stroke:#A80036;stroke-width:0.6;" x1="520.5" x2="545.7" y1="732.5203" y2="732.5203"/><line style="stroke:#A80036;stroke-width:0.6;" x1="545.7" x2="545.7" y1="732.5203" y2="740.3203"/><line style="stroke:#A80036;stroke-width:0.6;" x1="521.1" x2="545.7" y1="740.3203" y2="740.3203"/><polygon fill="#A80036" points="527.1,737.9203,521.1,740.3203,527.1,742.7203,524.7,740.3203" style="stroke:#A80036;stroke-width:0.6;"/><text fill="#000000" font-family="sans-serif" font-size="7.8" font-weight="bold" lengthAdjust="spacing" textLength="8.4" x="524.7" y="729.6064">22</text><text fill="#000000" font-family="sans-serif" font-size="7.8" lengthAdjust="spacing" textLength="46.2" x="535.5" y="729.6064">orderInverse()</text><polygon fill="#A80036" points="60,760.3313,54,762.7312,60,765.1313,57.6,762.7312" style="stroke:#A80036;stroke-width:0.6;"/><line style="stroke:#A80036;stroke-width:0.6;" x1="56.4" x2="418.8" y1="762.7312" y2="762.7312"/><text fill="#000000" font-family="sans-serif" font-size="7.8" font-weight="bold" lengthAdjust="spacing" textLength="8.4" x="63.6" y="759.8174">23</text><text fill="#000000" font-family="sans-serif" font-size="7.8" lengthAdjust="spacing" textLength="283.8" x="74.4" y="759.8174">Shows all information validated and sorted and allows the coordinator to sort again</text><polygon fill="#A80036" points="412.2,782.7422,418.2,785.1422,412.2,787.5422,414.6,785.1422" style="stroke:#A80036;stroke-width:0.6;"/><line style="stroke:#A80036;stroke-width:0.6;" x1="53.4" x2="415.8" y1="785.1422" y2="785.1422"/><text fill="#000000" font-family="sans-serif" font-size="7.8" font-weight="bold" lengthAdjust="spacing" textLength="8.4" x="57.6" y="782.2283">24</text><text fill="#000000" font-family="sans-serif" font-size="7.8" lengthAdjust="spacing" textLength="117" x="68.4" y="782.2283">asks to import the file to the store</text><polygon fill="#A80036" points="507.3,800.9531,513.3,803.3531,507.3,805.7531,509.7,803.3531" style="stroke:#A80036;stroke-width:0.6;"/><line style="stroke:#A80036;stroke-width:0.6;" x1="425.4" x2="510.9" y1="803.3531" y2="803.3531"/><text fill="#000000" font-family="sans-serif" font-size="7.8" font-weight="bold" lengthAdjust="spacing" textLength="8.4" x="429.6" y="800.4393">25</text><text fill="#000000" font-family="sans-serif" font-size="7.8" lengthAdjust="spacing" textLength="41.4" x="440.4" y="800.4393">importdata()</text><polygon fill="#A80036" points="748.5,819.1641,754.5,821.5641,748.5,823.9641,750.9,821.5641" style="stroke:#A80036;stroke-width:0.6;"/><line style="stroke:#A80036;stroke-width:0.6;" x1="520.5" x2="752.1" y1="821.5641" y2="821.5641"/><text fill="#000000" font-family="sans-serif" font-size="7.8" font-weight="bold" lengthAdjust="spacing" textLength="8.4" x="524.7" y="818.6502">26</text><text fill="#000000" font-family="sans-serif" font-size="7.8" lengthAdjust="spacing" textLength="35.4" x="535.5" y="818.6502">getEmail()</text><polygon fill="#A80036" points="822.3,855.375,828.3,857.775,822.3,860.175,824.7,857.775" style="stroke:#A80036;stroke-width:0.6;"/><line style="stroke:#A80036;stroke-width:0.6;" x1="520.5" x2="825.9" y1="857.775" y2="857.775"/><text fill="#000000" font-family="sans-serif" font-size="7.8" font-weight="bold" lengthAdjust="spacing" textLength="8.4" x="524.7" y="854.8611">27</text><text fill="#000000" font-family="sans-serif" font-size="7.8" lengthAdjust="spacing" textLength="132" x="535.5" y="854.8611">getCoordinatorCenterIDbyEmail(email)</text><polygon fill="#A80036" points="1057.5,891.5859,1063.5,893.9859,1057.5,896.3859,1059.9,893.9859" style="stroke:#A80036;stroke-width:0.6;"/><line style="stroke:#A80036;stroke-width:0.6;" x1="520.5" x2="1061.1" y1="893.9859" y2="893.9859"/><text fill="#000000" font-family="sans-serif" font-size="7.8" font-weight="bold" lengthAdjust="spacing" textLength="8.4" x="524.7" y="891.0721">28</text><text fill="#000000" font-family="sans-serif" font-size="7.8" lengthAdjust="spacing" textLength="415.8" x="535.5" y="891.0721">"VaccinationDto(SnsNumber, Vaccine, Dose, Lot, ScheduleDate, ArrivalDate, AdministratedDate, LeaveDate, CenterID)"</text><polygon fill="#A80036" points="1189.5,909.7969,1195.5,912.1969,1189.5,914.5969,1191.9,912.1969" style="stroke:#A80036;stroke-width:0.6;"/><line style="stroke:#A80036;stroke-width:0.6;" x1="1070.7" x2="1193.1" y1="912.1969" y2="912.1969"/><text fill="#000000" font-family="sans-serif" font-size="7.8" font-weight="bold" lengthAdjust="spacing" textLength="8.4" x="1074.9" y="909.283">29</text><text fill="#000000" font-family="sans-serif" font-size="7.8" lengthAdjust="spacing" textLength="103.8" x="1085.7" y="909.283">createRecord(VaccinationDto)</text><line style="stroke:#A80036;stroke-width:0.6;" x1="1202.7" x2="1227.9" y1="930.4078" y2="930.4078"/><line style="stroke:#A80036;stroke-width:0.6;" x1="1227.9" x2="1227.9" y1="930.4078" y2="938.2078"/><line style="stroke:#A80036;stroke-width:0.6;" x1="1203.3" x2="1227.9" y1="938.2078" y2="938.2078"/><polygon fill="#A80036" points="1209.3,935.8078,1203.3,938.2078,1209.3,940.6078,1206.9,938.2078" style="stroke:#A80036;stroke-width:0.6;"/><text fill="#000000" font-family="sans-serif" font-size="7.8" font-weight="bold" lengthAdjust="spacing" textLength="8.4" x="1206.9" y="927.4939">30</text><text fill="#000000" font-family="sans-serif" font-size="7.8" lengthAdjust="spacing" textLength="45" x="1217.7" y="927.4939">saveRecord()</text><line style="stroke:#A80036;stroke-width:0.6;" x1="1202.7" x2="1227.9" y1="959.4187" y2="959.4187"/><line style="stroke:#A80036;stroke-width:0.6;" x1="1227.9" x2="1227.9" y1="959.4187" y2="967.2188"/><line style="stroke:#A80036;stroke-width:0.6;" x1="1199.7" x2="1227.9" y1="967.2188" y2="967.2188"/><polygon fill="#A80036" points="1205.7,964.8187,1199.7,967.2188,1205.7,969.6188,1203.3,967.2188" style="stroke:#A80036;stroke-width:0.6;"/><text fill="#000000" font-family="sans-serif" font-size="7.8" font-weight="bold" lengthAdjust="spacing" textLength="8.4" x="1206.9" y="956.5049">31</text><text fill="#000000" font-family="sans-serif" font-size="7.8" lengthAdjust="spacing" textLength="62.4" x="1217.7" y="956.5049">exportdataToFile()</text><polygon fill="#A80036" points="60,980.0297,54,982.4297,60,984.8297,57.6,982.4297" style="stroke:#A80036;stroke-width:0.6;"/><line style="stroke:#A80036;stroke-width:0.6;" x1="56.4" x2="418.8" y1="982.4297" y2="982.4297"/><text fill="#000000" font-family="sans-serif" font-size="7.8" font-weight="bold" lengthAdjust="spacing" textLength="8.4" x="63.6" y="979.5158">32</text><text fill="#000000" font-family="sans-serif" font-size="7.8" lengthAdjust="spacing" textLength="81" x="74.4" y="979.5158">Informs import success</text><!--MD5=[068576c7671551160def62dccc48ce4c]
@startuml
'https://plantuml.com/sequence-diagram

autonumber

actor "Center Coordinator" as User

activate User

participant ":App" as App
participant ":SortFileUi" as UI
participant ":Sortcontroller" as ctrl
participant ":App" as App
participant ":Company" as Company
participant ":AuthFacade" as Auth
participant "CoordinatorStore" as COOR
participant "NHSUserStore" as NHSS
participant "VaccineAdmStore" as VAS
participant "VaccinationDTO" as VDTO
participant "VaccinationLogStore" as VL

activate UI

User -> UI : "Asks to read and sort the legacy file"
UI - -> ctrl ** : create(app)
activate ctrl
ctrl -> App : getCompany()
ctrl -> Company : getStores()
loop while file is not over
ctrl -> NHSS : VerifySNSNumber(snsnumber)
activate NHSS
deactivate NHSS
ctrl -> NHSS : getNameBySNS(snsnumber)
activate NHSS
deactivate NHSS
ctrl -> VAS : VerifyVaccine(Brand)
activate VAS
deactivate VAS
ctrl -> VAS : getVaccineDetails(Brand)
activate VAS
deactivate VAS
ctrl -> ctrl : verify schedule Date
ctrl -> ctrl : verify Arrival Date
ctrl -> ctrl : verify Nurse Administration Date
ctrl -> ctrl : verify Leave Date
end
alt BubbleSort
ctrl -> ctrl : BubbleSort()
else QuickSort
ctrl -> ctrl : QuickSort()
end
ctrl -> ctrl : order()

deactivate ctrl
UI -> User : Shows all validated information sorted and give more sort options
loop while user wants
User -> UI : Selects Sort Settings (sort by Arrival or Leave Date; what day to search; ascending or descending)

UI -> ctrl : Sort(SortSettings)
activate ctrl
alt BubbleSort
ctrl -> ctrl : BubbleSort()
else QuickSort
ctrl -> ctrl : QuickSort()
end
alt Sort Ascending
ctrl -> ctrl : order()
else Sort Descending
ctrl -> ctrl : orderInverse()
end
UI -> User : Shows all information validated and sorted and allows the coordinator to sort again
end
User -> UI : asks to import the file to the store
UI -> ctrl : importdata()
ctrl -> Auth : getEmail()
activate Auth
deactivate Auth
ctrl -> COOR : getCoordinatorCenterIDbyEmail(email)
activate COOR
deactivate COOR
ctrl -> VDTO : "VaccinationDto(SnsNumber, Vaccine, Dose, Lot, ScheduleDate, ArrivalDate, AdministratedDate, LeaveDate, CenterID)"
activate VDTO
VDTO -> VL : createRecord(VaccinationDto)
activate VL
VL -> VL : saveRecord()
VL -> VL : exportdataToFile()
deactivate VDTO
UI -> User : Informs import success
deactivate VL

deactivate
@enduml

@startuml

autonumber

actor "Center Coordinator" as User

activate User

participant ":App" as App
participant ":SortFileUi" as UI
participant ":Sortcontroller" as ctrl
participant ":App" as App
participant ":Company" as Company
participant ":AuthFacade" as Auth
participant "CoordinatorStore" as COOR
participant "NHSUserStore" as NHSS
participant "VaccineAdmStore" as VAS
participant "VaccinationDTO" as VDTO
participant "VaccinationLogStore" as VL

activate UI

User -> UI : "Asks to read and sort the legacy file"
UI - -> ctrl ** : create(app)
activate ctrl
ctrl -> App : getCompany()
ctrl -> Company : getStores()
loop while file is not over
ctrl -> NHSS : VerifySNSNumber(snsnumber)
activate NHSS
deactivate NHSS
ctrl -> NHSS : getNameBySNS(snsnumber)
activate NHSS
deactivate NHSS
ctrl -> VAS : VerifyVaccine(Brand)
activate VAS
deactivate VAS
ctrl -> VAS : getVaccineDetails(Brand)
activate VAS
deactivate VAS
ctrl -> ctrl : verify schedule Date
ctrl -> ctrl : verify Arrival Date
ctrl -> ctrl : verify Nurse Administration Date
ctrl -> ctrl : verify Leave Date
end
alt BubbleSort
ctrl -> ctrl : BubbleSort()
else QuickSort
ctrl -> ctrl : QuickSort()
end
ctrl -> ctrl : order()

deactivate ctrl
UI -> User : Shows all validated information sorted and give more sort options
loop while user wants
User -> UI : Selects Sort Settings (sort by Arrival or Leave Date; what day to search; ascending or descending)

UI -> ctrl : Sort(SortSettings)
activate ctrl
alt BubbleSort
ctrl -> ctrl : BubbleSort()
else QuickSort
ctrl -> ctrl : QuickSort()
end
alt Sort Ascending
ctrl -> ctrl : order()
else Sort Descending
ctrl -> ctrl : orderInverse()
end
UI -> User : Shows all information validated and sorted and allows the coordinator to sort again
end
User -> UI : asks to import the file to the store
UI -> ctrl : importdata()
ctrl -> Auth : getEmail()
activate Auth
deactivate Auth
ctrl -> COOR : getCoordinatorCenterIDbyEmail(email)
activate COOR
deactivate COOR
ctrl -> VDTO : "VaccinationDto(SnsNumber, Vaccine, Dose, Lot, ScheduleDate, ArrivalDate, AdministratedDate, LeaveDate, CenterID)"
activate VDTO
VDTO -> VL : createRecord(VaccinationDto)
activate VL
VL -> VL : saveRecord()
VL -> VL : exportdataToFile()
deactivate VDTO
UI -> User : Informs import success
deactivate VL

deactivate
@enduml

PlantUML version 1.2022.1(Tue Feb 01 18:19:58 GMT 2022)
(GPL source distribution)
Java Runtime: OpenJDK Runtime Environment
JVM: OpenJDK 64-Bit Server VM
Default Encoding: Cp1252
Language: pt
Country: PT
--></g></svg>