@startuml
'https://plantuml.com/sequence-diagram

autonumber

actor "Center Coordinator" as User

activate User

participant ":App" as App
participant ":SortFileUi" as UI
participant ":Sortcontroller" as ctrl
participant ":App" as App
participant ":Company" as Company
participant ":AuthFacade" as Auth
participant "CoordinatorStore" as COOR
participant "NHSUserStore" as NHSS
participant "VaccineAdmStore" as VAS
participant "VaccinationDTO" as VDTO
participant "VaccinationLogStore" as VL

activate UI

User -> UI : "Asks to read and sort the legacy file"
UI --> ctrl ** : create(app)
activate ctrl
ctrl -> App : getCompany()
ctrl -> Company : getStores()
loop while file is not over
ctrl -> NHSS : VerifySNSNumber(snsnumber)
activate NHSS
deactivate NHSS
ctrl -> NHSS : getNameBySNS(snsnumber)
activate NHSS
deactivate NHSS
ctrl -> VAS : VerifyVaccine(Brand)
activate VAS
deactivate VAS
ctrl -> VAS : getVaccineDetails(Brand)
activate VAS
deactivate VAS
ctrl -> ctrl : verify schedule Date
ctrl -> ctrl : verify Arrival Date
ctrl -> ctrl : verify Nurse Administration Date
ctrl -> ctrl : verify Leave Date
end
alt BubbleSort
ctrl -> ctrl : BubbleSort()
else QuickSort
ctrl -> ctrl : QuickSort()
end
ctrl -> ctrl : order()

deactivate ctrl
UI -> User : Shows all validated information sorted and give more sort options
loop while user wants
User -> UI : Selects Sort Settings (sort by Arrival or Leave Date; what day to search; ascending or descending)

UI -> ctrl : Sort(SortSettings)
activate ctrl
alt BubbleSort
ctrl -> ctrl : BubbleSort()
else QuickSort
ctrl -> ctrl : QuickSort()
end
alt Sort Ascending
ctrl -> ctrl : order()
else Sort Descending
ctrl -> ctrl : orderInverse()
end
UI -> User : Shows all information validated and sorted and allows the coordinator to sort again
end
User -> UI : asks to import the file to the store
UI -> ctrl : importdata()
ctrl -> Auth : getEmail()
activate Auth
deactivate Auth
ctrl -> COOR : getCoordinatorCenterIDbyEmail(email)
activate COOR
deactivate COOR
ctrl -> VDTO : "VaccinationDto(SnsNumber, Vaccine, Dose, Lot, ScheduleDate, ArrivalDate, AdministratedDate, LeaveDate, CenterID)"
activate VDTO
VDTO -> VL : createRecord(VaccinationDto)
activate VL
VL -> VL : saveRecord()
VL -> VL : exportdataToFile()
deactivate VDTO
UI -> User : Informs import success
deactivate VL

deactivate
@enduml