<?xml version="1.0" encoding="UTF-8" standalone="no"?><svg xmlns="http://www.w3.org/2000/svg" xmlns:xlink="http://www.w3.org/1999/xlink" contentScriptType="application/ecmascript" contentStyleType="text/css" height="584px" preserveAspectRatio="none" style="width:1670px;height:584px;background:#FFFFFF;" version="1.1" viewBox="0 0 1670 584" width="1670px" zoomAndPan="magnify"><defs><filter height="300%" id="f1f0ya3t9g8la5" width="300%" x="-1" y="-1"><feGaussianBlur result="blurOut" stdDeviation="2.0"/><feColorMatrix in="blurOut" result="blurOut2" type="matrix" values="0 0 0 0 0 0 0 0 0 0 0 0 0 0 0 0 0 0 .4 0"/><feOffset dx="4.0" dy="4.0" in="blurOut2" result="blurOut3"/><feBlend in="SourceGraphic" in2="blurOut3" mode="normal"/></filter></defs><g><!--MD5=[02e4b9b7573f1156f41e60aa5b4e25a4]
class Company--><rect codeLine="4" fill="#FEFECE" filter="url(#f1f0ya3t9g8la5)" height="40" id="Company" style="stroke:#A80036;stroke-width:1.5;" width="85" x="7" y="212"/><ellipse cx="22" cy="228" fill="#ADD1B2" rx="11" ry="11" style="stroke:#A80036;stroke-width:1.0;"/><path d="M24,224.5 Q24.2031,224 24.4375,223.75 Q24.6719,223.5 24.9375,223.5 Q25.4063,223.5 25.7031,223.7813 Q26,224.0625 26,224.7188 L26,226.2813 Q26,226.9375 25.7188,227.2188 Q25.4375,227.5 25,227.5 Q24.6094,227.5 24.3594,227.3281 Q24.1094,227.1563 24,226.7031 Q23.9531,226.3906 23.7813,226.2188 Q23.4688,225.8906 22.9063,225.7031 Q22.3438,225.5 21.7813,225.5 Q21.0781,225.5 20.4844,225.7813 Q19.9063,226.0625 19.4531,226.6875 Q19,227.3125 19,228.1719 L19,229.0938 Q19,230.125 19.8438,230.8125 Q20.6875,231.5 22.1875,231.5 Q23.0781,231.5 23.7031,231.2969 Q24.0625,231.1875 24.4688,230.8281 Q24.7344,230.625 24.875,230.5625 Q25.0156,230.5 25.1875,230.5 Q25.5156,230.5 25.75,230.7656 Q26,231.0156 26,231.375 Q26,231.7188 25.6563,232.125 Q25.1563,232.7188 24.3594,233.0469 Q23.3125,233.5 22.0313,233.5 Q20.5313,233.5 19.3281,232.9063 Q18.3594,232.4375 17.6719,231.4219 Q17,230.4063 17,229.2031 L17,228.1094 Q17,226.8594 17.5938,225.7656 Q18.2031,224.6719 19.25,224.0938 Q20.3125,223.5 21.5,223.5 Q22.2188,223.5 22.8438,223.75 Q23.4688,224 24,224.5 Z " fill="#000000"/><text fill="#000000" font-family="sans-serif" font-size="12" lengthAdjust="spacing" textLength="53" x="36" y="232.9102">Company</text><line style="stroke:#A80036;stroke-width:1.5;" x1="8" x2="91" y1="244" y2="244"/><!--MD5=[1cf941c7a2ec464c88d480ae8b9735c9]
class NhsUser--><rect codeLine="6" fill="#FEFECE" filter="url(#f1f0ya3t9g8la5)" height="150.6875" id="NhsUser" style="stroke:#A80036;stroke-width:1.5;" width="107" x="268" y="265.5"/><ellipse cx="294.25" cy="281.5" fill="#ADD1B2" rx="11" ry="11" style="stroke:#A80036;stroke-width:1.0;"/><path d="M296.25,278 Q296.4531,277.5 296.6875,277.25 Q296.9219,277 297.1875,277 Q297.6563,277 297.9531,277.2813 Q298.25,277.5625 298.25,278.2188 L298.25,279.7813 Q298.25,280.4375 297.9688,280.7188 Q297.6875,281 297.25,281 Q296.8594,281 296.6094,280.8281 Q296.3594,280.6563 296.25,280.2031 Q296.2031,279.8906 296.0313,279.7188 Q295.7188,279.3906 295.1563,279.2031 Q294.5938,279 294.0313,279 Q293.3281,279 292.7344,279.2813 Q292.1563,279.5625 291.7031,280.1875 Q291.25,280.8125 291.25,281.6719 L291.25,282.5938 Q291.25,283.625 292.0938,284.3125 Q292.9375,285 294.4375,285 Q295.3281,285 295.9531,284.7969 Q296.3125,284.6875 296.7188,284.3281 Q296.9844,284.125 297.125,284.0625 Q297.2656,284 297.4375,284 Q297.7656,284 298,284.2656 Q298.25,284.5156 298.25,284.875 Q298.25,285.2188 297.9063,285.625 Q297.4063,286.2188 296.6094,286.5469 Q295.5625,287 294.2813,287 Q292.7813,287 291.5781,286.4063 Q290.6094,285.9375 289.9219,284.9219 Q289.25,283.9063 289.25,282.7031 L289.25,281.6094 Q289.25,280.3594 289.8438,279.2656 Q290.4531,278.1719 291.5,277.5938 Q292.5625,277 293.75,277 Q294.4688,277 295.0938,277.25 Q295.7188,277.5 296.25,278 Z " fill="#000000"/><text fill="#000000" font-family="sans-serif" font-size="12" lengthAdjust="spacing" textLength="50" x="310.75" y="286.4102">NhsUser</text><line style="stroke:#A80036;stroke-width:1.5;" x1="269" x2="374" y1="297.5" y2="297.5"/><text fill="#000000" font-family="sans-serif" font-size="11" lengthAdjust="spacing" textLength="95" x="274" y="312.9189">-citizenCardNumber</text><text fill="#000000" font-family="sans-serif" font-size="11" lengthAdjust="spacing" textLength="30" x="274" y="326.7549">-name</text><text fill="#000000" font-family="sans-serif" font-size="11" lengthAdjust="spacing" textLength="44" x="274" y="340.5908">-address</text><text fill="#000000" font-family="sans-serif" font-size="11" lengthAdjust="spacing" textLength="59" x="274" y="354.4268">-nhsNumber</text><text fill="#000000" font-family="sans-serif" font-size="11" lengthAdjust="spacing" textLength="47" x="274" y="368.2627">-birthDate</text><text fill="#000000" font-family="sans-serif" font-size="11" lengthAdjust="spacing" textLength="22" x="274" y="382.0986">-sex</text><text fill="#000000" font-family="sans-serif" font-size="11" lengthAdjust="spacing" textLength="71" x="274" y="395.9346">-phoneNumber</text><text fill="#000000" font-family="sans-serif" font-size="11" lengthAdjust="spacing" textLength="28" x="274" y="409.7705">-email</text><!--MD5=[53d58b469dab931cbea506cdf5ebe602]
class Vaccination--><rect codeLine="16" fill="#FEFECE" filter="url(#f1f0ya3t9g8la5)" height="53.8359" id="Vaccination" style="stroke:#A80036;stroke-width:1.5;" width="95" x="581.5" y="269"/><ellipse cx="596.5" cy="285" fill="#ADD1B2" rx="11" ry="11" style="stroke:#A80036;stroke-width:1.0;"/><path d="M598.5,281.5 Q598.7031,281 598.9375,280.75 Q599.1719,280.5 599.4375,280.5 Q599.9063,280.5 600.2031,280.7813 Q600.5,281.0625 600.5,281.7188 L600.5,283.2813 Q600.5,283.9375 600.2188,284.2188 Q599.9375,284.5 599.5,284.5 Q599.1094,284.5 598.8594,284.3281 Q598.6094,284.1563 598.5,283.7031 Q598.4531,283.3906 598.2813,283.2188 Q597.9688,282.8906 597.4063,282.7031 Q596.8438,282.5 596.2813,282.5 Q595.5781,282.5 594.9844,282.7813 Q594.4063,283.0625 593.9531,283.6875 Q593.5,284.3125 593.5,285.1719 L593.5,286.0938 Q593.5,287.125 594.3438,287.8125 Q595.1875,288.5 596.6875,288.5 Q597.5781,288.5 598.2031,288.2969 Q598.5625,288.1875 598.9688,287.8281 Q599.2344,287.625 599.375,287.5625 Q599.5156,287.5 599.6875,287.5 Q600.0156,287.5 600.25,287.7656 Q600.5,288.0156 600.5,288.375 Q600.5,288.7188 600.1563,289.125 Q599.6563,289.7188 598.8594,290.0469 Q597.8125,290.5 596.5313,290.5 Q595.0313,290.5 593.8281,289.9063 Q592.8594,289.4375 592.1719,288.4219 Q591.5,287.4063 591.5,286.2031 L591.5,285.1094 Q591.5,283.8594 592.0938,282.7656 Q592.7031,281.6719 593.75,281.0938 Q594.8125,280.5 596,280.5 Q596.7188,280.5 597.3438,280.75 Q597.9688,281 598.5,281.5 Z " fill="#000000"/><text fill="#000000" font-family="sans-serif" font-size="12" lengthAdjust="spacing" textLength="63" x="610.5" y="289.9102">Vaccination</text><line style="stroke:#A80036;stroke-width:1.5;" x1="582.5" x2="675.5" y1="301" y2="301"/><text fill="#000000" font-family="sans-serif" font-size="11" lengthAdjust="spacing" textLength="28" x="587.5" y="316.4189">-code</text><!--MD5=[bbd32abb87742158d8b9937325662454]
class Center--><rect codeLine="19" fill="#FEFECE" filter="url(#f1f0ya3t9g8la5)" height="178.3594" id="Center" style="stroke:#A80036;stroke-width:1.5;" width="97" x="944.5" y="14"/><ellipse cx="972.1" cy="30" fill="#ADD1B2" rx="11" ry="11" style="stroke:#A80036;stroke-width:1.0;"/><path d="M974.1,26.5 Q974.3031,26 974.5375,25.75 Q974.7719,25.5 975.0375,25.5 Q975.5063,25.5 975.8031,25.7813 Q976.1,26.0625 976.1,26.7188 L976.1,28.2813 Q976.1,28.9375 975.8188,29.2188 Q975.5375,29.5 975.1,29.5 Q974.7094,29.5 974.4594,29.3281 Q974.2094,29.1563 974.1,28.7031 Q974.0531,28.3906 973.8813,28.2188 Q973.5688,27.8906 973.0063,27.7031 Q972.4438,27.5 971.8813,27.5 Q971.1781,27.5 970.5844,27.7813 Q970.0063,28.0625 969.5531,28.6875 Q969.1,29.3125 969.1,30.1719 L969.1,31.0938 Q969.1,32.125 969.9438,32.8125 Q970.7875,33.5 972.2875,33.5 Q973.1781,33.5 973.8031,33.2969 Q974.1625,33.1875 974.5688,32.8281 Q974.8344,32.625 974.975,32.5625 Q975.1156,32.5 975.2875,32.5 Q975.6156,32.5 975.85,32.7656 Q976.1,33.0156 976.1,33.375 Q976.1,33.7188 975.7563,34.125 Q975.2563,34.7188 974.4594,35.0469 Q973.4125,35.5 972.1313,35.5 Q970.6313,35.5 969.4281,34.9063 Q968.4594,34.4375 967.7719,33.4219 Q967.1,32.4063 967.1,31.2031 L967.1,30.1094 Q967.1,28.8594 967.6938,27.7656 Q968.3031,26.6719 969.35,26.0938 Q970.4125,25.5 971.6,25.5 Q972.3188,25.5 972.9438,25.75 Q973.5688,26 974.1,26.5 Z " fill="#000000"/><text fill="#000000" font-family="sans-serif" font-size="12" lengthAdjust="spacing" textLength="37" x="988.9" y="34.9102">Center</text><line style="stroke:#A80036;stroke-width:1.5;" x1="945.5" x2="1040.5" y1="46" y2="46"/><text fill="#000000" font-family="sans-serif" font-size="11" lengthAdjust="spacing" textLength="59" x="950.5" y="61.4189">-designation</text><text fill="#000000" font-family="sans-serif" font-size="11" lengthAdjust="spacing" textLength="44" x="950.5" y="75.2549">-address</text><text fill="#000000" font-family="sans-serif" font-size="11" lengthAdjust="spacing" textLength="71" x="950.5" y="89.0908">-phoneNumber</text><text fill="#000000" font-family="sans-serif" font-size="11" lengthAdjust="spacing" textLength="57" x="950.5" y="102.9268">-faxNumber</text><text fill="#000000" font-family="sans-serif" font-size="11" lengthAdjust="spacing" textLength="85" x="950.5" y="116.7627">-websiteAddress</text><text fill="#000000" font-family="sans-serif" font-size="11" lengthAdjust="spacing" textLength="70" x="950.5" y="130.5986">-emailAddress</text><text fill="#000000" font-family="sans-serif" font-size="11" lengthAdjust="spacing" textLength="50" x="950.5" y="144.4346">-openTime</text><text fill="#000000" font-family="sans-serif" font-size="11" lengthAdjust="spacing" textLength="52" x="950.5" y="158.2705">-closeTime</text><text fill="#000000" font-family="sans-serif" font-size="11" lengthAdjust="spacing" textLength="27" x="950.5" y="172.1064">-slots</text><text fill="#000000" font-family="sans-serif" font-size="11" lengthAdjust="spacing" textLength="61" x="950.5" y="185.9424">-slotDuration</text><!--MD5=[1db03e903fe0a044a2ca0dcbef10799a]
class HealthCareCenter--><rect codeLine="31" fill="#FEFECE" filter="url(#f1f0ya3t9g8la5)" height="67.6719" id="HealthCareCenter" style="stroke:#A80036;stroke-width:1.5;" width="132" x="1129" y="7"/><ellipse cx="1144" cy="23" fill="#ADD1B2" rx="11" ry="11" style="stroke:#A80036;stroke-width:1.0;"/><path d="M1146,19.5 Q1146.2031,19 1146.4375,18.75 Q1146.6719,18.5 1146.9375,18.5 Q1147.4063,18.5 1147.7031,18.7813 Q1148,19.0625 1148,19.7188 L1148,21.2813 Q1148,21.9375 1147.7188,22.2188 Q1147.4375,22.5 1147,22.5 Q1146.6094,22.5 1146.3594,22.3281 Q1146.1094,22.1563 1146,21.7031 Q1145.9531,21.3906 1145.7813,21.2188 Q1145.4688,20.8906 1144.9063,20.7031 Q1144.3438,20.5 1143.7813,20.5 Q1143.0781,20.5 1142.4844,20.7813 Q1141.9063,21.0625 1141.4531,21.6875 Q1141,22.3125 1141,23.1719 L1141,24.0938 Q1141,25.125 1141.8438,25.8125 Q1142.6875,26.5 1144.1875,26.5 Q1145.0781,26.5 1145.7031,26.2969 Q1146.0625,26.1875 1146.4688,25.8281 Q1146.7344,25.625 1146.875,25.5625 Q1147.0156,25.5 1147.1875,25.5 Q1147.5156,25.5 1147.75,25.7656 Q1148,26.0156 1148,26.375 Q1148,26.7188 1147.6563,27.125 Q1147.1563,27.7188 1146.3594,28.0469 Q1145.3125,28.5 1144.0313,28.5 Q1142.5313,28.5 1141.3281,27.9063 Q1140.3594,27.4375 1139.6719,26.4219 Q1139,25.4063 1139,24.2031 L1139,23.1094 Q1139,21.8594 1139.5938,20.7656 Q1140.2031,19.6719 1141.25,19.0938 Q1142.3125,18.5 1143.5,18.5 Q1144.2188,18.5 1144.8438,18.75 Q1145.4688,19 1146,19.5 Z " fill="#000000"/><text fill="#000000" font-family="sans-serif" font-size="12" lengthAdjust="spacing" textLength="100" x="1158" y="27.9102">HealthCareCenter</text><line style="stroke:#A80036;stroke-width:1.5;" x1="1130" x2="1260" y1="39" y2="39"/><text fill="#000000" font-family="sans-serif" font-size="11" lengthAdjust="spacing" textLength="26" x="1135" y="54.4189">-ARS</text><text fill="#000000" font-family="sans-serif" font-size="11" lengthAdjust="spacing" textLength="33" x="1135" y="68.2549">-AGES</text><!--MD5=[19e445fc4d3b48519cbe33da05496394]
class Vaccine--><rect codeLine="35" fill="#FEFECE" filter="url(#f1f0ya3t9g8la5)" height="53.8359" id="Vaccine" style="stroke:#A80036;stroke-width:1.5;" width="75" x="955.5" y="232"/><ellipse cx="970.5" cy="248" fill="#ADD1B2" rx="11" ry="11" style="stroke:#A80036;stroke-width:1.0;"/><path d="M972.5,244.5 Q972.7031,244 972.9375,243.75 Q973.1719,243.5 973.4375,243.5 Q973.9063,243.5 974.2031,243.7813 Q974.5,244.0625 974.5,244.7188 L974.5,246.2813 Q974.5,246.9375 974.2188,247.2188 Q973.9375,247.5 973.5,247.5 Q973.1094,247.5 972.8594,247.3281 Q972.6094,247.1563 972.5,246.7031 Q972.4531,246.3906 972.2813,246.2188 Q971.9688,245.8906 971.4063,245.7031 Q970.8438,245.5 970.2813,245.5 Q969.5781,245.5 968.9844,245.7813 Q968.4063,246.0625 967.9531,246.6875 Q967.5,247.3125 967.5,248.1719 L967.5,249.0938 Q967.5,250.125 968.3438,250.8125 Q969.1875,251.5 970.6875,251.5 Q971.5781,251.5 972.2031,251.2969 Q972.5625,251.1875 972.9688,250.8281 Q973.2344,250.625 973.375,250.5625 Q973.5156,250.5 973.6875,250.5 Q974.0156,250.5 974.25,250.7656 Q974.5,251.0156 974.5,251.375 Q974.5,251.7188 974.1563,252.125 Q973.6563,252.7188 972.8594,253.0469 Q971.8125,253.5 970.5313,253.5 Q969.0313,253.5 967.8281,252.9063 Q966.8594,252.4375 966.1719,251.4219 Q965.5,250.4063 965.5,249.2031 L965.5,248.1094 Q965.5,246.8594 966.0938,245.7656 Q966.7031,244.6719 967.75,244.0938 Q968.8125,243.5 970,243.5 Q970.7188,243.5 971.3438,243.75 Q971.9688,244 972.5,244.5 Z " fill="#000000"/><text fill="#000000" font-family="sans-serif" font-size="12" lengthAdjust="spacing" textLength="43" x="984.5" y="252.9102">Vaccine</text><line style="stroke:#A80036;stroke-width:1.5;" x1="956.5" x2="1029.5" y1="264" y2="264"/><text fill="#000000" font-family="sans-serif" font-size="11" lengthAdjust="spacing" textLength="32" x="961.5" y="279.4189">-brand</text><!--MD5=[e6aecee2b0dafc754649e6b81ba6acb5]
class VacAdministration--><rect codeLine="38" fill="#FEFECE" filter="url(#f1f0ya3t9g8la5)" height="136.8516" id="VacAdministration" style="stroke:#A80036;stroke-width:1.5;" width="131" x="927.5" y="357.5"/><ellipse cx="942.5" cy="373.5" fill="#ADD1B2" rx="11" ry="11" style="stroke:#A80036;stroke-width:1.0;"/><path d="M944.5,370 Q944.7031,369.5 944.9375,369.25 Q945.1719,369 945.4375,369 Q945.9063,369 946.2031,369.2813 Q946.5,369.5625 946.5,370.2188 L946.5,371.7813 Q946.5,372.4375 946.2188,372.7188 Q945.9375,373 945.5,373 Q945.1094,373 944.8594,372.8281 Q944.6094,372.6563 944.5,372.2031 Q944.4531,371.8906 944.2813,371.7188 Q943.9688,371.3906 943.4063,371.2031 Q942.8438,371 942.2813,371 Q941.5781,371 940.9844,371.2813 Q940.4063,371.5625 939.9531,372.1875 Q939.5,372.8125 939.5,373.6719 L939.5,374.5938 Q939.5,375.625 940.3438,376.3125 Q941.1875,377 942.6875,377 Q943.5781,377 944.2031,376.7969 Q944.5625,376.6875 944.9688,376.3281 Q945.2344,376.125 945.375,376.0625 Q945.5156,376 945.6875,376 Q946.0156,376 946.25,376.2656 Q946.5,376.5156 946.5,376.875 Q946.5,377.2188 946.1563,377.625 Q945.6563,378.2188 944.8594,378.5469 Q943.8125,379 942.5313,379 Q941.0313,379 939.8281,378.4063 Q938.8594,377.9375 938.1719,376.9219 Q937.5,375.9063 937.5,374.7031 L937.5,373.6094 Q937.5,372.3594 938.0938,371.2656 Q938.7031,370.1719 939.75,369.5938 Q940.8125,369 942,369 Q942.7188,369 943.3438,369.25 Q943.9688,369.5 944.5,370 Z " fill="#000000"/><text fill="#000000" font-family="sans-serif" font-size="12" lengthAdjust="spacing" textLength="99" x="956.5" y="378.4102">VacAdministration</text><line style="stroke:#A80036;stroke-width:1.5;" x1="928.5" x2="1057.5" y1="389.5" y2="389.5"/><text fill="#000000" font-family="sans-serif" font-size="11" lengthAdjust="spacing" textLength="60" x="933.5" y="404.9189">-SnsNumber</text><text fill="#000000" font-family="sans-serif" font-size="11" lengthAdjust="spacing" textLength="44" x="933.5" y="418.7549">-Vaccine</text><text fill="#000000" font-family="sans-serif" font-size="11" lengthAdjust="spacing" textLength="56" x="933.5" y="432.5908">-LotNumber</text><text fill="#000000" font-family="sans-serif" font-size="11" lengthAdjust="spacing" textLength="93" x="933.5" y="446.4268">-ScheduleDateTime</text><text fill="#000000" font-family="sans-serif" font-size="11" lengthAdjust="spacing" textLength="80" x="933.5" y="460.2627">-ArrivalDateTime</text><text fill="#000000" font-family="sans-serif" font-size="11" lengthAdjust="spacing" textLength="116" x="933.5" y="474.0986">-AdministrationDateTime</text><text fill="#000000" font-family="sans-serif" font-size="11" lengthAdjust="spacing" textLength="86" x="933.5" y="487.9346">-LeavingDateTime</text><!--MD5=[5e97d05a9cfda6ddad88bdb093be2fc3]
class VacType--><rect codeLine="47" fill="#FEFECE" filter="url(#f1f0ya3t9g8la5)" height="53.8359" id="VacType" style="stroke:#A80036;stroke-width:1.5;" width="78" x="1578" y="102"/><ellipse cx="1593" cy="118" fill="#ADD1B2" rx="11" ry="11" style="stroke:#A80036;stroke-width:1.0;"/><path d="M1595,114.5 Q1595.2031,114 1595.4375,113.75 Q1595.6719,113.5 1595.9375,113.5 Q1596.4063,113.5 1596.7031,113.7813 Q1597,114.0625 1597,114.7188 L1597,116.2813 Q1597,116.9375 1596.7188,117.2188 Q1596.4375,117.5 1596,117.5 Q1595.6094,117.5 1595.3594,117.3281 Q1595.1094,117.1563 1595,116.7031 Q1594.9531,116.3906 1594.7813,116.2188 Q1594.4688,115.8906 1593.9063,115.7031 Q1593.3438,115.5 1592.7813,115.5 Q1592.0781,115.5 1591.4844,115.7813 Q1590.9063,116.0625 1590.4531,116.6875 Q1590,117.3125 1590,118.1719 L1590,119.0938 Q1590,120.125 1590.8438,120.8125 Q1591.6875,121.5 1593.1875,121.5 Q1594.0781,121.5 1594.7031,121.2969 Q1595.0625,121.1875 1595.4688,120.8281 Q1595.7344,120.625 1595.875,120.5625 Q1596.0156,120.5 1596.1875,120.5 Q1596.5156,120.5 1596.75,120.7656 Q1597,121.0156 1597,121.375 Q1597,121.7188 1596.6563,122.125 Q1596.1563,122.7188 1595.3594,123.0469 Q1594.3125,123.5 1593.0313,123.5 Q1591.5313,123.5 1590.3281,122.9063 Q1589.3594,122.4375 1588.6719,121.4219 Q1588,120.4063 1588,119.2031 L1588,118.1094 Q1588,116.8594 1588.5938,115.7656 Q1589.2031,114.6719 1590.25,114.0938 Q1591.3125,113.5 1592.5,113.5 Q1593.2188,113.5 1593.8438,113.75 Q1594.4688,114 1595,114.5 Z " fill="#000000"/><text fill="#000000" font-family="sans-serif" font-size="12" lengthAdjust="spacing" textLength="46" x="1607" y="122.9102">VacType</text><line style="stroke:#A80036;stroke-width:1.5;" x1="1579" x2="1655" y1="134" y2="134"/><text fill="#000000" font-family="sans-serif" font-size="11" lengthAdjust="spacing" textLength="25" x="1584" y="149.4189">-type</text><!--MD5=[7421f545a0d8420c5bec41e74b387d9c]
class Employee--><rect codeLine="50" fill="#FEFECE" filter="url(#f1f0ya3t9g8la5)" height="109.1797" id="Employee" style="stroke:#A80036;stroke-width:1.5;" width="87" x="278" y="455.5"/><ellipse cx="293" cy="471.5" fill="#ADD1B2" rx="11" ry="11" style="stroke:#A80036;stroke-width:1.0;"/><path d="M295,468 Q295.2031,467.5 295.4375,467.25 Q295.6719,467 295.9375,467 Q296.4063,467 296.7031,467.2813 Q297,467.5625 297,468.2188 L297,469.7813 Q297,470.4375 296.7188,470.7188 Q296.4375,471 296,471 Q295.6094,471 295.3594,470.8281 Q295.1094,470.6563 295,470.2031 Q294.9531,469.8906 294.7813,469.7188 Q294.4688,469.3906 293.9063,469.2031 Q293.3438,469 292.7813,469 Q292.0781,469 291.4844,469.2813 Q290.9063,469.5625 290.4531,470.1875 Q290,470.8125 290,471.6719 L290,472.5938 Q290,473.625 290.8438,474.3125 Q291.6875,475 293.1875,475 Q294.0781,475 294.7031,474.7969 Q295.0625,474.6875 295.4688,474.3281 Q295.7344,474.125 295.875,474.0625 Q296.0156,474 296.1875,474 Q296.5156,474 296.75,474.2656 Q297,474.5156 297,474.875 Q297,475.2188 296.6563,475.625 Q296.1563,476.2188 295.3594,476.5469 Q294.3125,477 293.0313,477 Q291.5313,477 290.3281,476.4063 Q289.3594,475.9375 288.6719,474.9219 Q288,473.9063 288,472.7031 L288,471.6094 Q288,470.3594 288.5938,469.2656 Q289.2031,468.1719 290.25,467.5938 Q291.3125,467 292.5,467 Q293.2188,467 293.8438,467.25 Q294.4688,467.5 295,468 Z " fill="#000000"/><text fill="#000000" font-family="sans-serif" font-size="12" lengthAdjust="spacing" textLength="55" x="307" y="476.4102">Employee</text><line style="stroke:#A80036;stroke-width:1.5;" x1="279" x2="364" y1="487.5" y2="487.5"/><text fill="#000000" font-family="sans-serif" font-size="11" lengthAdjust="spacing" textLength="12" x="284" y="502.9189">-id</text><text fill="#000000" font-family="sans-serif" font-size="11" lengthAdjust="spacing" textLength="30" x="284" y="516.7549">-name</text><text fill="#000000" font-family="sans-serif" font-size="11" lengthAdjust="spacing" textLength="44" x="284" y="530.5908">-address</text><text fill="#000000" font-family="sans-serif" font-size="11" lengthAdjust="spacing" textLength="71" x="284" y="544.4268">-phoneNumber</text><text fill="#000000" font-family="sans-serif" font-size="11" lengthAdjust="spacing" textLength="70" x="284" y="558.2627">-emailAddress</text><!--MD5=[a2530d24bafc45bb45314d96545aa194]
class AdministrationProcess--><rect codeLine="57" fill="#FEFECE" filter="url(#f1f0ya3t9g8la5)" height="95.3438" id="AdministrationProcess" style="stroke:#A80036;stroke-width:1.5;" width="157" x="1360" y="199.5"/><ellipse cx="1375" cy="215.5" fill="#ADD1B2" rx="11" ry="11" style="stroke:#A80036;stroke-width:1.0;"/><path d="M1377,212 Q1377.2031,211.5 1377.4375,211.25 Q1377.6719,211 1377.9375,211 Q1378.4063,211 1378.7031,211.2813 Q1379,211.5625 1379,212.2188 L1379,213.7813 Q1379,214.4375 1378.7188,214.7188 Q1378.4375,215 1378,215 Q1377.6094,215 1377.3594,214.8281 Q1377.1094,214.6563 1377,214.2031 Q1376.9531,213.8906 1376.7813,213.7188 Q1376.4688,213.3906 1375.9063,213.2031 Q1375.3438,213 1374.7813,213 Q1374.0781,213 1373.4844,213.2813 Q1372.9063,213.5625 1372.4531,214.1875 Q1372,214.8125 1372,215.6719 L1372,216.5938 Q1372,217.625 1372.8438,218.3125 Q1373.6875,219 1375.1875,219 Q1376.0781,219 1376.7031,218.7969 Q1377.0625,218.6875 1377.4688,218.3281 Q1377.7344,218.125 1377.875,218.0625 Q1378.0156,218 1378.1875,218 Q1378.5156,218 1378.75,218.2656 Q1379,218.5156 1379,218.875 Q1379,219.2188 1378.6563,219.625 Q1378.1563,220.2188 1377.3594,220.5469 Q1376.3125,221 1375.0313,221 Q1373.5313,221 1372.3281,220.4063 Q1371.3594,219.9375 1370.6719,218.9219 Q1370,217.9063 1370,216.7031 L1370,215.6094 Q1370,214.3594 1370.5938,213.2656 Q1371.2031,212.1719 1372.25,211.5938 Q1373.3125,211 1374.5,211 Q1375.2188,211 1375.8438,211.25 Q1376.4688,211.5 1377,212 Z " fill="#000000"/><text fill="#000000" font-family="sans-serif" font-size="12" lengthAdjust="spacing" textLength="125" x="1389" y="220.4102">AdministrationProcess</text><line style="stroke:#A80036;stroke-width:1.5;" x1="1361" x2="1516" y1="231.5" y2="231.5"/><text fill="#000000" font-family="sans-serif" font-size="11" lengthAdjust="spacing" textLength="52" x="1366" y="246.9189">-ageGroup</text><text fill="#000000" font-family="sans-serif" font-size="11" lengthAdjust="spacing" textLength="40" x="1366" y="260.7549">-dosage</text><text fill="#000000" font-family="sans-serif" font-size="11" lengthAdjust="spacing" textLength="83" x="1366" y="274.5908">-numberOfDoses</text><text fill="#000000" font-family="sans-serif" font-size="11" lengthAdjust="spacing" textLength="58" x="1366" y="288.4268">-timeInterval</text><!--MD5=[2d935fd2dd068a13da1ae531f9857c4f]
class CenterCoordinator--><rect codeLine="63" fill="#FEFECE" filter="url(#f1f0ya3t9g8la5)" height="40" id="CenterCoordinator" style="stroke:#A80036;stroke-width:1.5;" width="134" x="562" y="506"/><ellipse cx="577" cy="522" fill="#ADD1B2" rx="11" ry="11" style="stroke:#A80036;stroke-width:1.0;"/><path d="M579,518.5 Q579.2031,518 579.4375,517.75 Q579.6719,517.5 579.9375,517.5 Q580.4063,517.5 580.7031,517.7813 Q581,518.0625 581,518.7188 L581,520.2813 Q581,520.9375 580.7188,521.2188 Q580.4375,521.5 580,521.5 Q579.6094,521.5 579.3594,521.3281 Q579.1094,521.1563 579,520.7031 Q578.9531,520.3906 578.7813,520.2188 Q578.4688,519.8906 577.9063,519.7031 Q577.3438,519.5 576.7813,519.5 Q576.0781,519.5 575.4844,519.7813 Q574.9063,520.0625 574.4531,520.6875 Q574,521.3125 574,522.1719 L574,523.0938 Q574,524.125 574.8438,524.8125 Q575.6875,525.5 577.1875,525.5 Q578.0781,525.5 578.7031,525.2969 Q579.0625,525.1875 579.4688,524.8281 Q579.7344,524.625 579.875,524.5625 Q580.0156,524.5 580.1875,524.5 Q580.5156,524.5 580.75,524.7656 Q581,525.0156 581,525.375 Q581,525.7188 580.6563,526.125 Q580.1563,526.7188 579.3594,527.0469 Q578.3125,527.5 577.0313,527.5 Q575.5313,527.5 574.3281,526.9063 Q573.3594,526.4375 572.6719,525.4219 Q572,524.4063 572,523.2031 L572,522.1094 Q572,520.8594 572.5938,519.7656 Q573.2031,518.6719 574.25,518.0938 Q575.3125,517.5 576.5,517.5 Q577.2188,517.5 577.8438,517.75 Q578.4688,518 579,518.5 Z " fill="#000000"/><text fill="#000000" font-family="sans-serif" font-size="12" lengthAdjust="spacing" textLength="102" x="591" y="526.9102">CenterCoordinator</text><line style="stroke:#A80036;stroke-width:1.5;" x1="563" x2="695" y1="538" y2="538"/><!--MD5=[c0ed281f1218f6c0dd08edec9a4a4dc8]
class ProcessManagement--><rect codeLine="64" fill="#FEFECE" filter="url(#f1f0ya3t9g8la5)" height="40" id="ProcessManagement" style="stroke:#A80036;stroke-width:1.5;" width="150" x="918" y="530"/><ellipse cx="933" cy="546" fill="#ADD1B2" rx="11" ry="11" style="stroke:#A80036;stroke-width:1.0;"/><path d="M935,542.5 Q935.2031,542 935.4375,541.75 Q935.6719,541.5 935.9375,541.5 Q936.4063,541.5 936.7031,541.7813 Q937,542.0625 937,542.7188 L937,544.2813 Q937,544.9375 936.7188,545.2188 Q936.4375,545.5 936,545.5 Q935.6094,545.5 935.3594,545.3281 Q935.1094,545.1563 935,544.7031 Q934.9531,544.3906 934.7813,544.2188 Q934.4688,543.8906 933.9063,543.7031 Q933.3438,543.5 932.7813,543.5 Q932.0781,543.5 931.4844,543.7813 Q930.9063,544.0625 930.4531,544.6875 Q930,545.3125 930,546.1719 L930,547.0938 Q930,548.125 930.8438,548.8125 Q931.6875,549.5 933.1875,549.5 Q934.0781,549.5 934.7031,549.2969 Q935.0625,549.1875 935.4688,548.8281 Q935.7344,548.625 935.875,548.5625 Q936.0156,548.5 936.1875,548.5 Q936.5156,548.5 936.75,548.7656 Q937,549.0156 937,549.375 Q937,549.7188 936.6563,550.125 Q936.1563,550.7188 935.3594,551.0469 Q934.3125,551.5 933.0313,551.5 Q931.5313,551.5 930.3281,550.9063 Q929.3594,550.4375 928.6719,549.4219 Q928,548.4063 928,547.2031 L928,546.1094 Q928,544.8594 928.5938,543.7656 Q929.2031,542.6719 930.25,542.0938 Q931.3125,541.5 932.5,541.5 Q933.2188,541.5 933.8438,541.75 Q934.4688,542 935,542.5 Z " fill="#000000"/><text fill="#000000" font-family="sans-serif" font-size="12" lengthAdjust="spacing" textLength="118" x="947" y="550.9102">ProcessManagement</text><line style="stroke:#A80036;stroke-width:1.5;" x1="919" x2="1067" y1="562" y2="562"/><!--MD5=[de60e6d4f424ae4d0522096f76a59010]
class VaccinationCenter--><rect fill="#FEFECE" filter="url(#f1f0ya3t9g8la5)" height="40" id="VaccinationCenter" style="stroke:#A80036;stroke-width:1.5;" width="132" x="1129" y="110"/><ellipse cx="1144" cy="126" fill="#ADD1B2" rx="11" ry="11" style="stroke:#A80036;stroke-width:1.0;"/><path d="M1146,122.5 Q1146.2031,122 1146.4375,121.75 Q1146.6719,121.5 1146.9375,121.5 Q1147.4063,121.5 1147.7031,121.7813 Q1148,122.0625 1148,122.7188 L1148,124.2813 Q1148,124.9375 1147.7188,125.2188 Q1147.4375,125.5 1147,125.5 Q1146.6094,125.5 1146.3594,125.3281 Q1146.1094,125.1563 1146,124.7031 Q1145.9531,124.3906 1145.7813,124.2188 Q1145.4688,123.8906 1144.9063,123.7031 Q1144.3438,123.5 1143.7813,123.5 Q1143.0781,123.5 1142.4844,123.7813 Q1141.9063,124.0625 1141.4531,124.6875 Q1141,125.3125 1141,126.1719 L1141,127.0938 Q1141,128.125 1141.8438,128.8125 Q1142.6875,129.5 1144.1875,129.5 Q1145.0781,129.5 1145.7031,129.2969 Q1146.0625,129.1875 1146.4688,128.8281 Q1146.7344,128.625 1146.875,128.5625 Q1147.0156,128.5 1147.1875,128.5 Q1147.5156,128.5 1147.75,128.7656 Q1148,129.0156 1148,129.375 Q1148,129.7188 1147.6563,130.125 Q1147.1563,130.7188 1146.3594,131.0469 Q1145.3125,131.5 1144.0313,131.5 Q1142.5313,131.5 1141.3281,130.9063 Q1140.3594,130.4375 1139.6719,129.4219 Q1139,128.4063 1139,127.2031 L1139,126.1094 Q1139,124.8594 1139.5938,123.7656 Q1140.2031,122.6719 1141.25,122.0938 Q1142.3125,121.5 1143.5,121.5 Q1144.2188,121.5 1144.8438,121.75 Q1145.4688,122 1146,122.5 Z " fill="#000000"/><text fill="#000000" font-family="sans-serif" font-size="12" lengthAdjust="spacing" textLength="100" x="1158" y="130.9102">VaccinationCenter</text><line style="stroke:#A80036;stroke-width:1.5;" x1="1130" x2="1260" y1="142" y2="142"/><!--MD5=[9fe92997cce05cd7a7b439d86cc36815]
link Company to NhsUser--><path codeLine="66" d="M92.1,248.79 C139.28,267.84 216.33,298.95 267.72,319.69 " fill="none" id="Company-NhsUser" style="stroke:#A80036;stroke-width:1.0;"/><polygon fill="#000000" points="162.6364,266.0476,155.3493,259.9363,153.1488,265.3867,162.6364,266.0476" style="stroke:#000000;stroke-width:1.0;"/><text fill="#000000" font-family="sans-serif" font-size="13" lengthAdjust="spacing" textLength="39" x="167" y="269.4951">Knows</text><text fill="#000000" font-family="sans-serif" font-size="13" lengthAdjust="spacing" textLength="7" x="100.0234" y="266.5761">1</text><text fill="#000000" font-family="sans-serif" font-size="13" lengthAdjust="spacing" textLength="5" x="255.1574" y="331.4412">*</text><!--MD5=[1e454e0a01c8f5167fcfcb8d174ec3aa]
link NhsUser to Vaccination--><path codeLine="67" d="M375.02,333.26 C433.02,324.72 525.55,311.09 581.17,302.9 " fill="none" id="NhsUser-Vaccination" style="stroke:#A80036;stroke-width:1.0;"/><polygon fill="#000000" points="445.9466,304.4473,436.5699,302.8576,437.4263,308.6727,445.9466,304.4473" style="stroke:#000000;stroke-width:1.0;"/><text fill="#000000" font-family="sans-serif" font-size="13" lengthAdjust="spacing" textLength="50" x="450" y="310.4951">requests</text><text fill="#000000" font-family="sans-serif" font-size="13" lengthAdjust="spacing" textLength="5" x="382.8978" y="346.8384">*</text><text fill="#000000" font-family="sans-serif" font-size="13" lengthAdjust="spacing" textLength="5" x="568.4632" y="318.7162">*</text><!--MD5=[9e85c3969391ff6432f48dbdfd6acbc9]
link Company to Vaccination--><path codeLine="68" d="M92.17,213.61 C116.91,204.32 149.17,195 179,195 C179,195 179,195 469.5,195 C524.64,195 576.06,239.02 604.63,268.93 " fill="none" id="Company-Vaccination" style="stroke:#A80036;stroke-width:1.0;"/><polygon fill="#000000" points="290.4711,186.7124,281.7937,182.8197,281.1629,188.6636,290.4711,186.7124" style="stroke:#000000;stroke-width:1.0;"/><text fill="#000000" font-family="sans-serif" font-size="13" lengthAdjust="spacing" textLength="67" x="294.5" y="191.4951">administers</text><text fill="#000000" font-family="sans-serif" font-size="13" lengthAdjust="spacing" textLength="7" x="100.1055" y="225.3495">1</text><text fill="#000000" font-family="sans-serif" font-size="13" lengthAdjust="spacing" textLength="5" x="593.0804" y="257.9396">*</text><!--MD5=[6a595a249fb9c7a0767ff7de54854efe]
link Vaccination to Center--><path codeLine="69" d="M676.58,271.16 C745.71,234.31 874.76,165.51 944.45,128.35 " fill="none" id="Vaccination-Center" style="stroke:#A80036;stroke-width:1.0;"/><polygon fill="#000000" points="766.4121,164.8235,757.0479,166.4854,759.8131,171.6722,766.4121,164.8235" style="stroke:#000000;stroke-width:1.0;"/><text fill="#000000" font-family="sans-serif" font-size="13" lengthAdjust="spacing" textLength="85" x="771" y="172.4951">coordinated by</text><text fill="#000000" font-family="sans-serif" font-size="13" lengthAdjust="spacing" textLength="5" x="684.5615" y="282.0123">*</text><text fill="#000000" font-family="sans-serif" font-size="13" lengthAdjust="spacing" textLength="7" x="929.4798" y="146.9512">1</text><!--MD5=[b28dc29aa9d8b922596eb9e90ba3c703]
link Vaccination to Vaccine--><path codeLine="70" d="M676.58,291.24 C749.53,283.78 889.21,269.51 955.43,262.74 " fill="none" id="Vaccination-Vaccine" style="stroke:#A80036;stroke-width:1.0;"/><polygon fill="#000000" points="767.4741,262.6674,758.1771,260.6634,758.7747,266.5108,767.4741,262.6674" style="stroke:#000000;stroke-width:1.0;"/><text fill="#000000" font-family="sans-serif" font-size="13" lengthAdjust="spacing" textLength="84" x="771.5" y="268.4951">performed with</text><text fill="#000000" font-family="sans-serif" font-size="13" lengthAdjust="spacing" textLength="5" x="684.5615" y="300.6551">*</text><text fill="#000000" font-family="sans-serif" font-size="13" lengthAdjust="spacing" textLength="7" x="940.601" y="278.5222">1</text><!--MD5=[e09617cf8ff853a1b2124fe0653497ce]
link Vaccination to VacAdministration--><path codeLine="71" d="M651.47,323.22 C674.41,350.04 713.4,389.59 757,408 C811.19,430.88 878.62,433.74 927.33,431.85 " fill="none" id="Vaccination-VacAdministration" style="stroke:#A80036;stroke-width:1.0;"/><polygon fill="#000000" points="777.1523,401.0078,769.8131,394.9591,767.6594,400.4282,777.1523,401.0078" style="stroke:#000000;stroke-width:1.0;"/><text fill="#000000" font-family="sans-serif" font-size="13" lengthAdjust="spacing" textLength="64" x="781.5" y="404.4951">validated in</text><text fill="#000000" font-family="sans-serif" font-size="13" lengthAdjust="spacing" textLength="7" x="648.6197" y="344.4759">1</text><text fill="#000000" font-family="sans-serif" font-size="13" lengthAdjust="spacing" textLength="7" x="912.3322" y="446.9754">1</text><!--MD5=[05c3cac1ef45f2ae45d862c1140caf8d]
link Vaccination to ProcessManagement--><path codeLine="72" d="M676.69,304.08 C726.75,314.9 805.91,338.53 857,386 C902.58,428.35 874.53,467.49 918,512 C924.86,519.03 933.3,525 941.99,529.99 " fill="none" id="Vaccination-ProcessManagement" style="stroke:#A80036;stroke-width:1.0;"/><polygon fill="#000000" points="779.8068,322.4174,774.8256,314.3157,771.0148,318.7909,779.8068,322.4174" style="stroke:#000000;stroke-width:1.0;"/><text fill="#000000" font-family="sans-serif" font-size="13" lengthAdjust="spacing" textLength="57" x="785" y="324.4951">generates</text><text fill="#000000" font-family="sans-serif" font-size="13" lengthAdjust="spacing" textLength="7" x="684.5285" y="320.0768">1</text><text fill="#000000" font-family="sans-serif" font-size="13" lengthAdjust="spacing" textLength="7" x="918.9777" y="519.3088">1</text><!--MD5=[2f2a2833bfdf763dd6e1ab7659ef1042]
link Company to Center--><path codeLine="73" d="M58.8,211.95 C75.58,175.03 117.27,100 179,100 C179,100 179,100 808,100 C854.33,100 907.2,100.96 944.35,101.8 " fill="none" id="Company-Center" style="stroke:#A80036;stroke-width:1.0;"/><polygon fill="#000000" points="455.9618,90.5586,446.6231,88.7586,447.3486,94.5915,455.9618,90.5586" style="stroke:#000000;stroke-width:1.0;"/><text fill="#000000" font-family="sans-serif" font-size="13" lengthAdjust="spacing" textLength="30" x="460" y="96.4951">owns</text><text fill="#000000" font-family="sans-serif" font-size="13" lengthAdjust="spacing" textLength="7" x="53.5038" y="201.2571">1</text><text fill="#000000" font-family="sans-serif" font-size="13" lengthAdjust="spacing" textLength="5" x="931.5177" y="116.3358">*</text><!--MD5=[af2965508439a801e1c1673d537d315a]
link HealthCareCenter to VacType--><path codeLine="74" d="M1261.31,49.2 C1332.55,58.94 1449.58,77.32 1548,104 C1557.83,106.67 1568.25,110.15 1577.9,113.66 " fill="none" id="HealthCareCenter-VacType" style="stroke:#A80036;stroke-width:1.0;"/><polygon fill="#000000" points="1425.8995,57.1733,1417.6226,52.4889,1416.4499,58.2486,1425.8995,57.1733" style="stroke:#000000;stroke-width:1.0;"/><text fill="#000000" font-family="sans-serif" font-size="13" lengthAdjust="spacing" textLength="30" x="1430" y="61.4951">owns</text><text fill="#000000" font-family="sans-serif" font-size="13" lengthAdjust="spacing" textLength="7" x="1268.9455" y="64.5042">1</text><text fill="#000000" font-family="sans-serif" font-size="13" lengthAdjust="spacing" textLength="5" x="1564.97" y="125.8051">*</text><!--MD5=[a3dc061a39b5be6a101ce352edd1d1c0]
link VaccinationCenter to VacType--><path codeLine="75" d="M1261.16,129.84 C1349.99,129.63 1506.21,129.26 1577.99,129.09 " fill="none" id="VaccinationCenter-VacType" style="stroke:#A80036;stroke-width:1.0;"/><polygon fill="#000000" points="1426,121.1639,1416.948,118.2464,1416.9619,124.1243,1426,121.1639" style="stroke:#000000;stroke-width:1.0;"/><text fill="#000000" font-family="sans-serif" font-size="13" lengthAdjust="spacing" textLength="30" x="1430" y="126.4951">owns</text><text fill="#000000" font-family="sans-serif" font-size="13" lengthAdjust="spacing" textLength="7" x="1269.2144" y="144.2619">1</text><text fill="#000000" font-family="sans-serif" font-size="13" lengthAdjust="spacing" textLength="5" x="1565.0772" y="144.1764">*</text><!--MD5=[a98252b7739f22b1ddec3651c1c3aaea]
link Vaccine to AdministrationProcess--><path codeLine="76" d="M1030.67,258.01 C1102.58,256.06 1263.49,251.71 1360,249.1 " fill="none" id="Vaccine-AdministrationProcess" style="stroke:#A80036;stroke-width:1.0;"/><polygon fill="#000000" points="1181.4982,242.0406,1172.3769,239.3473,1172.5359,245.223,1181.4982,242.0406" style="stroke:#000000;stroke-width:1.0;"/><text fill="#000000" font-family="sans-serif" font-size="13" lengthAdjust="spacing" textLength="32" x="1185.5" y="247.4951">has a</text><text fill="#000000" font-family="sans-serif" font-size="13" lengthAdjust="spacing" textLength="7" x="1038.518" y="272.8905">1</text><text fill="#000000" font-family="sans-serif" font-size="13" lengthAdjust="spacing" textLength="5" x="1347.0266" y="263.5897">*</text><!--MD5=[28f2133acf2da06c5f2b2170b3b45d17]
link Vaccine to VacType--><path codeLine="77" d="M1030.5,276.62 C1120.5,317.29 1357.27,407.2 1517,312 C1574.09,277.97 1600.26,198.32 1610.46,156.21 " fill="none" id="Vaccine-VacType" style="stroke:#A80036;stroke-width:1.0;"/><polygon fill="#000000" points="1300.8956,341.1594,1291.4419,340.1205,1292.6368,345.8756,1300.8956,341.1594" style="stroke:#000000;stroke-width:1.0;"/><text fill="#000000" font-family="sans-serif" font-size="13" lengthAdjust="spacing" textLength="24" x="1305" y="347.4951">is of</text><text fill="#000000" font-family="sans-serif" font-size="13" lengthAdjust="spacing" textLength="7" x="1038.5719" y="295.2098">1</text><text fill="#000000" font-family="sans-serif" font-size="13" lengthAdjust="spacing" textLength="7" x="1601.2638" y="177.4637">1</text><!--MD5=[f97181852e6b5af60387612f468bcaff]
link Employee to CenterCoordinator--><path codeLine="78" d="M365.3,512.24 C416.37,514.92 502.32,519.42 561.94,522.54 " fill="none" id="Employee-CenterCoordinator" style="stroke:#A80036;stroke-width:1.0;"/><polygon fill="#000000" points="449.9932,506.4373,441.1142,503.0293,440.8067,508.8991,449.9932,506.4373" style="stroke:#000000;stroke-width:1.0;"/><text fill="#000000" font-family="sans-serif" font-size="13" lengthAdjust="spacing" textLength="42" x="454" y="511.4951">play as</text><text fill="#000000" font-family="sans-serif" font-size="13" lengthAdjust="spacing" textLength="7" x="373.1341" y="527.4454">1</text><text fill="#000000" font-family="sans-serif" font-size="13" lengthAdjust="spacing" textLength="22" x="531.8901" y="536.5214">0..1</text><!--MD5=[09366576ee87d48d594df10cacc83f45]
link Company to Employee--><path codeLine="79" d="M70.35,252.44 C113.89,297.27 218.59,405.07 277.81,466.04 " fill="none" id="Company-Employee" style="stroke:#A80036;stroke-width:1.0;"/><polygon fill="#000000" points="165.9836,331.7625,161.7899,323.2265,157.5735,327.3217,165.9836,331.7625" style="stroke:#000000;stroke-width:1.0;"/><text fill="#000000" font-family="sans-serif" font-size="13" lengthAdjust="spacing" textLength="30" x="171.5" y="333.4951">owns</text><text fill="#000000" font-family="sans-serif" font-size="13" lengthAdjust="spacing" textLength="7" x="68.0128" y="273.6256">1</text><text fill="#000000" font-family="sans-serif" font-size="13" lengthAdjust="spacing" textLength="5" x="264.8711" y="473.3693">*</text><!--MD5=[8196f771e88266f573ac463b4a849922]
link CenterCoordinator to ProcessManagement--><path codeLine="80" d="M696.4,530.4 C759.06,534.56 852.85,540.77 917.92,545.09 " fill="none" id="CenterCoordinator-ProcessManagement" style="stroke:#A80036;stroke-width:1.0;"/><polygon fill="#000000" points="786.489,525.5066,777.6582,521.9756,777.2693,527.8406,786.489,525.5066" style="stroke:#000000;stroke-width:1.0;"/><text fill="#000000" font-family="sans-serif" font-size="13" lengthAdjust="spacing" textLength="46" x="790.5" y="530.4951">manage</text><text fill="#000000" font-family="sans-serif" font-size="13" lengthAdjust="spacing" textLength="7" x="704.1547" y="545.2706">1</text><text fill="#000000" font-family="sans-serif" font-size="13" lengthAdjust="spacing" textLength="5" x="904.9196" y="558.9219">*</text><!--MD5=[f18f00dac2a4627d6abbc44fd81ea6f4]
reverse link Center to HealthCareCenter--><path codeLine="82" d="M1060.96,82.24 C1082.87,75.45 1107.17,67.92 1128.94,61.17 " fill="none" id="Center-backto-HealthCareCenter" style="stroke:#A80036;stroke-width:1.0;"/><polygon fill="none" points="1062.83,88.99,1041.65,88.23,1058.68,75.62,1062.83,88.99" style="stroke:#A80036;stroke-width:1.0;"/><!--MD5=[0d0a27bd6df0182d91a2ea6292743264]
reverse link Center to VaccinationCenter--><path codeLine="83" d="M1061.63,112.13 C1083.37,115.06 1107.39,118.31 1128.94,121.22 " fill="none" id="Center-backto-VaccinationCenter" style="stroke:#A80036;stroke-width:1.0;"/><polygon fill="none" points="1060.53,119.05,1041.65,109.43,1062.41,105.17,1060.53,119.05" style="stroke:#A80036;stroke-width:1.0;"/><!--MD5=[fb22ddc9dcf08033babf6a478e0df3bf]
@startuml
hide methods
left to right direction
skinparam classAttributeIconSize 0
class Company{
}
class NhsUser{
    -citizenCardNumber
    -name
    -address
    -nhsNumber
    -birthDate
    -sex
    -phoneNumber
    -email
}
class Vaccination{
    -code
}
class Center {
    -designation
    -address
    -phoneNumber
    -faxNumber
    -websiteAddress
    -emailAddress
    -openTime
    -closeTime
    -slots
    -slotDuration
}
class HealthCareCenter{
    -ARS
    -AGES
}
class Vaccine{
    -brand
}
class VacAdministration{
    -SnsNumber
    -Vaccine
    -LotNumber
    -ScheduleDateTime
    -ArrivalDateTime
    -AdministrationDateTime
    -LeavingDateTime
}
class VacType{
    -type
}
class Employee{
    -id
    -name
    -address
    -phoneNumber
    -emailAddress
}
class AdministrationProcess{
    -ageGroup
    -dosage
    -numberOfDoses
    -timeInterval
}
class CenterCoordinator{}
class ProcessManagement{}

Company "1"- - -"*" NhsUser : Knows >
NhsUser "*"- - -"*" Vaccination : requests >
Company "1"- - -"*" Vaccination : administers >
Vaccination "*"- - -"1" Center : coordinated by >
Vaccination "*"- - -"1" Vaccine : performed with >
Vaccination "1"- - -"1" VacAdministration : validated in >
Vaccination "1"- - -"1" ProcessManagement : generates >
Company "1"- - -"*" Center : owns >
HealthCareCenter "1"- - -"*" VacType : owns >
VaccinationCenter "1"- - -"*" VacType : owns >
Vaccine "1"- - -"*" AdministrationProcess : has a >
Vaccine "1"- - -"1" VacType : is of >
Employee "1"- - -"0..1" CenterCoordinator : play as >
Company "1"- - -"*" Employee : owns >
CenterCoordinator "1"- - -"*" ProcessManagement : manage >

Center <|- - HealthCareCenter
Center <|- - VaccinationCenter



@enduml

PlantUML version 1.2022.1(Tue Feb 01 18:19:58 GMT 2022)
(GPL source distribution)
Java Runtime: OpenJDK Runtime Environment
JVM: OpenJDK 64-Bit Server VM
Default Encoding: Cp1252
Language: pt
Country: PT
--></g></svg>