@startuml
skinparam classAttributeIconSize 0
hide methods


left to right direction

class Coordinator{
vacCenterID
}
class Company{

}
class VacAdministration{
snsNumber
vaccineName
vaccineDose
lotNumber
scheduledDateTime
arrivalDateTime
administrationDateTime
leavingDateTime
centerID
}
class Employee{
id
name
address
phoneNumber
emailAddress
email
password
}
class Center{
designation
address
phoneNumber
faxNumber
websiteAddress
emailAddress
openTime
closeTime
slots
slotDuration
}
class Vaccination{
code
}
class User{
name
email
password
role
}

Company "1" -- "*" Employee : owns >
Employee "1" -- "1" Coordinator : act as >
Coordinator "1" -- "1" User : is >
Employee "1" -- "1" User : is >
Coordinator "1" -- "1" Center : assigned to >
Center "1" -- "*" Vaccination : Coordinates >
Vaccination "1" -- "1" VacAdministration : validated in >


@enduml