<?xml version="1.0" encoding="UTF-8" standalone="no"?><svg xmlns="http://www.w3.org/2000/svg" xmlns:xlink="http://www.w3.org/1999/xlink" contentStyleType="text/css" height="598px" preserveAspectRatio="none" style="width:1614px;height:598px;background:#FFFFFF;" version="1.1" viewBox="0 0 1614 598" width="1614px" zoomAndPan="magnify"><defs/><g><!--MD5=[26f9beb458137f9fc2cf19f44bf4093d]
class CenterPerformanceUI--><g id="elem_CenterPerformanceUI"><rect codeLine="4" fill="#F1F1F1" height="48" id="CenterPerformanceUI" rx="2.5" ry="2.5" style="stroke:#181818;stroke-width:0.5;" width="168" x="7" y="297"/><ellipse cx="22" cy="313" fill="#ADD1B2" rx="11" ry="11" style="stroke:#181818;stroke-width:1.0;"/><path d="M24,309.5 Q24.2031,309 24.4375,308.75 Q24.6719,308.5 24.9375,308.5 Q25.4063,308.5 25.7031,308.7813 Q26,309.0625 26,309.7188 L26,311.2813 Q26,311.9375 25.7188,312.2188 Q25.4375,312.5 25,312.5 Q24.6094,312.5 24.3594,312.3281 Q24.1094,312.1563 24,311.7031 Q23.9531,311.3906 23.7813,311.2188 Q23.4688,310.8906 22.9063,310.7031 Q22.3438,310.5 21.7813,310.5 Q21.0781,310.5 20.4844,310.7813 Q19.9063,311.0625 19.4531,311.6875 Q19,312.3125 19,313.1719 L19,314.0938 Q19,315.125 19.8438,315.8125 Q20.6875,316.5 22.1875,316.5 Q23.0781,316.5 23.7031,316.2969 Q24.0625,316.1875 24.4688,315.8281 Q24.7344,315.625 24.875,315.5625 Q25.0156,315.5 25.1875,315.5 Q25.5156,315.5 25.75,315.7656 Q26,316.0156 26,316.375 Q26,316.7188 25.6563,317.125 Q25.1563,317.7188 24.3594,318.0469 Q23.3125,318.5 22.0313,318.5 Q20.5313,318.5 19.3281,317.9063 Q18.3594,317.4375 17.6719,316.4219 Q17,315.4063 17,314.2031 L17,313.1094 Q17,311.8594 17.5938,310.7656 Q18.2031,309.6719 19.25,309.0938 Q20.3125,308.5 21.5,308.5 Q22.2188,308.5 22.8438,308.75 Q23.4688,309 24,309.5 Z " fill="#000000"/><text fill="#000000" font-family="sans-serif" font-size="14" lengthAdjust="spacing" textLength="136" x="36" y="318.7285">CenterPerformanceUI</text><line style="stroke:#181818;stroke-width:0.5;" x1="8" x2="174" y1="329" y2="329"/><line style="stroke:#181818;stroke-width:0.5;" x1="8" x2="174" y1="337" y2="337"/></g><!--MD5=[94b339d634e5f31837f3cfb772fcb751]
class US16Controller--><g id="elem_US16Controller"><rect codeLine="7" fill="#F1F1F1" height="188.875" id="US16Controller" rx="2.5" ry="2.5" style="stroke:#181818;stroke-width:0.5;" width="314" x="354" y="226.5"/><ellipse cx="458.75" cy="242.5" fill="#ADD1B2" rx="11" ry="11" style="stroke:#181818;stroke-width:1.0;"/><path d="M460.75,239 Q460.9531,238.5 461.1875,238.25 Q461.4219,238 461.6875,238 Q462.1563,238 462.4531,238.2813 Q462.75,238.5625 462.75,239.2188 L462.75,240.7813 Q462.75,241.4375 462.4688,241.7188 Q462.1875,242 461.75,242 Q461.3594,242 461.1094,241.8281 Q460.8594,241.6563 460.75,241.2031 Q460.7031,240.8906 460.5313,240.7188 Q460.2188,240.3906 459.6563,240.2031 Q459.0938,240 458.5313,240 Q457.8281,240 457.2344,240.2813 Q456.6563,240.5625 456.2031,241.1875 Q455.75,241.8125 455.75,242.6719 L455.75,243.5938 Q455.75,244.625 456.5938,245.3125 Q457.4375,246 458.9375,246 Q459.8281,246 460.4531,245.7969 Q460.8125,245.6875 461.2188,245.3281 Q461.4844,245.125 461.625,245.0625 Q461.7656,245 461.9375,245 Q462.2656,245 462.5,245.2656 Q462.75,245.5156 462.75,245.875 Q462.75,246.2188 462.4063,246.625 Q461.9063,247.2188 461.1094,247.5469 Q460.0625,248 458.7813,248 Q457.2813,248 456.0781,247.4063 Q455.1094,246.9375 454.4219,245.9219 Q453.75,244.9063 453.75,243.7031 L453.75,242.6094 Q453.75,241.3594 454.3438,240.2656 Q454.9531,239.1719 456,238.5938 Q457.0625,238 458.25,238 Q458.9688,238 459.5938,238.25 Q460.2188,238.5 460.75,239 Z " fill="#000000"/><text fill="#000000" font-family="sans-serif" font-size="14" lengthAdjust="spacing" textLength="96" x="479.25" y="248.2285">US16Controller</text><line style="stroke:#181818;stroke-width:0.5;" x1="355" x2="667" y1="258.5" y2="258.5"/><line style="stroke:#181818;stroke-width:0.5;" x1="355" x2="667" y1="266.5" y2="266.5"/><text fill="#000000" font-family="sans-serif" font-size="14" lengthAdjust="spacing" textLength="126" x="360" y="285.0332">checkCenterExists()</text><text fill="#000000" font-family="sans-serif" font-size="14" lengthAdjust="spacing" textLength="118" x="360" y="302.6426">getDatesWithInfo()</text><text fill="#000000" font-family="sans-serif" font-size="14" lengthAdjust="spacing" textLength="302" x="360" y="320.252">getListOfDifferences(timeInterval, dateSelected)</text><text fill="#000000" font-family="sans-serif" font-size="14" lengthAdjust="spacing" textLength="225" x="360" y="337.8613">getMaxContiguousSum(differences)</text><text fill="#000000" font-family="sans-serif" font-size="14" lengthAdjust="spacing" textLength="178" x="360" y="355.4707">getStartOfSublist(sublist,list)</text><text fill="#000000" font-family="sans-serif" font-size="14" lengthAdjust="spacing" textLength="159" x="360" y="373.0801">getAlgorithmFromProps()</text><text fill="#000000" font-family="sans-serif" font-size="14" lengthAdjust="spacing" textLength="243" x="360" y="390.6895">changeAlgorithmProps(int algorithmID)</text><text fill="#000000" font-family="sans-serif" font-size="14" lengthAdjust="spacing" textLength="161" x="360" y="408.2988">setProperty(param,value)</text></g><!--MD5=[02e4b9b7573f1156f41e60aa5b4e25a4]
class Company--><g id="elem_Company"><rect codeLine="18" fill="#F1F1F1" height="100.8281" id="Company" rx="2.5" ry="2.5" style="stroke:#181818;stroke-width:0.5;" width="151" x="740" y="134.5"/><ellipse cx="781.55" cy="150.5" fill="#ADD1B2" rx="11" ry="11" style="stroke:#181818;stroke-width:1.0;"/><path d="M783.55,147 Q783.7531,146.5 783.9875,146.25 Q784.2219,146 784.4875,146 Q784.9563,146 785.2531,146.2813 Q785.55,146.5625 785.55,147.2188 L785.55,148.7813 Q785.55,149.4375 785.2688,149.7188 Q784.9875,150 784.55,150 Q784.1594,150 783.9094,149.8281 Q783.6594,149.6563 783.55,149.2031 Q783.5031,148.8906 783.3313,148.7188 Q783.0188,148.3906 782.4563,148.2031 Q781.8938,148 781.3313,148 Q780.6281,148 780.0344,148.2813 Q779.4563,148.5625 779.0031,149.1875 Q778.55,149.8125 778.55,150.6719 L778.55,151.5938 Q778.55,152.625 779.3938,153.3125 Q780.2375,154 781.7375,154 Q782.6281,154 783.2531,153.7969 Q783.6125,153.6875 784.0188,153.3281 Q784.2844,153.125 784.425,153.0625 Q784.5656,153 784.7375,153 Q785.0656,153 785.3,153.2656 Q785.55,153.5156 785.55,153.875 Q785.55,154.2188 785.2063,154.625 Q784.7063,155.2188 783.9094,155.5469 Q782.8625,156 781.5813,156 Q780.0813,156 778.8781,155.4063 Q777.9094,154.9375 777.2219,153.9219 Q776.55,152.9063 776.55,151.7031 L776.55,150.6094 Q776.55,149.3594 777.1438,148.2656 Q777.7531,147.1719 778.8,146.5938 Q779.8625,146 781.05,146 Q781.7688,146 782.3938,146.25 Q783.0188,146.5 783.55,147 Z " fill="#000000"/><text fill="#000000" font-family="sans-serif" font-size="14" lengthAdjust="spacing" textLength="60" x="801.45" y="156.2285">Company</text><line style="stroke:#181818;stroke-width:0.5;" x1="741" x2="890" y1="166.5" y2="166.5"/><line style="stroke:#181818;stroke-width:0.5;" x1="741" x2="890" y1="174.5" y2="174.5"/><text fill="#000000" font-family="sans-serif" font-size="14" lengthAdjust="spacing" textLength="139" x="746" y="193.0332">getCoordinatorStore()</text><text fill="#000000" font-family="sans-serif" font-size="14" lengthAdjust="spacing" textLength="88" x="746" y="210.6426">getLogStore()</text><text fill="#000000" font-family="sans-serif" font-size="14" lengthAdjust="spacing" textLength="107" x="746" y="228.252">getAuthFacade()</text></g><!--MD5=[594d945065878077cecfed6eb5330189]
class CoordinatorStore--><g id="elem_CoordinatorStore"><rect codeLine="24" fill="#F1F1F1" height="65.6094" id="CoordinatorStore" rx="2.5" ry="2.5" style="stroke:#181818;stroke-width:0.5;" width="181" x="1064.5" y="42"/><ellipse cx="1097.5" cy="58" fill="#ADD1B2" rx="11" ry="11" style="stroke:#181818;stroke-width:1.0;"/><path d="M1099.5,54.5 Q1099.7031,54 1099.9375,53.75 Q1100.1719,53.5 1100.4375,53.5 Q1100.9063,53.5 1101.2031,53.7813 Q1101.5,54.0625 1101.5,54.7188 L1101.5,56.2813 Q1101.5,56.9375 1101.2188,57.2188 Q1100.9375,57.5 1100.5,57.5 Q1100.1094,57.5 1099.8594,57.3281 Q1099.6094,57.1563 1099.5,56.7031 Q1099.4531,56.3906 1099.2813,56.2188 Q1098.9688,55.8906 1098.4063,55.7031 Q1097.8438,55.5 1097.2813,55.5 Q1096.5781,55.5 1095.9844,55.7813 Q1095.4063,56.0625 1094.9531,56.6875 Q1094.5,57.3125 1094.5,58.1719 L1094.5,59.0938 Q1094.5,60.125 1095.3438,60.8125 Q1096.1875,61.5 1097.6875,61.5 Q1098.5781,61.5 1099.2031,61.2969 Q1099.5625,61.1875 1099.9688,60.8281 Q1100.2344,60.625 1100.375,60.5625 Q1100.5156,60.5 1100.6875,60.5 Q1101.0156,60.5 1101.25,60.7656 Q1101.5,61.0156 1101.5,61.375 Q1101.5,61.7188 1101.1563,62.125 Q1100.6563,62.7188 1099.8594,63.0469 Q1098.8125,63.5 1097.5313,63.5 Q1096.0313,63.5 1094.8281,62.9063 Q1093.8594,62.4375 1093.1719,61.4219 Q1092.5,60.4063 1092.5,59.2031 L1092.5,58.1094 Q1092.5,56.8594 1093.0938,55.7656 Q1093.7031,54.6719 1094.75,54.0938 Q1095.8125,53.5 1097,53.5 Q1097.7188,53.5 1098.3438,53.75 Q1098.9688,54 1099.5,54.5 Z " fill="#000000"/><text fill="#000000" font-family="sans-serif" font-size="14" lengthAdjust="spacing" textLength="109" x="1115.5" y="63.7285">CoordinatorStore</text><line style="stroke:#181818;stroke-width:0.5;" x1="1065.5" x2="1244.5" y1="74" y2="74"/><line style="stroke:#181818;stroke-width:0.5;" x1="1065.5" x2="1244.5" y1="82" y2="82"/><text fill="#000000" font-family="sans-serif" font-size="14" lengthAdjust="spacing" textLength="169" x="1070.5" y="100.5332">getCenterIDByEmail(email)</text></g><!--MD5=[8ae808d068a8995f06b9b3ec51357f0b]
class AuthFacade--><g id="elem_AuthFacade"><rect codeLine="28" fill="#F1F1F1" height="83.2188" id="AuthFacade" rx="2.5" ry="2.5" style="stroke:#181818;stroke-width:0.5;" width="296" x="1007" y="143.5"/><ellipse cx="1112.25" cy="159.5" fill="#ADD1B2" rx="11" ry="11" style="stroke:#181818;stroke-width:1.0;"/><path d="M1114.25,156 Q1114.4531,155.5 1114.6875,155.25 Q1114.9219,155 1115.1875,155 Q1115.6563,155 1115.9531,155.2813 Q1116.25,155.5625 1116.25,156.2188 L1116.25,157.7813 Q1116.25,158.4375 1115.9688,158.7188 Q1115.6875,159 1115.25,159 Q1114.8594,159 1114.6094,158.8281 Q1114.3594,158.6563 1114.25,158.2031 Q1114.2031,157.8906 1114.0313,157.7188 Q1113.7188,157.3906 1113.1563,157.2031 Q1112.5938,157 1112.0313,157 Q1111.3281,157 1110.7344,157.2813 Q1110.1563,157.5625 1109.7031,158.1875 Q1109.25,158.8125 1109.25,159.6719 L1109.25,160.5938 Q1109.25,161.625 1110.0938,162.3125 Q1110.9375,163 1112.4375,163 Q1113.3281,163 1113.9531,162.7969 Q1114.3125,162.6875 1114.7188,162.3281 Q1114.9844,162.125 1115.125,162.0625 Q1115.2656,162 1115.4375,162 Q1115.7656,162 1116,162.2656 Q1116.25,162.5156 1116.25,162.875 Q1116.25,163.2188 1115.9063,163.625 Q1115.4063,164.2188 1114.6094,164.5469 Q1113.5625,165 1112.2813,165 Q1110.7813,165 1109.5781,164.4063 Q1108.6094,163.9375 1107.9219,162.9219 Q1107.25,161.9063 1107.25,160.7031 L1107.25,159.6094 Q1107.25,158.3594 1107.8438,157.2656 Q1108.4531,156.1719 1109.5,155.5938 Q1110.5625,155 1111.75,155 Q1112.4688,155 1113.0938,155.25 Q1113.7188,155.5 1114.25,156 Z " fill="#000000"/><text fill="#000000" font-family="sans-serif" font-size="14" lengthAdjust="spacing" textLength="77" x="1132.75" y="165.2285">AuthFacade</text><line style="stroke:#181818;stroke-width:0.5;" x1="1008" x2="1302" y1="175.5" y2="175.5"/><line style="stroke:#181818;stroke-width:0.5;" x1="1008" x2="1302" y1="183.5" y2="183.5"/><text fill="#000000" font-family="sans-serif" font-size="14" lengthAdjust="spacing" textLength="107" x="1013" y="202.0332">existsUser(email)</text><text fill="#000000" font-family="sans-serif" font-size="14" lengthAdjust="spacing" textLength="284" x="1013" y="219.6426">addUserWithRole(name,email,password,role)</text></g><!--MD5=[5f08af815704e0986f8bf71bc8bd1422]
class Properties--><g id="elem_Properties"><rect codeLine="33" fill="#F1F1F1" height="100.8281" id="Properties" rx="2.5" ry="2.5" style="stroke:#181818;stroke-width:0.5;" width="173" x="729" y="270.5"/><ellipse cx="778.75" cy="286.5" fill="#ADD1B2" rx="11" ry="11" style="stroke:#181818;stroke-width:1.0;"/><path d="M780.75,283 Q780.9531,282.5 781.1875,282.25 Q781.4219,282 781.6875,282 Q782.1563,282 782.4531,282.2813 Q782.75,282.5625 782.75,283.2188 L782.75,284.7813 Q782.75,285.4375 782.4688,285.7188 Q782.1875,286 781.75,286 Q781.3594,286 781.1094,285.8281 Q780.8594,285.6563 780.75,285.2031 Q780.7031,284.8906 780.5313,284.7188 Q780.2188,284.3906 779.6563,284.2031 Q779.0938,284 778.5313,284 Q777.8281,284 777.2344,284.2813 Q776.6563,284.5625 776.2031,285.1875 Q775.75,285.8125 775.75,286.6719 L775.75,287.5938 Q775.75,288.625 776.5938,289.3125 Q777.4375,290 778.9375,290 Q779.8281,290 780.4531,289.7969 Q780.8125,289.6875 781.2188,289.3281 Q781.4844,289.125 781.625,289.0625 Q781.7656,289 781.9375,289 Q782.2656,289 782.5,289.2656 Q782.75,289.5156 782.75,289.875 Q782.75,290.2188 782.4063,290.625 Q781.9063,291.2188 781.1094,291.5469 Q780.0625,292 778.7813,292 Q777.2813,292 776.0781,291.4063 Q775.1094,290.9375 774.4219,289.9219 Q773.75,288.9063 773.75,287.7031 L773.75,286.6094 Q773.75,285.3594 774.3438,284.2656 Q774.9531,283.1719 776,282.5938 Q777.0625,282 778.25,282 Q778.9688,282 779.5938,282.25 Q780.2188,282.5 780.75,283 Z " fill="#000000"/><text fill="#000000" font-family="sans-serif" font-size="14" lengthAdjust="spacing" textLength="65" x="799.25" y="292.2285">Properties</text><line style="stroke:#181818;stroke-width:0.5;" x1="730" x2="901" y1="302.5" y2="302.5"/><line style="stroke:#181818;stroke-width:0.5;" x1="730" x2="901" y1="310.5" y2="310.5"/><text fill="#000000" font-family="sans-serif" font-size="14" lengthAdjust="spacing" textLength="161" x="735" y="329.0332">setProperty(param,value)</text><text fill="#000000" font-family="sans-serif" font-size="14" lengthAdjust="spacing" textLength="124" x="735" y="346.6426">getProperty(param)</text><text fill="#000000" font-family="sans-serif" font-size="14" lengthAdjust="spacing" textLength="145" x="735" y="364.252">store(name,comments)</text></g><!--MD5=[ff677211315ff54d4e2d45ba330c57c7]
class VaccinationLogStore--><g id="elem_VaccinationLogStore"><rect codeLine="39" fill="#F1F1F1" height="329.75" id="VaccinationLogStore" rx="2.5" ry="2.5" style="stroke:#181818;stroke-width:0.5;" width="164" x="1073" y="262"/><ellipse cx="1088.45" cy="278" fill="#ADD1B2" rx="11" ry="11" style="stroke:#181818;stroke-width:1.0;"/><path d="M1090.45,274.5 Q1090.6531,274 1090.8875,273.75 Q1091.1219,273.5 1091.3875,273.5 Q1091.8563,273.5 1092.1531,273.7813 Q1092.45,274.0625 1092.45,274.7188 L1092.45,276.2813 Q1092.45,276.9375 1092.1688,277.2188 Q1091.8875,277.5 1091.45,277.5 Q1091.0594,277.5 1090.8094,277.3281 Q1090.5594,277.1563 1090.45,276.7031 Q1090.4031,276.3906 1090.2313,276.2188 Q1089.9188,275.8906 1089.3563,275.7031 Q1088.7938,275.5 1088.2313,275.5 Q1087.5281,275.5 1086.9344,275.7813 Q1086.3563,276.0625 1085.9031,276.6875 Q1085.45,277.3125 1085.45,278.1719 L1085.45,279.0938 Q1085.45,280.125 1086.2938,280.8125 Q1087.1375,281.5 1088.6375,281.5 Q1089.5281,281.5 1090.1531,281.2969 Q1090.5125,281.1875 1090.9188,280.8281 Q1091.1844,280.625 1091.325,280.5625 Q1091.4656,280.5 1091.6375,280.5 Q1091.9656,280.5 1092.2,280.7656 Q1092.45,281.0156 1092.45,281.375 Q1092.45,281.7188 1092.1063,282.125 Q1091.6063,282.7188 1090.8094,283.0469 Q1089.7625,283.5 1088.4813,283.5 Q1086.9813,283.5 1085.7781,282.9063 Q1084.8094,282.4375 1084.1219,281.4219 Q1083.45,280.4063 1083.45,279.2031 L1083.45,278.1094 Q1083.45,276.8594 1084.0438,275.7656 Q1084.6531,274.6719 1085.7,274.0938 Q1086.7625,273.5 1087.95,273.5 Q1088.6688,273.5 1089.2938,273.75 Q1089.9188,274 1090.45,274.5 Z " fill="#000000"/><text fill="#000000" font-family="sans-serif" font-size="14" lengthAdjust="spacing" textLength="131" x="1102.55" y="283.7285">VaccinationLogStore</text><line style="stroke:#181818;stroke-width:0.5;" x1="1074" x2="1236" y1="294" y2="294"/><text fill="#000000" font-family="sans-serif" font-size="14" lengthAdjust="spacing" textLength="35" x="1079" y="312.5332">name</text><text fill="#000000" font-family="sans-serif" font-size="14" lengthAdjust="spacing" textLength="21" x="1079" y="330.1426">sex</text><text fill="#000000" font-family="sans-serif" font-size="14" lengthAdjust="spacing" textLength="62" x="1079" y="347.752">birth Date</text><text fill="#000000" font-family="sans-serif" font-size="14" lengthAdjust="spacing" textLength="51" x="1079" y="365.3613">address</text><text fill="#000000" font-family="sans-serif" font-size="14" lengthAdjust="spacing" textLength="93" x="1079" y="382.9707">phone Number</text><text fill="#000000" font-family="sans-serif" font-size="14" lengthAdjust="spacing" textLength="33" x="1079" y="400.5801">email</text><text fill="#000000" font-family="sans-serif" font-size="14" lengthAdjust="spacing" textLength="105" x="1079" y="418.1895">SNSUserNumber</text><text fill="#000000" font-family="sans-serif" font-size="14" lengthAdjust="spacing" textLength="119" x="1079" y="435.7988">citizenCardNumber</text><line style="stroke:#181818;stroke-width:0.5;" x1="1074" x2="1236" y1="442.875" y2="442.875"/><text fill="#000000" font-family="sans-serif" font-size="14" lengthAdjust="spacing" textLength="66" x="1079" y="461.4082">getName()</text><text fill="#000000" font-family="sans-serif" font-size="14" lengthAdjust="spacing" textLength="53" x="1079" y="479.0176">getSex()</text><text fill="#000000" font-family="sans-serif" font-size="14" lengthAdjust="spacing" textLength="89" x="1079" y="496.627">getBirthDate()</text><text fill="#000000" font-family="sans-serif" font-size="14" lengthAdjust="spacing" textLength="82" x="1079" y="514.2363">getAddress()</text><text fill="#000000" font-family="sans-serif" font-size="14" lengthAdjust="spacing" textLength="120" x="1079" y="531.8457">getPhoneNumber()</text><text fill="#000000" font-family="sans-serif" font-size="14" lengthAdjust="spacing" textLength="64" x="1079" y="549.4551">getEmail()</text><text fill="#000000" font-family="sans-serif" font-size="14" lengthAdjust="spacing" textLength="135" x="1079" y="567.0645">getSNSUserNumber()</text><text fill="#000000" font-family="sans-serif" font-size="14" lengthAdjust="spacing" textLength="152" x="1079" y="584.6738">getCitizenCardNumber()</text></g><!--MD5=[bbc84d1aa0e7f30bd67b3f6e81f0f299]
class Sum--><g id="elem_Sum"><rect codeLine="58" fill="#F1F1F1" height="83.2188" id="Sum" rx="2.5" ry="2.5" style="stroke:#181818;stroke-width:0.5;" width="135" x="748" y="406.5"/><ellipse cx="797.25" cy="422.5" fill="#ADD1B2" rx="11" ry="11" style="stroke:#181818;stroke-width:1.0;"/><path d="M799.25,419 Q799.4531,418.5 799.6875,418.25 Q799.9219,418 800.1875,418 Q800.6563,418 800.9531,418.2813 Q801.25,418.5625 801.25,419.2188 L801.25,420.7813 Q801.25,421.4375 800.9688,421.7188 Q800.6875,422 800.25,422 Q799.8594,422 799.6094,421.8281 Q799.3594,421.6563 799.25,421.2031 Q799.2031,420.8906 799.0313,420.7188 Q798.7188,420.3906 798.1563,420.2031 Q797.5938,420 797.0313,420 Q796.3281,420 795.7344,420.2813 Q795.1563,420.5625 794.7031,421.1875 Q794.25,421.8125 794.25,422.6719 L794.25,423.5938 Q794.25,424.625 795.0938,425.3125 Q795.9375,426 797.4375,426 Q798.3281,426 798.9531,425.7969 Q799.3125,425.6875 799.7188,425.3281 Q799.9844,425.125 800.125,425.0625 Q800.2656,425 800.4375,425 Q800.7656,425 801,425.2656 Q801.25,425.5156 801.25,425.875 Q801.25,426.2188 800.9063,426.625 Q800.4063,427.2188 799.6094,427.5469 Q798.5625,428 797.2813,428 Q795.7813,428 794.5781,427.4063 Q793.6094,426.9375 792.9219,425.9219 Q792.25,424.9063 792.25,423.7031 L792.25,422.6094 Q792.25,421.3594 792.8438,420.2656 Q793.4531,419.1719 794.5,418.5938 Q795.5625,418 796.75,418 Q797.4688,418 798.0938,418.25 Q798.7188,418.5 799.25,419 Z " fill="#000000"/><text fill="#000000" font-family="sans-serif" font-size="14" lengthAdjust="spacing" textLength="28" x="817.75" y="428.2285">Sum</text><line style="stroke:#181818;stroke-width:0.5;" x1="749" x2="882" y1="438.5" y2="438.5"/><line style="stroke:#181818;stroke-width:0.5;" x1="749" x2="882" y1="446.5" y2="446.5"/><text fill="#000000" font-family="sans-serif" font-size="14" lengthAdjust="spacing" textLength="52" x="754" y="465.0332">max(list)</text><text fill="#000000" font-family="sans-serif" font-size="14" lengthAdjust="spacing" textLength="123" x="754" y="482.6426">maxBruteForce(list)</text></g><!--MD5=[e6aecee2b0dafc754649e6b81ba6acb5]
class VacAdministration--><g id="elem_VacAdministration"><rect codeLine="63" fill="#F1F1F1" height="276.9219" id="VacAdministration" rx="2.5" ry="2.5" style="stroke:#181818;stroke-width:0.5;" width="192" x="1415" y="288.5"/><ellipse cx="1451.15" cy="304.5" fill="#ADD1B2" rx="11" ry="11" style="stroke:#181818;stroke-width:1.0;"/><path d="M1453.15,301 Q1453.3531,300.5 1453.5875,300.25 Q1453.8219,300 1454.0875,300 Q1454.5563,300 1454.8531,300.2813 Q1455.15,300.5625 1455.15,301.2188 L1455.15,302.7813 Q1455.15,303.4375 1454.8688,303.7188 Q1454.5875,304 1454.15,304 Q1453.7594,304 1453.5094,303.8281 Q1453.2594,303.6563 1453.15,303.2031 Q1453.1031,302.8906 1452.9313,302.7188 Q1452.6188,302.3906 1452.0563,302.2031 Q1451.4938,302 1450.9313,302 Q1450.2281,302 1449.6344,302.2813 Q1449.0563,302.5625 1448.6031,303.1875 Q1448.15,303.8125 1448.15,304.6719 L1448.15,305.5938 Q1448.15,306.625 1448.9938,307.3125 Q1449.8375,308 1451.3375,308 Q1452.2281,308 1452.8531,307.7969 Q1453.2125,307.6875 1453.6188,307.3281 Q1453.8844,307.125 1454.025,307.0625 Q1454.1656,307 1454.3375,307 Q1454.6656,307 1454.9,307.2656 Q1455.15,307.5156 1455.15,307.875 Q1455.15,308.2188 1454.8063,308.625 Q1454.3063,309.2188 1453.5094,309.5469 Q1452.4625,310 1451.1813,310 Q1449.6813,310 1448.4781,309.4063 Q1447.5094,308.9375 1446.8219,307.9219 Q1446.15,306.9063 1446.15,305.7031 L1446.15,304.6094 Q1446.15,303.3594 1446.7438,302.2656 Q1447.3531,301.1719 1448.4,300.5938 Q1449.4625,300 1450.65,300 Q1451.3688,300 1451.9938,300.25 Q1452.6188,300.5 1453.15,301 Z " fill="#000000"/><text fill="#000000" font-family="sans-serif" font-size="14" lengthAdjust="spacing" textLength="113" x="1469.85" y="310.2285">VacAdministration</text><line style="stroke:#181818;stroke-width:0.5;" x1="1416" x2="1606" y1="320.5" y2="320.5"/><text fill="#000000" font-family="sans-serif" font-size="14" lengthAdjust="spacing" textLength="71" x="1421" y="339.0332">snsNumber</text><text fill="#000000" font-family="sans-serif" font-size="14" lengthAdjust="spacing" textLength="84" x="1421" y="356.6426">vaccineName</text><text fill="#000000" font-family="sans-serif" font-size="14" lengthAdjust="spacing" textLength="81" x="1421" y="374.252">vaccineDose</text><text fill="#000000" font-family="sans-serif" font-size="14" lengthAdjust="spacing" textLength="64" x="1421" y="391.8613">lotNumber</text><text fill="#000000" font-family="sans-serif" font-size="14" lengthAdjust="spacing" textLength="126" x="1421" y="409.4707">scheduledDateTime</text><text fill="#000000" font-family="sans-serif" font-size="14" lengthAdjust="spacing" textLength="100" x="1421" y="427.0801">arrivalDateTime</text><text fill="#000000" font-family="sans-serif" font-size="14" lengthAdjust="spacing" textLength="149" x="1421" y="444.6895">administrationDateTime</text><text fill="#000000" font-family="sans-serif" font-size="14" lengthAdjust="spacing" textLength="106" x="1421" y="462.2988">leavingDateTime</text><text fill="#000000" font-family="sans-serif" font-size="14" lengthAdjust="spacing" textLength="53" x="1421" y="479.9082">centerID</text><line style="stroke:#181818;stroke-width:0.5;" x1="1416" x2="1606" y1="486.9844" y2="486.9844"/><text fill="#000000" font-family="sans-serif" font-size="14" lengthAdjust="spacing" textLength="131" x="1421" y="505.5176">getArrivalDateTime()</text><text fill="#000000" font-family="sans-serif" font-size="14" lengthAdjust="spacing" textLength="180" x="1421" y="523.127">getAdministrationDateTime()</text><text fill="#000000" font-family="sans-serif" font-size="14" lengthAdjust="spacing" textLength="141" x="1421" y="540.7363">getLeavingDateTime()</text><text fill="#000000" font-family="sans-serif" font-size="14" lengthAdjust="spacing" textLength="86" x="1421" y="558.3457">getCenterID()</text></g><!--MD5=[5d2bdee92db0d01b75732190da037553]
class Coordinator--><g id="elem_Coordinator"><rect codeLine="79" fill="#F1F1F1" height="136.0469" id="Coordinator" rx="2.5" ry="2.5" style="stroke:#181818;stroke-width:0.5;" width="107" x="1457.5" y="7"/><ellipse cx="1472.5" cy="23" fill="#ADD1B2" rx="11" ry="11" style="stroke:#181818;stroke-width:1.0;"/><path d="M1474.5,19.5 Q1474.7031,19 1474.9375,18.75 Q1475.1719,18.5 1475.4375,18.5 Q1475.9063,18.5 1476.2031,18.7813 Q1476.5,19.0625 1476.5,19.7188 L1476.5,21.2813 Q1476.5,21.9375 1476.2188,22.2188 Q1475.9375,22.5 1475.5,22.5 Q1475.1094,22.5 1474.8594,22.3281 Q1474.6094,22.1563 1474.5,21.7031 Q1474.4531,21.3906 1474.2813,21.2188 Q1473.9688,20.8906 1473.4063,20.7031 Q1472.8438,20.5 1472.2813,20.5 Q1471.5781,20.5 1470.9844,20.7813 Q1470.4063,21.0625 1469.9531,21.6875 Q1469.5,22.3125 1469.5,23.1719 L1469.5,24.0938 Q1469.5,25.125 1470.3438,25.8125 Q1471.1875,26.5 1472.6875,26.5 Q1473.5781,26.5 1474.2031,26.2969 Q1474.5625,26.1875 1474.9688,25.8281 Q1475.2344,25.625 1475.375,25.5625 Q1475.5156,25.5 1475.6875,25.5 Q1476.0156,25.5 1476.25,25.7656 Q1476.5,26.0156 1476.5,26.375 Q1476.5,26.7188 1476.1563,27.125 Q1475.6563,27.7188 1474.8594,28.0469 Q1473.8125,28.5 1472.5313,28.5 Q1471.0313,28.5 1469.8281,27.9063 Q1468.8594,27.4375 1468.1719,26.4219 Q1467.5,25.4063 1467.5,24.2031 L1467.5,23.1094 Q1467.5,21.8594 1468.0938,20.7656 Q1468.7031,19.6719 1469.75,19.0938 Q1470.8125,18.5 1472,18.5 Q1472.7188,18.5 1473.3438,18.75 Q1473.9688,19 1474.5,19.5 Z " fill="#000000"/><text fill="#000000" font-family="sans-serif" font-size="14" lengthAdjust="spacing" textLength="75" x="1486.5" y="28.7285">Coordinator</text><line style="stroke:#181818;stroke-width:0.5;" x1="1458.5" x2="1563.5" y1="39" y2="39"/><text fill="#000000" font-family="sans-serif" font-size="14" lengthAdjust="spacing" textLength="78" x="1463.5" y="57.5332">vacCenterID</text><text fill="#000000" font-family="sans-serif" font-size="14" lengthAdjust="spacing" textLength="33" x="1463.5" y="75.1426">email</text><text fill="#000000" font-family="sans-serif" font-size="14" lengthAdjust="spacing" textLength="35" x="1463.5" y="92.752">name</text><text fill="#000000" font-family="sans-serif" font-size="14" lengthAdjust="spacing" textLength="60" x="1463.5" y="110.3613">password</text><line style="stroke:#181818;stroke-width:0.5;" x1="1458.5" x2="1563.5" y1="117.4375" y2="117.4375"/><text fill="#000000" font-family="sans-serif" font-size="14" lengthAdjust="spacing" textLength="64" x="1463.5" y="135.9707">getEmail()</text></g><!--MD5=[335f4d9be48430461c68bf6d6fdba145]
class App--><g id="elem_App"><rect fill="#F1F1F1" height="48" id="App" rx="2.5" ry="2.5" style="stroke:#181818;stroke-width:0.5;" width="57" x="236" y="297"/><ellipse cx="251" cy="313" fill="#ADD1B2" rx="11" ry="11" style="stroke:#181818;stroke-width:1.0;"/><path d="M253,309.5 Q253.2031,309 253.4375,308.75 Q253.6719,308.5 253.9375,308.5 Q254.4063,308.5 254.7031,308.7813 Q255,309.0625 255,309.7188 L255,311.2813 Q255,311.9375 254.7188,312.2188 Q254.4375,312.5 254,312.5 Q253.6094,312.5 253.3594,312.3281 Q253.1094,312.1563 253,311.7031 Q252.9531,311.3906 252.7813,311.2188 Q252.4688,310.8906 251.9063,310.7031 Q251.3438,310.5 250.7813,310.5 Q250.0781,310.5 249.4844,310.7813 Q248.9063,311.0625 248.4531,311.6875 Q248,312.3125 248,313.1719 L248,314.0938 Q248,315.125 248.8438,315.8125 Q249.6875,316.5 251.1875,316.5 Q252.0781,316.5 252.7031,316.2969 Q253.0625,316.1875 253.4688,315.8281 Q253.7344,315.625 253.875,315.5625 Q254.0156,315.5 254.1875,315.5 Q254.5156,315.5 254.75,315.7656 Q255,316.0156 255,316.375 Q255,316.7188 254.6563,317.125 Q254.1563,317.7188 253.3594,318.0469 Q252.3125,318.5 251.0313,318.5 Q249.5313,318.5 248.3281,317.9063 Q247.3594,317.4375 246.6719,316.4219 Q246,315.4063 246,314.2031 L246,313.1094 Q246,311.8594 246.5938,310.7656 Q247.2031,309.6719 248.25,309.0938 Q249.3125,308.5 250.5,308.5 Q251.2188,308.5 251.8438,308.75 Q252.4688,309 253,309.5 Z " fill="#000000"/><text fill="#000000" font-family="sans-serif" font-size="14" lengthAdjust="spacing" textLength="25" x="265" y="318.7285">App</text><line style="stroke:#181818;stroke-width:0.5;" x1="237" x2="292" y1="329" y2="329"/><line style="stroke:#181818;stroke-width:0.5;" x1="237" x2="292" y1="337" y2="337"/></g><!--MD5=[6fbf6665addc8a41ccf2584ce40f42bb]
link CoordinatorStore to Coordinator--><g id="link_CoordinatorStore_Coordinator"><path codeLine="86" d="M1245.79,75 C1312.67,75 1401.69,75 1457.42,75 " fill="none" id="CoordinatorStore-Coordinator" style="stroke:#181818;stroke-width:1.0;"/><polygon fill="#000000" points="1343,66.1758,1333.9549,63.2369,1333.9549,69.1147,1343,66.1758" style="stroke:#000000;stroke-width:1.0;"/><text fill="#000000" font-family="sans-serif" font-size="13" lengthAdjust="spacing" textLength="37" x="1347" y="71.4951">knows</text><text fill="#000000" font-family="sans-serif" font-size="13" lengthAdjust="spacing" textLength="7" x="1253.5984" y="89.1883">1</text><text fill="#000000" font-family="sans-serif" font-size="13" lengthAdjust="spacing" textLength="7" x="1442.3931" y="89.6415">1</text></g><!--MD5=[cb86841b53570a96633d3fe6d4d1ef22]
link CenterPerformanceUI to App--><g id="link_CenterPerformanceUI_App"><path codeLine="87" d="M175.24,321 C194.87,321 214.67,321 230.53,321 " fill="none" id="CenterPerformanceUI-to-App" style="stroke:#181818;stroke-width:1.0;stroke-dasharray:7.0,7.0;"/><polygon fill="#181818" points="235.75,321,226.75,317,230.75,321,226.75,325,235.75,321" style="stroke:#181818;stroke-width:1.0;"/></g><!--MD5=[d7a801cee6e5749214245f0750e9e9bc]
link App to US16Controller--><g id="link_App_US16Controller"><path codeLine="88" d="M293.07,321 C307.87,321 327.44,321 348.78,321 " fill="none" id="App-to-US16Controller" style="stroke:#181818;stroke-width:1.0;stroke-dasharray:7.0,7.0;"/><polygon fill="#181818" points="353.94,321,344.94,317,348.94,321,344.94,325,353.94,321" style="stroke:#181818;stroke-width:1.0;"/></g><!--MD5=[5bf379fa865adaf95b6309129fd422f9]
link US16Controller to Sum--><g id="link_US16Controller_Sum"><path codeLine="89" d="M668.12,386.55 C694.29,397.53 720.26,408.43 742.9,417.94 " fill="none" id="US16Controller-to-Sum" style="stroke:#181818;stroke-width:1.0;stroke-dasharray:7.0,7.0;"/><polygon fill="#181818" points="747.68,419.95,740.9265,412.7813,743.0689,418.0168,737.8334,420.1591,747.68,419.95" style="stroke:#181818;stroke-width:1.0;"/></g><!--MD5=[c3a5772ad2fbd53ce2d4787c6e5d94ba]
link US16Controller to Company--><g id="link_US16Controller_Company"><path codeLine="90" d="M668.12,250.81 C691.36,240.36 714.44,229.99 735.17,220.66 " fill="none" id="US16Controller-to-Company" style="stroke:#181818;stroke-width:1.0;stroke-dasharray:7.0,7.0;"/><polygon fill="#181818" points="739.83,218.57,729.9812,218.6015,735.2675,220.6153,733.2536,225.9015,739.83,218.57" style="stroke:#181818;stroke-width:1.0;"/></g><!--MD5=[df6f81627ba0f30ad95c88deb2f847fe]
link US16Controller to Properties--><g id="link_US16Controller_Properties"><path codeLine="91" d="M668.12,321 C687.11,321 705.99,321 723.57,321 " fill="none" id="US16Controller-to-Properties" style="stroke:#181818;stroke-width:1.0;stroke-dasharray:7.0,7.0;"/><polygon fill="#181818" points="728.98,321,719.98,317,723.98,321,719.98,325,728.98,321" style="stroke:#181818;stroke-width:1.0;"/></g><!--MD5=[d4ac735d1e0ea472203558e6157641a5]
link Company to CoordinatorStore--><g id="link_Company_CoordinatorStore"><path codeLine="92" d="M891.4,160.59 C942.48,143.94 1010.37,121.81 1064.32,104.23 " fill="none" id="Company-CoordinatorStore" style="stroke:#181818;stroke-width:1.0;"/><polygon fill="#000000" points="941.7539,123.6263,932.2433,123.635,934.0648,129.2236,941.7539,123.6263" style="stroke:#000000;stroke-width:1.0;"/><text fill="#000000" font-family="sans-serif" font-size="13" lengthAdjust="spacing" textLength="30" x="946" y="130.4951">owns</text><text fill="#000000" font-family="sans-serif" font-size="13" lengthAdjust="spacing" textLength="7" x="898.9678" y="172.546">1</text><text fill="#000000" font-family="sans-serif" font-size="13" lengthAdjust="spacing" textLength="7" x="1049.5207" y="120.839">1</text></g><!--MD5=[90f8c9fc547b9ef16e9d87009fc07b1c]
link Company to VaccinationLogStore--><g id="link_Company_VaccinationLogStore"><path codeLine="93" d="M887.25,235.73 C941.47,274.61 1016.34,328.29 1072.97,368.9 " fill="none" id="Company-VaccinationLogStore" style="stroke:#181818;stroke-width:1.0;"/><polygon fill="#000000" points="941.0634,265.0894,935.4253,257.4302,932.0001,262.207,941.0634,265.0894" style="stroke:#000000;stroke-width:1.0;"/><text fill="#000000" font-family="sans-serif" font-size="13" lengthAdjust="spacing" textLength="30" x="946" y="267.4951">owns</text><text fill="#000000" font-family="sans-serif" font-size="13" lengthAdjust="spacing" textLength="7" x="888.9945" y="256.7834">1</text><text fill="#000000" font-family="sans-serif" font-size="13" lengthAdjust="spacing" textLength="7" x="1058.0852" y="377.8043">1</text></g><!--MD5=[717d4b03d3c4372f4eafe5e342a0a7dd]
link Company to AuthFacade--><g id="link_Company_AuthFacade"><path codeLine="94" d="M891.4,185 C924.02,185 963.5,185 1001.82,185 " fill="none" id="Company-to-AuthFacade" style="stroke:#181818;stroke-width:1.0;stroke-dasharray:7.0,7.0;"/><polygon fill="#181818" points="1006.98,185,997.98,181,1001.98,185,997.98,189,1006.98,185" style="stroke:#181818;stroke-width:1.0;"/></g><!--MD5=[271cba7999ae237cb9146e96ed13ba25]
link VaccinationLogStore to VacAdministration--><g id="link_VaccinationLogStore_VacAdministration"><path codeLine="95" d="M1237.21,427 C1290.08,427 1359.27,427 1414.73,427 " fill="none" id="VaccinationLogStore-VacAdministration" style="stroke:#181818;stroke-width:1.0;"/><text fill="#000000" font-family="sans-serif" font-size="13" lengthAdjust="spacing" textLength="7" x="1245.1114" y="441.2603">1</text><text fill="#000000" font-family="sans-serif" font-size="13" lengthAdjust="spacing" textLength="5" x="1401.8593" y="441.1497">*</text></g><!--MD5=[6492440eebfe1af2c51be03603acd323]
@startuml
skinparam classAttributeIconSize 0
left to right direction

class CenterPerformanceUI {
}

class US16Controller{
checkCenterExists()
getDatesWithInfo()
getListOfDifferences(timeInterval, dateSelected)
getMaxContiguousSum(differences)
getStartOfSublist(sublist,list)
getAlgorithmFromProps()
changeAlgorithmProps(int algorithmID)
setProperty(param,value)
}

class Company{
getCoordinatorStore()
getLogStore()
getAuthFacade()
}

class CoordinatorStore{
getCenterIDByEmail(email)
}

class AuthFacade{
existsUser(email)
addUserWithRole(name,email,password,role)
}

class Properties{
setProperty(param,value)
getProperty(param)
store(name,comments)
}

class VaccinationLogStore{
name
sex
birth Date
address
phone Number
email
SNSUserNumber
citizenCardNumber
getName()
getSex()
getBirthDate()
getAddress()
getPhoneNumber()
getEmail()
getSNSUserNumber()
getCitizenCardNumber()
}

class Sum{
max(list)
maxBruteForce(list)
}

class VacAdministration{
snsNumber
vaccineName
vaccineDose
lotNumber
scheduledDateTime
arrivalDateTime
administrationDateTime
leavingDateTime
centerID
getArrivalDateTime()
getAdministrationDateTime()
getLeavingDateTime()
getCenterID()
}

class Coordinator{
vacCenterID
email
name
password
getEmail()
}
CoordinatorStore "1" - - "1" Coordinator: knows >
CenterPerformanceUI ..> App
App ..> US16Controller
US16Controller ..> Sum
US16Controller ..> Company
US16Controller ..> Properties
Company "1" - - "1" CoordinatorStore : owns >
Company "1" - - "1" VaccinationLogStore : owns >
Company ..> AuthFacade
VaccinationLogStore "1" - - "*" VacAdministration

@enduml

PlantUML version 1.2022.4(Sat Apr 09 14:29:17 BST 2022)
(GPL source distribution)
Java Runtime: OpenJDK Runtime Environment
JVM: OpenJDK 64-Bit Server VM
Default Encoding: Cp1252
Language: en
Country: US
--></g></svg>