<?xml version="1.0" encoding="UTF-8" standalone="no"?><svg xmlns="http://www.w3.org/2000/svg" xmlns:xlink="http://www.w3.org/1999/xlink" contentScriptType="application/ecmascript" contentStyleType="text/css" height="177px" preserveAspectRatio="none" style="width:928px;height:177px;background:#FFFFFF;" version="1.1" viewBox="0 0 928 177" width="928px" zoomAndPan="magnify"><defs><filter height="300%" id="fpnjopsavmfla" width="300%" x="-1" y="-1"><feGaussianBlur result="blurOut" stdDeviation="2.0"/><feColorMatrix in="blurOut" result="blurOut2" type="matrix" values="0 0 0 0 0 0 0 0 0 0 0 0 0 0 0 0 0 0 .4 0"/><feOffset dx="4.0" dy="4.0" in="blurOut2" result="blurOut3"/><feBlend in="SourceGraphic" in2="blurOut3" mode="normal"/></filter></defs><g><!--MD5=[f8e092794d52bf9a252466252ae7bd1c]
class System--><rect codeLine="6" fill="#FEFECE" filter="url(#fpnjopsavmfla)" height="40" id="System" style="stroke:#A80036;stroke-width:1.5;" width="73" x="7" y="74"/><ellipse cx="22" cy="90" fill="#ADD1B2" rx="11" ry="11" style="stroke:#A80036;stroke-width:1.0;"/><path d="M24,86.5 Q24.2031,86 24.4375,85.75 Q24.6719,85.5 24.9375,85.5 Q25.4063,85.5 25.7031,85.7813 Q26,86.0625 26,86.7188 L26,88.2813 Q26,88.9375 25.7188,89.2188 Q25.4375,89.5 25,89.5 Q24.6094,89.5 24.3594,89.3281 Q24.1094,89.1563 24,88.7031 Q23.9531,88.3906 23.7813,88.2188 Q23.4688,87.8906 22.9063,87.7031 Q22.3438,87.5 21.7813,87.5 Q21.0781,87.5 20.4844,87.7813 Q19.9063,88.0625 19.4531,88.6875 Q19,89.3125 19,90.1719 L19,91.0938 Q19,92.125 19.8438,92.8125 Q20.6875,93.5 22.1875,93.5 Q23.0781,93.5 23.7031,93.2969 Q24.0625,93.1875 24.4688,92.8281 Q24.7344,92.625 24.875,92.5625 Q25.0156,92.5 25.1875,92.5 Q25.5156,92.5 25.75,92.7656 Q26,93.0156 26,93.375 Q26,93.7188 25.6563,94.125 Q25.1563,94.7188 24.3594,95.0469 Q23.3125,95.5 22.0313,95.5 Q20.5313,95.5 19.3281,94.9063 Q18.3594,94.4375 17.6719,93.4219 Q17,92.4063 17,91.2031 L17,90.1094 Q17,88.8594 17.5938,87.7656 Q18.2031,86.6719 19.25,86.0938 Q20.3125,85.5 21.5,85.5 Q22.2188,85.5 22.8438,85.75 Q23.4688,86 24,86.5 Z " fill="#000000"/><text fill="#000000" font-family="sans-serif" font-size="12" lengthAdjust="spacing" textLength="41" x="36" y="94.9102">System</text><line style="stroke:#A80036;stroke-width:1.5;" x1="8" x2="79" y1="106" y2="106"/><!--MD5=[05d19ce11c83b26a6b2567a5ad71c041]
class Adminstrator--><rect codeLine="9" fill="#FEFECE" filter="url(#fpnjopsavmfla)" height="40" id="Adminstrator" style="stroke:#A80036;stroke-width:1.5;" width="102" x="176" y="7"/><ellipse cx="191" cy="23" fill="#ADD1B2" rx="11" ry="11" style="stroke:#A80036;stroke-width:1.0;"/><path d="M193,19.5 Q193.2031,19 193.4375,18.75 Q193.6719,18.5 193.9375,18.5 Q194.4063,18.5 194.7031,18.7813 Q195,19.0625 195,19.7188 L195,21.2813 Q195,21.9375 194.7188,22.2188 Q194.4375,22.5 194,22.5 Q193.6094,22.5 193.3594,22.3281 Q193.1094,22.1563 193,21.7031 Q192.9531,21.3906 192.7813,21.2188 Q192.4688,20.8906 191.9063,20.7031 Q191.3438,20.5 190.7813,20.5 Q190.0781,20.5 189.4844,20.7813 Q188.9063,21.0625 188.4531,21.6875 Q188,22.3125 188,23.1719 L188,24.0938 Q188,25.125 188.8438,25.8125 Q189.6875,26.5 191.1875,26.5 Q192.0781,26.5 192.7031,26.2969 Q193.0625,26.1875 193.4688,25.8281 Q193.7344,25.625 193.875,25.5625 Q194.0156,25.5 194.1875,25.5 Q194.5156,25.5 194.75,25.7656 Q195,26.0156 195,26.375 Q195,26.7188 194.6563,27.125 Q194.1563,27.7188 193.3594,28.0469 Q192.3125,28.5 191.0313,28.5 Q189.5313,28.5 188.3281,27.9063 Q187.3594,27.4375 186.6719,26.4219 Q186,25.4063 186,24.2031 L186,23.1094 Q186,21.8594 186.5938,20.7656 Q187.2031,19.6719 188.25,19.0938 Q189.3125,18.5 190.5,18.5 Q191.2188,18.5 191.8438,18.75 Q192.4688,19 193,19.5 Z " fill="#000000"/><text fill="#000000" font-family="sans-serif" font-size="12" lengthAdjust="spacing" textLength="70" x="205" y="27.9102">Adminstrator</text><line style="stroke:#A80036;stroke-width:1.5;" x1="177" x2="277" y1="39" y2="39"/><!--MD5=[7421f545a0d8420c5bec41e74b387d9c]
class Employee--><rect codeLine="12" fill="#FEFECE" filter="url(#fpnjopsavmfla)" height="81.5078" id="Employee" style="stroke:#A80036;stroke-width:1.5;" width="87" x="183.5" y="82"/><ellipse cx="198.5" cy="98" fill="#ADD1B2" rx="11" ry="11" style="stroke:#A80036;stroke-width:1.0;"/><path d="M200.5,94.5 Q200.7031,94 200.9375,93.75 Q201.1719,93.5 201.4375,93.5 Q201.9063,93.5 202.2031,93.7813 Q202.5,94.0625 202.5,94.7188 L202.5,96.2813 Q202.5,96.9375 202.2188,97.2188 Q201.9375,97.5 201.5,97.5 Q201.1094,97.5 200.8594,97.3281 Q200.6094,97.1563 200.5,96.7031 Q200.4531,96.3906 200.2813,96.2188 Q199.9688,95.8906 199.4063,95.7031 Q198.8438,95.5 198.2813,95.5 Q197.5781,95.5 196.9844,95.7813 Q196.4063,96.0625 195.9531,96.6875 Q195.5,97.3125 195.5,98.1719 L195.5,99.0938 Q195.5,100.125 196.3438,100.8125 Q197.1875,101.5 198.6875,101.5 Q199.5781,101.5 200.2031,101.2969 Q200.5625,101.1875 200.9688,100.8281 Q201.2344,100.625 201.375,100.5625 Q201.5156,100.5 201.6875,100.5 Q202.0156,100.5 202.25,100.7656 Q202.5,101.0156 202.5,101.375 Q202.5,101.7188 202.1563,102.125 Q201.6563,102.7188 200.8594,103.0469 Q199.8125,103.5 198.5313,103.5 Q197.0313,103.5 195.8281,102.9063 Q194.8594,102.4375 194.1719,101.4219 Q193.5,100.4063 193.5,99.2031 L193.5,98.1094 Q193.5,96.8594 194.0938,95.7656 Q194.7031,94.6719 195.75,94.0938 Q196.8125,93.5 198,93.5 Q198.7188,93.5 199.3438,93.75 Q199.9688,94 200.5,94.5 Z " fill="#000000"/><text fill="#000000" font-family="sans-serif" font-size="12" lengthAdjust="spacing" textLength="55" x="212.5" y="102.9102">Employee</text><line style="stroke:#A80036;stroke-width:1.5;" x1="184.5" x2="269.5" y1="114" y2="114"/><text fill="#000000" font-family="sans-serif" font-size="11" lengthAdjust="spacing" textLength="30" x="189.5" y="129.4189">-name</text><text fill="#000000" font-family="sans-serif" font-size="11" lengthAdjust="spacing" textLength="28" x="189.5" y="143.2549">-email</text><text fill="#000000" font-family="sans-serif" font-size="11" lengthAdjust="spacing" textLength="54" x="189.5" y="157.0908">-password</text><!--MD5=[8ae808d068a8995f06b9b3ec51357f0b]
class AuthFacade--><rect codeLine="18" fill="#FEFECE" filter="url(#fpnjopsavmfla)" height="40" id="AuthFacade" style="stroke:#A80036;stroke-width:1.5;" width="97" x="505" y="7"/><ellipse cx="520" cy="23" fill="#ADD1B2" rx="11" ry="11" style="stroke:#A80036;stroke-width:1.0;"/><path d="M522,19.5 Q522.2031,19 522.4375,18.75 Q522.6719,18.5 522.9375,18.5 Q523.4063,18.5 523.7031,18.7813 Q524,19.0625 524,19.7188 L524,21.2813 Q524,21.9375 523.7188,22.2188 Q523.4375,22.5 523,22.5 Q522.6094,22.5 522.3594,22.3281 Q522.1094,22.1563 522,21.7031 Q521.9531,21.3906 521.7813,21.2188 Q521.4688,20.8906 520.9063,20.7031 Q520.3438,20.5 519.7813,20.5 Q519.0781,20.5 518.4844,20.7813 Q517.9063,21.0625 517.4531,21.6875 Q517,22.3125 517,23.1719 L517,24.0938 Q517,25.125 517.8438,25.8125 Q518.6875,26.5 520.1875,26.5 Q521.0781,26.5 521.7031,26.2969 Q522.0625,26.1875 522.4688,25.8281 Q522.7344,25.625 522.875,25.5625 Q523.0156,25.5 523.1875,25.5 Q523.5156,25.5 523.75,25.7656 Q524,26.0156 524,26.375 Q524,26.7188 523.6563,27.125 Q523.1563,27.7188 522.3594,28.0469 Q521.3125,28.5 520.0313,28.5 Q518.5313,28.5 517.3281,27.9063 Q516.3594,27.4375 515.6719,26.4219 Q515,25.4063 515,24.2031 L515,23.1094 Q515,21.8594 515.5938,20.7656 Q516.2031,19.6719 517.25,19.0938 Q518.3125,18.5 519.5,18.5 Q520.2188,18.5 520.8438,18.75 Q521.4688,19 522,19.5 Z " fill="#000000"/><text fill="#000000" font-family="sans-serif" font-size="12" lengthAdjust="spacing" textLength="65" x="534" y="27.9102">AuthFacade</text><line style="stroke:#A80036;stroke-width:1.5;" x1="506" x2="601" y1="39" y2="39"/><!--MD5=[93af8b4494db78ec46e98fad8955a5aa]
class UserStore--><rect codeLine="21" fill="#FEFECE" filter="url(#fpnjopsavmfla)" height="40" id="UserStore" style="stroke:#A80036;stroke-width:1.5;" width="88" x="826" y="7"/><ellipse cx="841" cy="23" fill="#ADD1B2" rx="11" ry="11" style="stroke:#A80036;stroke-width:1.0;"/><path d="M843,19.5 Q843.2031,19 843.4375,18.75 Q843.6719,18.5 843.9375,18.5 Q844.4063,18.5 844.7031,18.7813 Q845,19.0625 845,19.7188 L845,21.2813 Q845,21.9375 844.7188,22.2188 Q844.4375,22.5 844,22.5 Q843.6094,22.5 843.3594,22.3281 Q843.1094,22.1563 843,21.7031 Q842.9531,21.3906 842.7813,21.2188 Q842.4688,20.8906 841.9063,20.7031 Q841.3438,20.5 840.7813,20.5 Q840.0781,20.5 839.4844,20.7813 Q838.9063,21.0625 838.4531,21.6875 Q838,22.3125 838,23.1719 L838,24.0938 Q838,25.125 838.8438,25.8125 Q839.6875,26.5 841.1875,26.5 Q842.0781,26.5 842.7031,26.2969 Q843.0625,26.1875 843.4688,25.8281 Q843.7344,25.625 843.875,25.5625 Q844.0156,25.5 844.1875,25.5 Q844.5156,25.5 844.75,25.7656 Q845,26.0156 845,26.375 Q845,26.7188 844.6563,27.125 Q844.1563,27.7188 843.3594,28.0469 Q842.3125,28.5 841.0313,28.5 Q839.5313,28.5 838.3281,27.9063 Q837.3594,27.4375 836.6719,26.4219 Q836,25.4063 836,24.2031 L836,23.1094 Q836,21.8594 836.5938,20.7656 Q837.2031,19.6719 838.25,19.0938 Q839.3125,18.5 840.5,18.5 Q841.2188,18.5 841.8438,18.75 Q842.4688,19 843,19.5 Z " fill="#000000"/><text fill="#000000" font-family="sans-serif" font-size="12" lengthAdjust="spacing" textLength="56" x="855" y="27.9102">UserStore</text><line style="stroke:#A80036;stroke-width:1.5;" x1="827" x2="913" y1="39" y2="39"/><!--MD5=[87fc3f02541405c64727f06b44f6ba47]
link System to Adminstrator--><path codeLine="24" d="M80.36,80.76 C107.63,70.69 145.5,56.72 175.79,45.54 " fill="none" id="System-Adminstrator" style="stroke:#A80036;stroke-width:1.0;"/><polygon fill="#000000" points="119.6907,48.4446,110.1875,48.8192,112.2227,54.3335,119.6907,48.4446" style="stroke:#000000;stroke-width:1.0;"/><text fill="#000000" font-family="sans-serif" font-size="13" lengthAdjust="spacing" textLength="21" x="124" y="55.4951">has</text><text fill="#000000" font-family="sans-serif" font-size="13" lengthAdjust="spacing" textLength="7" x="88.0536" y="93.2898">1</text><text fill="#000000" font-family="sans-serif" font-size="13" lengthAdjust="spacing" textLength="7" x="161.0964" y="62.792">1</text><!--MD5=[0317a228b532092d763ffc22a9c6508d]
link System to Employee--><path codeLine="25" d="M80.12,101.47 C89.8,103.39 100.28,105.37 110,107 C134.26,111.08 161.5,114.87 183.49,117.75 " fill="none" id="System-Employee" style="stroke:#A80036;stroke-width:1.0;"/><polygon fill="#000000" points="119.9391,98.9537,111.4614,94.6433,110.5469,100.4496,119.9391,98.9537" style="stroke:#000000;stroke-width:1.0;"/><text fill="#000000" font-family="sans-serif" font-size="13" lengthAdjust="spacing" textLength="21" x="124" y="103.4951">has</text><text fill="#000000" font-family="sans-serif" font-size="13" lengthAdjust="spacing" textLength="7" x="88.0186" y="118.0454">1</text><text fill="#000000" font-family="sans-serif" font-size="13" lengthAdjust="spacing" textLength="5" x="170.582" y="131.7903">*</text><!--MD5=[540e366b9e5ff86d1f1c1769f71fe41f]
link Adminstrator to AuthFacade--><path codeLine="26" d="M278.35,27 C340.21,27 444.39,27 504.94,27 " fill="none" id="Adminstrator-AuthFacade" style="stroke:#A80036;stroke-width:1.0;"/><polygon fill="#000000" points="356,18.1758,346.9549,15.2369,346.9549,21.1147,356,18.1758" style="stroke:#000000;stroke-width:1.0;"/><text fill="#000000" font-family="sans-serif" font-size="13" lengthAdjust="spacing" textLength="76" x="360" y="23.4951">Chooses role</text><!--MD5=[9b31a38d7a5b4478c88e16eec4129fe7]
link AuthFacade to Adminstrator--><path codeLine="28" d="M504.74,45.7 C495.04,48.73 484.8,51.4 475,53 C401.75,64.96 381.31,64.61 308,53 C298.19,51.45 287.95,48.88 278.2,45.96 " fill="none" id="AuthFacade-Adminstrator" style="stroke:#A80036;stroke-width:1.0;"/><polygon fill="#000000" points="308,44.1815,317.0485,47.1101,317.0417,41.2322,308,44.1815" style="stroke:#000000;stroke-width:1.0;"/><text fill="#000000" font-family="sans-serif" font-size="13" lengthAdjust="spacing" textLength="152" x="322" y="49.4951">Sends list with employees</text><!--MD5=[8fa5194589bffb331f8c271d11ca426a]
link AuthFacade to UserStore--><path codeLine="27" d="M602.27,27 C663.1,27 767.32,27 825.85,27 " fill="none" id="AuthFacade-UserStore" style="stroke:#A80036;stroke-width:1.0;"/><polygon fill="#000000" points="642,18.1758,632.9549,15.2369,632.9549,21.1147,642,18.1758" style="stroke:#000000;stroke-width:1.0;"/><text fill="#000000" font-family="sans-serif" font-size="13" lengthAdjust="spacing" textLength="149" x="646" y="23.4951">Gets Employees with role</text><!--MD5=[310586f2ba86767a6d02e9255f991da9]
@startuml
hide methods
left to right direction
skinparam classAttributeIconSize 0


class System {
}

class Adminstrator {
}

class Employee {
  -name
  -email
  -password
}

class AuthFacade {
}

class UserStore {
}

System "1" - - "1" Adminstrator : has >
System "1" - - "*" Employee : has >
Adminstrator - - AuthFacade : Chooses role >
AuthFacade - - UserStore : Gets Employees with role >
AuthFacade - - Adminstrator : Sends list with employees >


@enduml

PlantUML version 1.2022.1(Tue Feb 01 18:19:58 GMT 2022)
(GPL source distribution)
Java Runtime: OpenJDK Runtime Environment
JVM: OpenJDK 64-Bit Server VM
Default Encoding: Cp1252
Language: pt
Country: PT
--></g></svg>