<?xml version="1.0" encoding="UTF-8" standalone="no"?><svg xmlns="http://www.w3.org/2000/svg" xmlns:xlink="http://www.w3.org/1999/xlink" contentStyleType="text/css" height="1804px" preserveAspectRatio="none" style="width:2135px;height:1804px;background:#FFFFFF;" version="1.1" viewBox="0 0 2135 1804" width="2135px" zoomAndPan="magnify"><defs/><g><!--MD5=[bf337ce063a6006a8de5dd07ef56e535]
class VacStatisticsUI--><g id="elem_VacStatisticsUI"><rect codeLine="3" fill="#F1F1F1" height="48" id="VacStatisticsUI" rx="2.5" ry="2.5" style="stroke:#181818;stroke-width:0.5;" width="124" x="1186" y="7"/><ellipse cx="1201" cy="23" fill="#ADD1B2" rx="11" ry="11" style="stroke:#181818;stroke-width:1.0;"/><path d="M1203,19.5 Q1203.2031,19 1203.4375,18.75 Q1203.6719,18.5 1203.9375,18.5 Q1204.4063,18.5 1204.7031,18.7813 Q1205,19.0625 1205,19.7188 L1205,21.2813 Q1205,21.9375 1204.7188,22.2188 Q1204.4375,22.5 1204,22.5 Q1203.6094,22.5 1203.3594,22.3281 Q1203.1094,22.1563 1203,21.7031 Q1202.9531,21.3906 1202.7813,21.2188 Q1202.4688,20.8906 1201.9063,20.7031 Q1201.3438,20.5 1200.7813,20.5 Q1200.0781,20.5 1199.4844,20.7813 Q1198.9063,21.0625 1198.4531,21.6875 Q1198,22.3125 1198,23.1719 L1198,24.0938 Q1198,25.125 1198.8438,25.8125 Q1199.6875,26.5 1201.1875,26.5 Q1202.0781,26.5 1202.7031,26.2969 Q1203.0625,26.1875 1203.4688,25.8281 Q1203.7344,25.625 1203.875,25.5625 Q1204.0156,25.5 1204.1875,25.5 Q1204.5156,25.5 1204.75,25.7656 Q1205,26.0156 1205,26.375 Q1205,26.7188 1204.6563,27.125 Q1204.1563,27.7188 1203.3594,28.0469 Q1202.3125,28.5 1201.0313,28.5 Q1199.5313,28.5 1198.3281,27.9063 Q1197.3594,27.4375 1196.6719,26.4219 Q1196,25.4063 1196,24.2031 L1196,23.1094 Q1196,21.8594 1196.5938,20.7656 Q1197.2031,19.6719 1198.25,19.0938 Q1199.3125,18.5 1200.5,18.5 Q1201.2188,18.5 1201.8438,18.75 Q1202.4688,19 1203,19.5 Z " fill="#000000"/><text fill="#000000" font-family="sans-serif" font-size="14" lengthAdjust="spacing" textLength="92" x="1215" y="28.7285">VacStatisticsUI</text><line style="stroke:#181818;stroke-width:0.5;" x1="1187" x2="1309" y1="39" y2="39"/><line style="stroke:#181818;stroke-width:0.5;" x1="1187" x2="1309" y1="47" y2="47"/></g><!--MD5=[7005006e94536ab8491b58dccc035f57]
class VacStatisticsController--><g id="elem_VacStatisticsController"><rect codeLine="8" fill="#F1F1F1" height="118.4375" id="VacStatisticsController" rx="2.5" ry="2.5" style="stroke:#181818;stroke-width:0.5;" width="191" x="1152.5" y="116"/><ellipse cx="1175.15" cy="132" fill="#ADD1B2" rx="11" ry="11" style="stroke:#181818;stroke-width:1.0;"/><path d="M1177.15,128.5 Q1177.3531,128 1177.5875,127.75 Q1177.8219,127.5 1178.0875,127.5 Q1178.5563,127.5 1178.8531,127.7813 Q1179.15,128.0625 1179.15,128.7188 L1179.15,130.2813 Q1179.15,130.9375 1178.8688,131.2188 Q1178.5875,131.5 1178.15,131.5 Q1177.7594,131.5 1177.5094,131.3281 Q1177.2594,131.1563 1177.15,130.7031 Q1177.1031,130.3906 1176.9313,130.2188 Q1176.6188,129.8906 1176.0563,129.7031 Q1175.4938,129.5 1174.9313,129.5 Q1174.2281,129.5 1173.6344,129.7813 Q1173.0563,130.0625 1172.6031,130.6875 Q1172.15,131.3125 1172.15,132.1719 L1172.15,133.0938 Q1172.15,134.125 1172.9938,134.8125 Q1173.8375,135.5 1175.3375,135.5 Q1176.2281,135.5 1176.8531,135.2969 Q1177.2125,135.1875 1177.6188,134.8281 Q1177.8844,134.625 1178.025,134.5625 Q1178.1656,134.5 1178.3375,134.5 Q1178.6656,134.5 1178.9,134.7656 Q1179.15,135.0156 1179.15,135.375 Q1179.15,135.7188 1178.8063,136.125 Q1178.3063,136.7188 1177.5094,137.0469 Q1176.4625,137.5 1175.1813,137.5 Q1173.6813,137.5 1172.4781,136.9063 Q1171.5094,136.4375 1170.8219,135.4219 Q1170.15,134.4063 1170.15,133.2031 L1170.15,132.1094 Q1170.15,130.8594 1170.7438,129.7656 Q1171.3531,128.6719 1172.4,128.0938 Q1173.4625,127.5 1174.65,127.5 Q1175.3688,127.5 1175.9938,127.75 Q1176.6188,128 1177.15,128.5 Z " fill="#000000"/><text fill="#000000" font-family="sans-serif" font-size="14" lengthAdjust="spacing" textLength="142" x="1190.85" y="137.7285">VacStatisticsController</text><line style="stroke:#181818;stroke-width:0.5;" x1="1153.5" x2="1342.5" y1="148" y2="148"/><line style="stroke:#181818;stroke-width:0.5;" x1="1153.5" x2="1342.5" y1="156" y2="156"/><text fill="#000000" font-family="sans-serif" font-size="14" lengthAdjust="spacing" textLength="91" x="1158.5" y="174.5332">UpdateTable()</text><text fill="#000000" font-family="sans-serif" font-size="14" lengthAdjust="spacing" textLength="179" x="1158.5" y="192.1426">ExportVaccinationStatistics()</text><text fill="#000000" font-family="sans-serif" font-size="14" lengthAdjust="spacing" textLength="63" x="1158.5" y="209.752">getDateI()</text><text fill="#000000" font-family="sans-serif" font-size="14" lengthAdjust="spacing" textLength="69" x="1158.5" y="227.3613">getDateF()</text></g><!--MD5=[bbd32abb87742158d8b9937325662454]
class Center--><g id="elem_Center"><rect codeLine="15" fill="#F1F1F1" height="435.4063" id="Center" rx="2.5" ry="2.5" style="stroke:#181818;stroke-width:0.5;" width="149" x="115.5" y="1131"/><ellipse cx="164.25" cy="1147" fill="#ADD1B2" rx="11" ry="11" style="stroke:#181818;stroke-width:1.0;"/><path d="M166.25,1143.5 Q166.4531,1143 166.6875,1142.75 Q166.9219,1142.5 167.1875,1142.5 Q167.6563,1142.5 167.9531,1142.7813 Q168.25,1143.0625 168.25,1143.7188 L168.25,1145.2813 Q168.25,1145.9375 167.9688,1146.2188 Q167.6875,1146.5 167.25,1146.5 Q166.8594,1146.5 166.6094,1146.3281 Q166.3594,1146.1563 166.25,1145.7031 Q166.2031,1145.3906 166.0313,1145.2188 Q165.7188,1144.8906 165.1563,1144.7031 Q164.5938,1144.5 164.0313,1144.5 Q163.3281,1144.5 162.7344,1144.7813 Q162.1563,1145.0625 161.7031,1145.6875 Q161.25,1146.3125 161.25,1147.1719 L161.25,1148.0938 Q161.25,1149.125 162.0938,1149.8125 Q162.9375,1150.5 164.4375,1150.5 Q165.3281,1150.5 165.9531,1150.2969 Q166.3125,1150.1875 166.7188,1149.8281 Q166.9844,1149.625 167.125,1149.5625 Q167.2656,1149.5 167.4375,1149.5 Q167.7656,1149.5 168,1149.7656 Q168.25,1150.0156 168.25,1150.375 Q168.25,1150.7188 167.9063,1151.125 Q167.4063,1151.7188 166.6094,1152.0469 Q165.5625,1152.5 164.2813,1152.5 Q162.7813,1152.5 161.5781,1151.9063 Q160.6094,1151.4375 159.9219,1150.4219 Q159.25,1149.4063 159.25,1148.2031 L159.25,1147.1094 Q159.25,1145.8594 159.8438,1144.7656 Q160.4531,1143.6719 161.5,1143.0938 Q162.5625,1142.5 163.75,1142.5 Q164.4688,1142.5 165.0938,1142.75 Q165.7188,1143 166.25,1143.5 Z " fill="#000000"/><text fill="#000000" font-family="sans-serif" font-size="14" lengthAdjust="spacing" textLength="43" x="184.75" y="1152.7285">Center</text><line style="stroke:#181818;stroke-width:0.5;" x1="116.5" x2="263.5" y1="1163" y2="1163"/><text fill="#000000" font-family="sans-serif" font-size="14" lengthAdjust="spacing" textLength="16" x="121.5" y="1181.5332">-id</text><text fill="#000000" font-family="sans-serif" font-size="14" lengthAdjust="spacing" textLength="78" x="121.5" y="1199.1426">-designation</text><text fill="#000000" font-family="sans-serif" font-size="14" lengthAdjust="spacing" textLength="56" x="121.5" y="1216.752">-address</text><text fill="#000000" font-family="sans-serif" font-size="14" lengthAdjust="spacing" textLength="94" x="121.5" y="1234.3613">-phoneNumber</text><text fill="#000000" font-family="sans-serif" font-size="14" lengthAdjust="spacing" textLength="72" x="121.5" y="1251.9707">-faxNumber</text><text fill="#000000" font-family="sans-serif" font-size="14" lengthAdjust="spacing" textLength="104" x="121.5" y="1269.5801">-websiteAddress</text><text fill="#000000" font-family="sans-serif" font-size="14" lengthAdjust="spacing" textLength="90" x="121.5" y="1287.1895">-emailAddress</text><text fill="#000000" font-family="sans-serif" font-size="14" lengthAdjust="spacing" textLength="68" x="121.5" y="1304.7988">-openTime</text><text fill="#000000" font-family="sans-serif" font-size="14" lengthAdjust="spacing" textLength="69" x="121.5" y="1322.4082">-closeTime</text><text fill="#000000" font-family="sans-serif" font-size="14" lengthAdjust="spacing" textLength="34" x="121.5" y="1340.0176">-slots</text><text fill="#000000" font-family="sans-serif" font-size="14" lengthAdjust="spacing" textLength="81" x="121.5" y="1357.627">-slotDuration</text><line style="stroke:#181818;stroke-width:0.5;" x1="116.5" x2="263.5" y1="1364.7031" y2="1364.7031"/><text fill="#000000" font-family="sans-serif" font-size="14" lengthAdjust="spacing" textLength="51" x="121.5" y="1383.2363">+getID()</text><text fill="#000000" font-family="sans-serif" font-size="14" lengthAdjust="spacing" textLength="111" x="121.5" y="1400.8457">+getdesignation()</text><text fill="#000000" font-family="sans-serif" font-size="14" lengthAdjust="spacing" textLength="89" x="121.5" y="1418.4551">+getaddress()</text><text fill="#000000" font-family="sans-serif" font-size="14" lengthAdjust="spacing" textLength="127" x="121.5" y="1436.0645">+getphoneNumber()</text><text fill="#000000" font-family="sans-serif" font-size="14" lengthAdjust="spacing" textLength="105" x="121.5" y="1453.6738">+getfaxNumber()</text><text fill="#000000" font-family="sans-serif" font-size="14" lengthAdjust="spacing" textLength="137" x="121.5" y="1471.2832">+getwebsiteAddress()</text><text fill="#000000" font-family="sans-serif" font-size="14" lengthAdjust="spacing" textLength="123" x="121.5" y="1488.8926">+getemailAddress()</text><text fill="#000000" font-family="sans-serif" font-size="14" lengthAdjust="spacing" textLength="101" x="121.5" y="1506.502">+getopenTime()</text><text fill="#000000" font-family="sans-serif" font-size="14" lengthAdjust="spacing" textLength="102" x="121.5" y="1524.1113">+getcloseTime()</text><text fill="#000000" font-family="sans-serif" font-size="14" lengthAdjust="spacing" textLength="67" x="121.5" y="1541.7207">+getslots()</text><text fill="#000000" font-family="sans-serif" font-size="14" lengthAdjust="spacing" textLength="114" x="121.5" y="1559.3301">+getslotDuration()</text></g><!--MD5=[de60e6d4f424ae4d0522096f76a59010]
class VaccinationCenter--><g id="elem_VaccinationCenter"><rect codeLine="41" fill="#F1F1F1" height="83.2188" id="VaccinationCenter" rx="2.5" ry="2.5" style="stroke:#181818;stroke-width:0.5;" width="155" x="200.5" y="330.5"/><ellipse cx="218.65" cy="346.5" fill="#ADD1B2" rx="11" ry="11" style="stroke:#181818;stroke-width:1.0;"/><path d="M220.65,343 Q220.8531,342.5 221.0875,342.25 Q221.3219,342 221.5875,342 Q222.0563,342 222.3531,342.2813 Q222.65,342.5625 222.65,343.2188 L222.65,344.7813 Q222.65,345.4375 222.3688,345.7188 Q222.0875,346 221.65,346 Q221.2594,346 221.0094,345.8281 Q220.7594,345.6563 220.65,345.2031 Q220.6031,344.8906 220.4313,344.7188 Q220.1188,344.3906 219.5563,344.2031 Q218.9938,344 218.4313,344 Q217.7281,344 217.1344,344.2813 Q216.5563,344.5625 216.1031,345.1875 Q215.65,345.8125 215.65,346.6719 L215.65,347.5938 Q215.65,348.625 216.4938,349.3125 Q217.3375,350 218.8375,350 Q219.7281,350 220.3531,349.7969 Q220.7125,349.6875 221.1188,349.3281 Q221.3844,349.125 221.525,349.0625 Q221.6656,349 221.8375,349 Q222.1656,349 222.4,349.2656 Q222.65,349.5156 222.65,349.875 Q222.65,350.2188 222.3063,350.625 Q221.8063,351.2188 221.0094,351.5469 Q219.9625,352 218.6813,352 Q217.1813,352 215.9781,351.4063 Q215.0094,350.9375 214.3219,349.9219 Q213.65,348.9063 213.65,347.7031 L213.65,346.6094 Q213.65,345.3594 214.2438,344.2656 Q214.8531,343.1719 215.9,342.5938 Q216.9625,342 218.15,342 Q218.8688,342 219.4938,342.25 Q220.1188,342.5 220.65,343 Z " fill="#000000"/><text fill="#000000" font-family="sans-serif" font-size="14" lengthAdjust="spacing" textLength="116" x="233.35" y="352.2285">VaccinationCenter</text><line style="stroke:#181818;stroke-width:0.5;" x1="201.5" x2="354.5" y1="362.5" y2="362.5"/><text fill="#000000" font-family="sans-serif" font-size="14" lengthAdjust="spacing" textLength="80" x="206.5" y="381.0332">-vaccinetype</text><line style="stroke:#181818;stroke-width:0.5;" x1="201.5" x2="354.5" y1="388.1094" y2="388.1094"/><text fill="#000000" font-family="sans-serif" font-size="14" lengthAdjust="spacing" textLength="143" x="206.5" y="406.6426">+getVACVaccinetype()</text></g><!--MD5=[1db03e903fe0a044a2ca0dcbef10799a]
class HealthCareCenter--><g id="elem_HealthCareCenter"><rect codeLine="46" fill="#F1F1F1" height="118.4375" id="HealthCareCenter" rx="2.5" ry="2.5" style="stroke:#181818;stroke-width:0.5;" width="146" x="7" y="313"/><ellipse cx="22" cy="329" fill="#ADD1B2" rx="11" ry="11" style="stroke:#181818;stroke-width:1.0;"/><path d="M24,325.5 Q24.2031,325 24.4375,324.75 Q24.6719,324.5 24.9375,324.5 Q25.4063,324.5 25.7031,324.7813 Q26,325.0625 26,325.7188 L26,327.2813 Q26,327.9375 25.7188,328.2188 Q25.4375,328.5 25,328.5 Q24.6094,328.5 24.3594,328.3281 Q24.1094,328.1563 24,327.7031 Q23.9531,327.3906 23.7813,327.2188 Q23.4688,326.8906 22.9063,326.7031 Q22.3438,326.5 21.7813,326.5 Q21.0781,326.5 20.4844,326.7813 Q19.9063,327.0625 19.4531,327.6875 Q19,328.3125 19,329.1719 L19,330.0938 Q19,331.125 19.8438,331.8125 Q20.6875,332.5 22.1875,332.5 Q23.0781,332.5 23.7031,332.2969 Q24.0625,332.1875 24.4688,331.8281 Q24.7344,331.625 24.875,331.5625 Q25.0156,331.5 25.1875,331.5 Q25.5156,331.5 25.75,331.7656 Q26,332.0156 26,332.375 Q26,332.7188 25.6563,333.125 Q25.1563,333.7188 24.3594,334.0469 Q23.3125,334.5 22.0313,334.5 Q20.5313,334.5 19.3281,333.9063 Q18.3594,333.4375 17.6719,332.4219 Q17,331.4063 17,330.2031 L17,329.1094 Q17,327.8594 17.5938,326.7656 Q18.2031,325.6719 19.25,325.0938 Q20.3125,324.5 21.5,324.5 Q22.2188,324.5 22.8438,324.75 Q23.4688,325 24,325.5 Z " fill="#000000"/><text fill="#000000" font-family="sans-serif" font-size="14" lengthAdjust="spacing" textLength="114" x="36" y="334.7285">HealthCareCenter</text><line style="stroke:#181818;stroke-width:0.5;" x1="8" x2="152" y1="345" y2="345"/><text fill="#000000" font-family="sans-serif" font-size="14" lengthAdjust="spacing" textLength="33" x="13" y="363.5332">-ARS</text><text fill="#000000" font-family="sans-serif" font-size="14" lengthAdjust="spacing" textLength="43" x="13" y="381.1426">-AGES</text><line style="stroke:#181818;stroke-width:0.5;" x1="8" x2="152" y1="388.2188" y2="388.2188"/><text fill="#000000" font-family="sans-serif" font-size="14" lengthAdjust="spacing" textLength="66" x="13" y="406.752">+getARS()</text><text fill="#000000" font-family="sans-serif" font-size="14" lengthAdjust="spacing" textLength="76" x="13" y="424.3613">+getAGES()</text></g><!--MD5=[19e445fc4d3b48519cbe33da05496394]
class Vaccine--><g id="elem_Vaccine"><rect codeLine="55" fill="#F1F1F1" height="65.6094" id="Vaccine" rx="2.5" ry="2.5" style="stroke:#181818;stroke-width:0.5;" width="82" x="544" y="837.5"/><ellipse cx="559" cy="853.5" fill="#ADD1B2" rx="11" ry="11" style="stroke:#181818;stroke-width:1.0;"/><path d="M561,850 Q561.2031,849.5 561.4375,849.25 Q561.6719,849 561.9375,849 Q562.4063,849 562.7031,849.2813 Q563,849.5625 563,850.2188 L563,851.7813 Q563,852.4375 562.7188,852.7188 Q562.4375,853 562,853 Q561.6094,853 561.3594,852.8281 Q561.1094,852.6563 561,852.2031 Q560.9531,851.8906 560.7813,851.7188 Q560.4688,851.3906 559.9063,851.2031 Q559.3438,851 558.7813,851 Q558.0781,851 557.4844,851.2813 Q556.9063,851.5625 556.4531,852.1875 Q556,852.8125 556,853.6719 L556,854.5938 Q556,855.625 556.8438,856.3125 Q557.6875,857 559.1875,857 Q560.0781,857 560.7031,856.7969 Q561.0625,856.6875 561.4688,856.3281 Q561.7344,856.125 561.875,856.0625 Q562.0156,856 562.1875,856 Q562.5156,856 562.75,856.2656 Q563,856.5156 563,856.875 Q563,857.2188 562.6563,857.625 Q562.1563,858.2188 561.3594,858.5469 Q560.3125,859 559.0313,859 Q557.5313,859 556.3281,858.4063 Q555.3594,857.9375 554.6719,856.9219 Q554,855.9063 554,854.7031 L554,853.6094 Q554,852.3594 554.5938,851.2656 Q555.2031,850.1719 556.25,849.5938 Q557.3125,849 558.5,849 Q559.2188,849 559.8438,849.25 Q560.4688,849.5 561,850 Z " fill="#000000"/><text fill="#000000" font-family="sans-serif" font-size="14" lengthAdjust="spacing" textLength="50" x="573" y="859.2285">Vaccine</text><line style="stroke:#181818;stroke-width:0.5;" x1="545" x2="625" y1="869.5" y2="869.5"/><text fill="#000000" font-family="sans-serif" font-size="14" lengthAdjust="spacing" textLength="42" x="550" y="888.0332">-brand</text><line style="stroke:#181818;stroke-width:0.5;" x1="545" x2="625" y1="895.1094" y2="895.1094"/></g><!--MD5=[0477ed937fc025f73336243a9c4b23f5]
class VaccineScheduleStore--><g id="elem_VaccineScheduleStore"><rect codeLine="59" fill="#F1F1F1" height="65.6094" id="VaccineScheduleStore" rx="2.5" ry="2.5" style="stroke:#181818;stroke-width:0.5;" width="268" x="822" y="535.5"/><ellipse cx="880.25" cy="551.5" fill="#ADD1B2" rx="11" ry="11" style="stroke:#181818;stroke-width:1.0;"/><path d="M882.25,548 Q882.4531,547.5 882.6875,547.25 Q882.9219,547 883.1875,547 Q883.6563,547 883.9531,547.2813 Q884.25,547.5625 884.25,548.2188 L884.25,549.7813 Q884.25,550.4375 883.9688,550.7188 Q883.6875,551 883.25,551 Q882.8594,551 882.6094,550.8281 Q882.3594,550.6563 882.25,550.2031 Q882.2031,549.8906 882.0313,549.7188 Q881.7188,549.3906 881.1563,549.2031 Q880.5938,549 880.0313,549 Q879.3281,549 878.7344,549.2813 Q878.1563,549.5625 877.7031,550.1875 Q877.25,550.8125 877.25,551.6719 L877.25,552.5938 Q877.25,553.625 878.0938,554.3125 Q878.9375,555 880.4375,555 Q881.3281,555 881.9531,554.7969 Q882.3125,554.6875 882.7188,554.3281 Q882.9844,554.125 883.125,554.0625 Q883.2656,554 883.4375,554 Q883.7656,554 884,554.2656 Q884.25,554.5156 884.25,554.875 Q884.25,555.2188 883.9063,555.625 Q883.4063,556.2188 882.6094,556.5469 Q881.5625,557 880.2813,557 Q878.7813,557 877.5781,556.4063 Q876.6094,555.9375 875.9219,554.9219 Q875.25,553.9063 875.25,552.7031 L875.25,551.6094 Q875.25,550.3594 875.8438,549.2656 Q876.4531,548.1719 877.5,547.5938 Q878.5625,547 879.75,547 Q880.4688,547 881.0938,547.25 Q881.7188,547.5 882.25,548 Z " fill="#000000"/><text fill="#000000" font-family="sans-serif" font-size="14" lengthAdjust="spacing" textLength="143" x="900.75" y="557.2285">VaccineScheduleStore</text><line style="stroke:#181818;stroke-width:0.5;" x1="823" x2="1089" y1="567.5" y2="567.5"/><line style="stroke:#181818;stroke-width:0.5;" x1="823" x2="1089" y1="575.5" y2="575.5"/><text fill="#000000" font-family="sans-serif" font-size="14" lengthAdjust="spacing" textLength="256" x="828" y="594.0332">+getScheduledDateTime(int snsNumber)</text></g><!--MD5=[13d68e378a3dfd06eb8a8b264754bfef]
class NHSUserStore--><g id="elem_NHSUserStore"><rect codeLine="63" fill="#F1F1F1" height="83.2188" id="NHSUserStore" rx="2.5" ry="2.5" style="stroke:#181818;stroke-width:0.5;" width="254" x="1125" y="527"/><ellipse cx="1202.75" cy="543" fill="#ADD1B2" rx="11" ry="11" style="stroke:#181818;stroke-width:1.0;"/><path d="M1204.75,539.5 Q1204.9531,539 1205.1875,538.75 Q1205.4219,538.5 1205.6875,538.5 Q1206.1563,538.5 1206.4531,538.7813 Q1206.75,539.0625 1206.75,539.7188 L1206.75,541.2813 Q1206.75,541.9375 1206.4688,542.2188 Q1206.1875,542.5 1205.75,542.5 Q1205.3594,542.5 1205.1094,542.3281 Q1204.8594,542.1563 1204.75,541.7031 Q1204.7031,541.3906 1204.5313,541.2188 Q1204.2188,540.8906 1203.6563,540.7031 Q1203.0938,540.5 1202.5313,540.5 Q1201.8281,540.5 1201.2344,540.7813 Q1200.6563,541.0625 1200.2031,541.6875 Q1199.75,542.3125 1199.75,543.1719 L1199.75,544.0938 Q1199.75,545.125 1200.5938,545.8125 Q1201.4375,546.5 1202.9375,546.5 Q1203.8281,546.5 1204.4531,546.2969 Q1204.8125,546.1875 1205.2188,545.8281 Q1205.4844,545.625 1205.625,545.5625 Q1205.7656,545.5 1205.9375,545.5 Q1206.2656,545.5 1206.5,545.7656 Q1206.75,546.0156 1206.75,546.375 Q1206.75,546.7188 1206.4063,547.125 Q1205.9063,547.7188 1205.1094,548.0469 Q1204.0625,548.5 1202.7813,548.5 Q1201.2813,548.5 1200.0781,547.9063 Q1199.1094,547.4375 1198.4219,546.4219 Q1197.75,545.4063 1197.75,544.2031 L1197.75,543.1094 Q1197.75,541.8594 1198.3438,540.7656 Q1198.9531,539.6719 1200,539.0938 Q1201.0625,538.5 1202.25,538.5 Q1202.9688,538.5 1203.5938,538.75 Q1204.2188,539 1204.75,539.5 Z " fill="#000000"/><text fill="#000000" font-family="sans-serif" font-size="14" lengthAdjust="spacing" textLength="90" x="1223.25" y="548.7285">NHSUserStore</text><line style="stroke:#181818;stroke-width:0.5;" x1="1126" x2="1378" y1="559" y2="559"/><line style="stroke:#181818;stroke-width:0.5;" x1="1126" x2="1378" y1="567" y2="567"/><text fill="#000000" font-family="sans-serif" font-size="14" lengthAdjust="spacing" textLength="242" x="1131" y="585.5332">+getSnsPhoneNumber(int snsNumber)</text><text fill="#000000" font-family="sans-serif" font-size="14" lengthAdjust="spacing" textLength="204" x="1131" y="603.1426">+getNameBySns(int snsNumber)</text></g><!--MD5=[73977ce227ca9ff7ca3f8e1cba53ab7c]
class NHSUser--><g id="elem_NHSUser"><rect codeLine="68" fill="#F1F1F1" height="329.75" id="NHSUser" rx="2.5" ry="2.5" style="stroke:#181818;stroke-width:0.5;" width="172" x="1166" y="1183.5"/><ellipse cx="1219.75" cy="1199.5" fill="#ADD1B2" rx="11" ry="11" style="stroke:#181818;stroke-width:1.0;"/><path d="M1221.75,1196 Q1221.9531,1195.5 1222.1875,1195.25 Q1222.4219,1195 1222.6875,1195 Q1223.1563,1195 1223.4531,1195.2813 Q1223.75,1195.5625 1223.75,1196.2188 L1223.75,1197.7813 Q1223.75,1198.4375 1223.4688,1198.7188 Q1223.1875,1199 1222.75,1199 Q1222.3594,1199 1222.1094,1198.8281 Q1221.8594,1198.6563 1221.75,1198.2031 Q1221.7031,1197.8906 1221.5313,1197.7188 Q1221.2188,1197.3906 1220.6563,1197.2031 Q1220.0938,1197 1219.5313,1197 Q1218.8281,1197 1218.2344,1197.2813 Q1217.6563,1197.5625 1217.2031,1198.1875 Q1216.75,1198.8125 1216.75,1199.6719 L1216.75,1200.5938 Q1216.75,1201.625 1217.5938,1202.3125 Q1218.4375,1203 1219.9375,1203 Q1220.8281,1203 1221.4531,1202.7969 Q1221.8125,1202.6875 1222.2188,1202.3281 Q1222.4844,1202.125 1222.625,1202.0625 Q1222.7656,1202 1222.9375,1202 Q1223.2656,1202 1223.5,1202.2656 Q1223.75,1202.5156 1223.75,1202.875 Q1223.75,1203.2188 1223.4063,1203.625 Q1222.9063,1204.2188 1222.1094,1204.5469 Q1221.0625,1205 1219.7813,1205 Q1218.2813,1205 1217.0781,1204.4063 Q1216.1094,1203.9375 1215.4219,1202.9219 Q1214.75,1201.9063 1214.75,1200.7031 L1214.75,1199.6094 Q1214.75,1198.3594 1215.3438,1197.2656 Q1215.9531,1196.1719 1217,1195.5938 Q1218.0625,1195 1219.25,1195 Q1219.9688,1195 1220.5938,1195.25 Q1221.2188,1195.5 1221.75,1196 Z " fill="#000000"/><text fill="#000000" font-family="sans-serif" font-size="14" lengthAdjust="spacing" textLength="56" x="1240.25" y="1205.2285">NHSUser</text><line style="stroke:#181818;stroke-width:0.5;" x1="1167" x2="1337" y1="1215.5" y2="1215.5"/><text fill="#000000" font-family="sans-serif" font-size="14" lengthAdjust="spacing" textLength="40" x="1172" y="1234.0332">-name</text><text fill="#000000" font-family="sans-serif" font-size="14" lengthAdjust="spacing" textLength="56" x="1172" y="1251.6426">-address</text><text fill="#000000" font-family="sans-serif" font-size="14" lengthAdjust="spacing" textLength="26" x="1172" y="1269.252">-sex</text><text fill="#000000" font-family="sans-serif" font-size="14" lengthAdjust="spacing" textLength="45" x="1172" y="1286.8613">-phone</text><text fill="#000000" font-family="sans-serif" font-size="14" lengthAdjust="spacing" textLength="38" x="1172" y="1304.4707">-email</text><text fill="#000000" font-family="sans-serif" font-size="14" lengthAdjust="spacing" textLength="63" x="1172" y="1322.0801">-birthDate</text><text fill="#000000" font-family="sans-serif" font-size="14" lengthAdjust="spacing" textLength="81" x="1172" y="1339.6895">-SNSNumber</text><text fill="#000000" font-family="sans-serif" font-size="14" lengthAdjust="spacing" textLength="124" x="1172" y="1357.2988">-citizenCardNumber</text><line style="stroke:#181818;stroke-width:0.5;" x1="1167" x2="1337" y1="1364.375" y2="1364.375"/><text fill="#000000" font-family="sans-serif" font-size="14" lengthAdjust="spacing" textLength="74" x="1172" y="1382.9082">+getName()</text><text fill="#000000" font-family="sans-serif" font-size="14" lengthAdjust="spacing" textLength="90" x="1172" y="1400.5176">+getAddress()</text><text fill="#000000" font-family="sans-serif" font-size="14" lengthAdjust="spacing" textLength="79" x="1172" y="1418.127">+getPhone()</text><text fill="#000000" font-family="sans-serif" font-size="14" lengthAdjust="spacing" textLength="72" x="1172" y="1435.7363">+getEmail()</text><text fill="#000000" font-family="sans-serif" font-size="14" lengthAdjust="spacing" textLength="61" x="1172" y="1453.3457">+getSex()</text><text fill="#000000" font-family="sans-serif" font-size="14" lengthAdjust="spacing" textLength="97" x="1172" y="1470.9551">+getBirthDate()</text><text fill="#000000" font-family="sans-serif" font-size="14" lengthAdjust="spacing" textLength="114" x="1172" y="1488.5645">+getSNSNumber()</text><text fill="#000000" font-family="sans-serif" font-size="14" lengthAdjust="spacing" textLength="160" x="1172" y="1506.1738">+getCitizenCardNumber()</text></g><!--MD5=[cd4ce1c0d44638ff9f42448de30e6b92]
class VaccineSchedule--><g id="elem_VaccineSchedule"><rect codeLine="87" fill="#F1F1F1" height="276.9219" id="VaccineSchedule" rx="2.5" ry="2.5" style="stroke:#181818;stroke-width:0.5;" width="188" x="862" y="732"/><ellipse cx="898.15" cy="748" fill="#ADD1B2" rx="11" ry="11" style="stroke:#181818;stroke-width:1.0;"/><path d="M900.15,744.5 Q900.3531,744 900.5875,743.75 Q900.8219,743.5 901.0875,743.5 Q901.5563,743.5 901.8531,743.7813 Q902.15,744.0625 902.15,744.7188 L902.15,746.2813 Q902.15,746.9375 901.8688,747.2188 Q901.5875,747.5 901.15,747.5 Q900.7594,747.5 900.5094,747.3281 Q900.2594,747.1563 900.15,746.7031 Q900.1031,746.3906 899.9313,746.2188 Q899.6188,745.8906 899.0563,745.7031 Q898.4938,745.5 897.9313,745.5 Q897.2281,745.5 896.6344,745.7813 Q896.0563,746.0625 895.6031,746.6875 Q895.15,747.3125 895.15,748.1719 L895.15,749.0938 Q895.15,750.125 895.9938,750.8125 Q896.8375,751.5 898.3375,751.5 Q899.2281,751.5 899.8531,751.2969 Q900.2125,751.1875 900.6188,750.8281 Q900.8844,750.625 901.025,750.5625 Q901.1656,750.5 901.3375,750.5 Q901.6656,750.5 901.9,750.7656 Q902.15,751.0156 902.15,751.375 Q902.15,751.7188 901.8063,752.125 Q901.3063,752.7188 900.5094,753.0469 Q899.4625,753.5 898.1813,753.5 Q896.6813,753.5 895.4781,752.9063 Q894.5094,752.4375 893.8219,751.4219 Q893.15,750.4063 893.15,749.2031 L893.15,748.1094 Q893.15,746.8594 893.7438,745.7656 Q894.3531,744.6719 895.4,744.0938 Q896.4625,743.5 897.65,743.5 Q898.3688,743.5 898.9938,743.75 Q899.6188,744 900.15,744.5 Z " fill="#000000"/><text fill="#000000" font-family="sans-serif" font-size="14" lengthAdjust="spacing" textLength="109" x="916.85" y="753.7285">VaccineSchedule</text><line style="stroke:#181818;stroke-width:0.5;" x1="863" x2="1049" y1="764" y2="764"/><text fill="#000000" font-family="sans-serif" font-size="14" lengthAdjust="spacing" textLength="33" x="868" y="782.5332">-date</text><text fill="#000000" font-family="sans-serif" font-size="14" lengthAdjust="spacing" textLength="31" x="868" y="800.1426">-time</text><text fill="#000000" font-family="sans-serif" font-size="14" lengthAdjust="spacing" textLength="56" x="868" y="817.752">-centerId</text><text fill="#000000" font-family="sans-serif" font-size="14" lengthAdjust="spacing" textLength="59" x="868" y="835.3613">-vacType</text><text fill="#000000" font-family="sans-serif" font-size="14" lengthAdjust="spacing" textLength="81" x="868" y="852.9707">-SNSNumber</text><text fill="#000000" font-family="sans-serif" font-size="14" lengthAdjust="spacing" textLength="33" x="868" y="870.5801">-user</text><line style="stroke:#181818;stroke-width:0.5;" x1="863" x2="1049" y1="877.6563" y2="877.6563"/><text fill="#000000" font-family="sans-serif" font-size="14" lengthAdjust="spacing" textLength="176" x="868" y="896.1895">+getUserFromSNSNumber()</text><text fill="#000000" font-family="sans-serif" font-size="14" lengthAdjust="spacing" textLength="68" x="868" y="913.7988">+getDate()</text><text fill="#000000" font-family="sans-serif" font-size="14" lengthAdjust="spacing" textLength="69" x="868" y="931.4082">+getTime()</text><text fill="#000000" font-family="sans-serif" font-size="14" lengthAdjust="spacing" textLength="81" x="868" y="949.0176">+getCenter()</text><text fill="#000000" font-family="sans-serif" font-size="14" lengthAdjust="spacing" textLength="94" x="868" y="966.627">+getVacType()</text><text fill="#000000" font-family="sans-serif" font-size="14" lengthAdjust="spacing" textLength="114" x="868" y="984.2363">+getSNSNumber()</text><text fill="#000000" font-family="sans-serif" font-size="14" lengthAdjust="spacing" textLength="67" x="868" y="1001.8457">+getUser()</text></g><!--MD5=[7954a68bbb6497e96665b2b169d01a7e]
class VaccineAdmStore--><g id="elem_VaccineAdmStore"><rect codeLine="103" fill="#F1F1F1" height="65.6094" id="VaccineAdmStore" rx="2.5" ry="2.5" style="stroke:#181818;stroke-width:0.5;" width="191" x="366.5" y="535.5"/><ellipse cx="402.65" cy="551.5" fill="#ADD1B2" rx="11" ry="11" style="stroke:#181818;stroke-width:1.0;"/><path d="M404.65,548 Q404.8531,547.5 405.0875,547.25 Q405.3219,547 405.5875,547 Q406.0563,547 406.3531,547.2813 Q406.65,547.5625 406.65,548.2188 L406.65,549.7813 Q406.65,550.4375 406.3688,550.7188 Q406.0875,551 405.65,551 Q405.2594,551 405.0094,550.8281 Q404.7594,550.6563 404.65,550.2031 Q404.6031,549.8906 404.4313,549.7188 Q404.1188,549.3906 403.5563,549.2031 Q402.9938,549 402.4313,549 Q401.7281,549 401.1344,549.2813 Q400.5563,549.5625 400.1031,550.1875 Q399.65,550.8125 399.65,551.6719 L399.65,552.5938 Q399.65,553.625 400.4938,554.3125 Q401.3375,555 402.8375,555 Q403.7281,555 404.3531,554.7969 Q404.7125,554.6875 405.1188,554.3281 Q405.3844,554.125 405.525,554.0625 Q405.6656,554 405.8375,554 Q406.1656,554 406.4,554.2656 Q406.65,554.5156 406.65,554.875 Q406.65,555.2188 406.3063,555.625 Q405.8063,556.2188 405.0094,556.5469 Q403.9625,557 402.6813,557 Q401.1813,557 399.9781,556.4063 Q399.0094,555.9375 398.3219,554.9219 Q397.65,553.9063 397.65,552.7031 L397.65,551.6094 Q397.65,550.3594 398.2438,549.2656 Q398.8531,548.1719 399.9,547.5938 Q400.9625,547 402.15,547 Q402.8688,547 403.4938,547.25 Q404.1188,547.5 404.65,548 Z " fill="#000000"/><text fill="#000000" font-family="sans-serif" font-size="14" lengthAdjust="spacing" textLength="112" x="421.35" y="557.2285">VaccineAdmStore</text><line style="stroke:#181818;stroke-width:0.5;" x1="367.5" x2="556.5" y1="567.5" y2="567.5"/><line style="stroke:#181818;stroke-width:0.5;" x1="367.5" x2="556.5" y1="575.5" y2="575.5"/><text fill="#000000" font-family="sans-serif" font-size="14" lengthAdjust="spacing" textLength="179" x="372.5" y="594.0332">+showAdministrationDoses()</text></g><!--MD5=[16e898dea44373438d7a6991ca77efa0]
class VaccineStore--><g id="elem_VaccineStore"><rect codeLine="107" fill="#F1F1F1" height="83.2188" id="VaccineStore" rx="2.5" ry="2.5" style="stroke:#181818;stroke-width:0.5;" width="194" x="593" y="527"/><ellipse cx="643.75" cy="543" fill="#ADD1B2" rx="11" ry="11" style="stroke:#181818;stroke-width:1.0;"/><path d="M645.75,539.5 Q645.9531,539 646.1875,538.75 Q646.4219,538.5 646.6875,538.5 Q647.1563,538.5 647.4531,538.7813 Q647.75,539.0625 647.75,539.7188 L647.75,541.2813 Q647.75,541.9375 647.4688,542.2188 Q647.1875,542.5 646.75,542.5 Q646.3594,542.5 646.1094,542.3281 Q645.8594,542.1563 645.75,541.7031 Q645.7031,541.3906 645.5313,541.2188 Q645.2188,540.8906 644.6563,540.7031 Q644.0938,540.5 643.5313,540.5 Q642.8281,540.5 642.2344,540.7813 Q641.6563,541.0625 641.2031,541.6875 Q640.75,542.3125 640.75,543.1719 L640.75,544.0938 Q640.75,545.125 641.5938,545.8125 Q642.4375,546.5 643.9375,546.5 Q644.8281,546.5 645.4531,546.2969 Q645.8125,546.1875 646.2188,545.8281 Q646.4844,545.625 646.625,545.5625 Q646.7656,545.5 646.9375,545.5 Q647.2656,545.5 647.5,545.7656 Q647.75,546.0156 647.75,546.375 Q647.75,546.7188 647.4063,547.125 Q646.9063,547.7188 646.1094,548.0469 Q645.0625,548.5 643.7813,548.5 Q642.2813,548.5 641.0781,547.9063 Q640.1094,547.4375 639.4219,546.4219 Q638.75,545.4063 638.75,544.2031 L638.75,543.1094 Q638.75,541.8594 639.3438,540.7656 Q639.9531,539.6719 641,539.0938 Q642.0625,538.5 643.25,538.5 Q643.9688,538.5 644.5938,538.75 Q645.2188,539 645.75,539.5 Z " fill="#000000"/><text fill="#000000" font-family="sans-serif" font-size="14" lengthAdjust="spacing" textLength="84" x="664.25" y="548.7285">VaccineStore</text><line style="stroke:#181818;stroke-width:0.5;" x1="594" x2="786" y1="559" y2="559"/><line style="stroke:#181818;stroke-width:0.5;" x1="594" x2="786" y1="567" y2="567"/><text fill="#000000" font-family="sans-serif" font-size="14" lengthAdjust="spacing" textLength="107" x="599" y="585.5332">+showVaccines()</text><text fill="#000000" font-family="sans-serif" font-size="14" lengthAdjust="spacing" textLength="182" x="599" y="603.1426">+getVaccineName(int option)</text></g><!--MD5=[aaa7e27c4ec43917c82a021675d2c87a]
class WaitingRoom--><g id="elem_WaitingRoom"><rect codeLine="112" fill="#F1F1F1" height="65.6094" id="WaitingRoom" rx="2.5" ry="2.5" style="stroke:#181818;stroke-width:0.5;" width="282" x="1846" y="535.5"/><ellipse cx="1940.75" cy="551.5" fill="#ADD1B2" rx="11" ry="11" style="stroke:#181818;stroke-width:1.0;"/><path d="M1942.75,548 Q1942.9531,547.5 1943.1875,547.25 Q1943.4219,547 1943.6875,547 Q1944.1563,547 1944.4531,547.2813 Q1944.75,547.5625 1944.75,548.2188 L1944.75,549.7813 Q1944.75,550.4375 1944.4688,550.7188 Q1944.1875,551 1943.75,551 Q1943.3594,551 1943.1094,550.8281 Q1942.8594,550.6563 1942.75,550.2031 Q1942.7031,549.8906 1942.5313,549.7188 Q1942.2188,549.3906 1941.6563,549.2031 Q1941.0938,549 1940.5313,549 Q1939.8281,549 1939.2344,549.2813 Q1938.6563,549.5625 1938.2031,550.1875 Q1937.75,550.8125 1937.75,551.6719 L1937.75,552.5938 Q1937.75,553.625 1938.5938,554.3125 Q1939.4375,555 1940.9375,555 Q1941.8281,555 1942.4531,554.7969 Q1942.8125,554.6875 1943.2188,554.3281 Q1943.4844,554.125 1943.625,554.0625 Q1943.7656,554 1943.9375,554 Q1944.2656,554 1944.5,554.2656 Q1944.75,554.5156 1944.75,554.875 Q1944.75,555.2188 1944.4063,555.625 Q1943.9063,556.2188 1943.1094,556.5469 Q1942.0625,557 1940.7813,557 Q1939.2813,557 1938.0781,556.4063 Q1937.1094,555.9375 1936.4219,554.9219 Q1935.75,553.9063 1935.75,552.7031 L1935.75,551.6094 Q1935.75,550.3594 1936.3438,549.2656 Q1936.9531,548.1719 1938,547.5938 Q1939.0625,547 1940.25,547 Q1940.9688,547 1941.5938,547.25 Q1942.2188,547.5 1942.75,548 Z " fill="#000000"/><text fill="#000000" font-family="sans-serif" font-size="14" lengthAdjust="spacing" textLength="84" x="1961.25" y="557.2285">WaitingRoom</text><line style="stroke:#181818;stroke-width:0.5;" x1="1847" x2="2127" y1="567.5" y2="567.5"/><line style="stroke:#181818;stroke-width:0.5;" x1="1847" x2="2127" y1="575.5" y2="575.5"/><text fill="#000000" font-family="sans-serif" font-size="14" lengthAdjust="spacing" textLength="270" x="1852" y="594.0332">+getDateOfArrival(int centerID, int number)</text></g><!--MD5=[ff677211315ff54d4e2d45ba330c57c7]
class VaccinationLogStore--><g id="elem_VaccinationLogStore"><rect codeLine="116" fill="#F1F1F1" height="83.2188" id="VaccinationLogStore" rx="2.5" ry="2.5" style="stroke:#181818;stroke-width:0.5;" width="325" x="1414.5" y="527"/><ellipse cx="1507.25" cy="543" fill="#ADD1B2" rx="11" ry="11" style="stroke:#181818;stroke-width:1.0;"/><path d="M1509.25,539.5 Q1509.4531,539 1509.6875,538.75 Q1509.9219,538.5 1510.1875,538.5 Q1510.6563,538.5 1510.9531,538.7813 Q1511.25,539.0625 1511.25,539.7188 L1511.25,541.2813 Q1511.25,541.9375 1510.9688,542.2188 Q1510.6875,542.5 1510.25,542.5 Q1509.8594,542.5 1509.6094,542.3281 Q1509.3594,542.1563 1509.25,541.7031 Q1509.2031,541.3906 1509.0313,541.2188 Q1508.7188,540.8906 1508.1563,540.7031 Q1507.5938,540.5 1507.0313,540.5 Q1506.3281,540.5 1505.7344,540.7813 Q1505.1563,541.0625 1504.7031,541.6875 Q1504.25,542.3125 1504.25,543.1719 L1504.25,544.0938 Q1504.25,545.125 1505.0938,545.8125 Q1505.9375,546.5 1507.4375,546.5 Q1508.3281,546.5 1508.9531,546.2969 Q1509.3125,546.1875 1509.7188,545.8281 Q1509.9844,545.625 1510.125,545.5625 Q1510.2656,545.5 1510.4375,545.5 Q1510.7656,545.5 1511,545.7656 Q1511.25,546.0156 1511.25,546.375 Q1511.25,546.7188 1510.9063,547.125 Q1510.4063,547.7188 1509.6094,548.0469 Q1508.5625,548.5 1507.2813,548.5 Q1505.7813,548.5 1504.5781,547.9063 Q1503.6094,547.4375 1502.9219,546.4219 Q1502.25,545.4063 1502.25,544.2031 L1502.25,543.1094 Q1502.25,541.8594 1502.8438,540.7656 Q1503.4531,539.6719 1504.5,539.0938 Q1505.5625,538.5 1506.75,538.5 Q1507.4688,538.5 1508.0938,538.75 Q1508.7188,539 1509.25,539.5 Z " fill="#000000"/><text fill="#000000" font-family="sans-serif" font-size="14" lengthAdjust="spacing" textLength="131" x="1527.75" y="548.7285">VaccinationLogStore</text><line style="stroke:#181818;stroke-width:0.5;" x1="1415.5" x2="1738.5" y1="559" y2="559"/><line style="stroke:#181818;stroke-width:0.5;" x1="1415.5" x2="1738.5" y1="567" y2="567"/><text fill="#000000" font-family="sans-serif" font-size="14" lengthAdjust="spacing" textLength="313" x="1420.5" y="585.5332">+createRecord(VaccinationDTO vacConfirmation)</text><text fill="#000000" font-family="sans-serif" font-size="14" lengthAdjust="spacing" textLength="313" x="1420.5" y="603.1426">+saveRecord(VacAdministration vacConfirmation)</text></g><!--MD5=[8ea030988e0993d4bdfdfcfff4938282]
class UserArrival--><g id="elem_UserArrival"><rect codeLine="121" fill="#F1F1F1" height="153.6563" id="UserArrival" rx="2.5" ry="2.5" style="stroke:#181818;stroke-width:0.5;" width="152" x="1512" y="1644"/><ellipse cx="1549.95" cy="1660" fill="#ADD1B2" rx="11" ry="11" style="stroke:#181818;stroke-width:1.0;"/><path d="M1551.95,1656.5 Q1552.1531,1656 1552.3875,1655.75 Q1552.6219,1655.5 1552.8875,1655.5 Q1553.3563,1655.5 1553.6531,1655.7813 Q1553.95,1656.0625 1553.95,1656.7188 L1553.95,1658.2813 Q1553.95,1658.9375 1553.6688,1659.2188 Q1553.3875,1659.5 1552.95,1659.5 Q1552.5594,1659.5 1552.3094,1659.3281 Q1552.0594,1659.1563 1551.95,1658.7031 Q1551.9031,1658.3906 1551.7313,1658.2188 Q1551.4188,1657.8906 1550.8563,1657.7031 Q1550.2938,1657.5 1549.7313,1657.5 Q1549.0281,1657.5 1548.4344,1657.7813 Q1547.8563,1658.0625 1547.4031,1658.6875 Q1546.95,1659.3125 1546.95,1660.1719 L1546.95,1661.0938 Q1546.95,1662.125 1547.7938,1662.8125 Q1548.6375,1663.5 1550.1375,1663.5 Q1551.0281,1663.5 1551.6531,1663.2969 Q1552.0125,1663.1875 1552.4188,1662.8281 Q1552.6844,1662.625 1552.825,1662.5625 Q1552.9656,1662.5 1553.1375,1662.5 Q1553.4656,1662.5 1553.7,1662.7656 Q1553.95,1663.0156 1553.95,1663.375 Q1553.95,1663.7188 1553.6063,1664.125 Q1553.1063,1664.7188 1552.3094,1665.0469 Q1551.2625,1665.5 1549.9813,1665.5 Q1548.4813,1665.5 1547.2781,1664.9063 Q1546.3094,1664.4375 1545.6219,1663.4219 Q1544.95,1662.4063 1544.95,1661.2031 L1544.95,1660.1094 Q1544.95,1658.8594 1545.5438,1657.7656 Q1546.1531,1656.6719 1547.2,1656.0938 Q1548.2625,1655.5 1549.45,1655.5 Q1550.1688,1655.5 1550.7938,1655.75 Q1551.4188,1656 1551.95,1656.5 Z " fill="#000000"/><text fill="#000000" font-family="sans-serif" font-size="14" lengthAdjust="spacing" textLength="69" x="1569.05" y="1665.7285">UserArrival</text><line style="stroke:#181818;stroke-width:0.5;" x1="1513" x2="1663" y1="1676" y2="1676"/><text fill="#000000" font-family="sans-serif" font-size="14" lengthAdjust="spacing" textLength="58" x="1518" y="1694.5332">-centerID</text><text fill="#000000" font-family="sans-serif" font-size="14" lengthAdjust="spacing" textLength="88" x="1518" y="1712.1426">-dateOfArrival</text><text fill="#000000" font-family="sans-serif" font-size="14" lengthAdjust="spacing" textLength="106" x="1518" y="1729.752">-userNhsNumber</text><line style="stroke:#181818;stroke-width:0.5;" x1="1513" x2="1663" y1="1736.8281" y2="1736.8281"/><text fill="#000000" font-family="sans-serif" font-size="14" lengthAdjust="spacing" textLength="94" x="1518" y="1755.3613">+getCenterID()</text><text fill="#000000" font-family="sans-serif" font-size="14" lengthAdjust="spacing" textLength="68" x="1518" y="1772.9707">+getDate()</text><text fill="#000000" font-family="sans-serif" font-size="14" lengthAdjust="spacing" textLength="140" x="1518" y="1790.5801">+getUserNhsNumber()</text></g><!--MD5=[e6aecee2b0dafc754649e6b81ba6acb5]
class VacAdministration--><g id="elem_VacAdministration"><rect codeLine="131" fill="#F1F1F1" height="364.9688" id="VacAdministration" rx="2.5" ry="2.5" style="stroke:#181818;stroke-width:0.5;" width="200" x="1540" y="688"/><ellipse cx="1579.75" cy="704" fill="#ADD1B2" rx="11" ry="11" style="stroke:#181818;stroke-width:1.0;"/><path d="M1581.75,700.5 Q1581.9531,700 1582.1875,699.75 Q1582.4219,699.5 1582.6875,699.5 Q1583.1563,699.5 1583.4531,699.7813 Q1583.75,700.0625 1583.75,700.7188 L1583.75,702.2813 Q1583.75,702.9375 1583.4688,703.2188 Q1583.1875,703.5 1582.75,703.5 Q1582.3594,703.5 1582.1094,703.3281 Q1581.8594,703.1563 1581.75,702.7031 Q1581.7031,702.3906 1581.5313,702.2188 Q1581.2188,701.8906 1580.6563,701.7031 Q1580.0938,701.5 1579.5313,701.5 Q1578.8281,701.5 1578.2344,701.7813 Q1577.6563,702.0625 1577.2031,702.6875 Q1576.75,703.3125 1576.75,704.1719 L1576.75,705.0938 Q1576.75,706.125 1577.5938,706.8125 Q1578.4375,707.5 1579.9375,707.5 Q1580.8281,707.5 1581.4531,707.2969 Q1581.8125,707.1875 1582.2188,706.8281 Q1582.4844,706.625 1582.625,706.5625 Q1582.7656,706.5 1582.9375,706.5 Q1583.2656,706.5 1583.5,706.7656 Q1583.75,707.0156 1583.75,707.375 Q1583.75,707.7188 1583.4063,708.125 Q1582.9063,708.7188 1582.1094,709.0469 Q1581.0625,709.5 1579.7813,709.5 Q1578.2813,709.5 1577.0781,708.9063 Q1576.1094,708.4375 1575.4219,707.4219 Q1574.75,706.4063 1574.75,705.2031 L1574.75,704.1094 Q1574.75,702.8594 1575.3438,701.7656 Q1575.9531,700.6719 1577,700.0938 Q1578.0625,699.5 1579.25,699.5 Q1579.9688,699.5 1580.5938,699.75 Q1581.2188,700 1581.75,700.5 Z " fill="#000000"/><text fill="#000000" font-family="sans-serif" font-size="14" lengthAdjust="spacing" textLength="113" x="1599.25" y="709.7285">VacAdministration</text><line style="stroke:#181818;stroke-width:0.5;" x1="1541" x2="1739" y1="720" y2="720"/><text fill="#000000" font-family="sans-serif" font-size="14" lengthAdjust="spacing" textLength="76" x="1546" y="738.5332">-snsNumber</text><text fill="#000000" font-family="sans-serif" font-size="14" lengthAdjust="spacing" textLength="89" x="1546" y="756.1426">-vaccineName</text><text fill="#000000" font-family="sans-serif" font-size="14" lengthAdjust="spacing" textLength="86" x="1546" y="773.752">-vaccineDose</text><text fill="#000000" font-family="sans-serif" font-size="14" lengthAdjust="spacing" textLength="69" x="1546" y="791.3613">-lotNumber</text><text fill="#000000" font-family="sans-serif" font-size="14" lengthAdjust="spacing" textLength="131" x="1546" y="808.9707">-scheduledDateTime</text><text fill="#000000" font-family="sans-serif" font-size="14" lengthAdjust="spacing" textLength="105" x="1546" y="826.5801">-arrivalDateTime</text><text fill="#000000" font-family="sans-serif" font-size="14" lengthAdjust="spacing" textLength="154" x="1546" y="844.1895">-administrationDateTime</text><text fill="#000000" font-family="sans-serif" font-size="14" lengthAdjust="spacing" textLength="111" x="1546" y="861.7988">-leavingDateTime</text><text fill="#000000" font-family="sans-serif" font-size="14" lengthAdjust="spacing" textLength="58" x="1546" y="879.4082">-centerID</text><line style="stroke:#181818;stroke-width:0.5;" x1="1541" x2="1739" y1="886.4844" y2="886.4844"/><text fill="#000000" font-family="sans-serif" font-size="14" lengthAdjust="spacing" textLength="111" x="1546" y="905.0176">+getSnsNumber()</text><text fill="#000000" font-family="sans-serif" font-size="14" lengthAdjust="spacing" textLength="124" x="1546" y="922.627">+getVaccineName()</text><text fill="#000000" font-family="sans-serif" font-size="14" lengthAdjust="spacing" textLength="121" x="1546" y="940.2363">+getVaccineDose()</text><text fill="#000000" font-family="sans-serif" font-size="14" lengthAdjust="spacing" textLength="107" x="1546" y="957.8457">+getLotNumber()</text><text fill="#000000" font-family="sans-serif" font-size="14" lengthAdjust="spacing" textLength="166" x="1546" y="975.4551">+getScheduledDateTime()</text><text fill="#000000" font-family="sans-serif" font-size="14" lengthAdjust="spacing" textLength="139" x="1546" y="993.0645">+getArrivalDateTime()</text><text fill="#000000" font-family="sans-serif" font-size="14" lengthAdjust="spacing" textLength="188" x="1546" y="1010.6738">+getAdministrationDateTime()</text><text fill="#000000" font-family="sans-serif" font-size="14" lengthAdjust="spacing" textLength="149" x="1546" y="1028.2832">+getLeavingDateTime()</text><text fill="#000000" font-family="sans-serif" font-size="14" lengthAdjust="spacing" textLength="94" x="1546" y="1045.8926">+getCenterID()</text></g><!--MD5=[ffb14f1cd2520430b8bbd92cf5bf1793]
class VaccinationDTO--><g id="elem_VaccinationDTO"><rect codeLine="154" fill="#F1F1F1" height="364.9688" id="VaccinationDTO" rx="2.5" ry="2.5" style="stroke:#181818;stroke-width:0.5;" width="200" x="1540" y="1166"/><ellipse cx="1584.25" cy="1182" fill="#ADD1B2" rx="11" ry="11" style="stroke:#181818;stroke-width:1.0;"/><path d="M1586.25,1178.5 Q1586.4531,1178 1586.6875,1177.75 Q1586.9219,1177.5 1587.1875,1177.5 Q1587.6563,1177.5 1587.9531,1177.7813 Q1588.25,1178.0625 1588.25,1178.7188 L1588.25,1180.2813 Q1588.25,1180.9375 1587.9688,1181.2188 Q1587.6875,1181.5 1587.25,1181.5 Q1586.8594,1181.5 1586.6094,1181.3281 Q1586.3594,1181.1563 1586.25,1180.7031 Q1586.2031,1180.3906 1586.0313,1180.2188 Q1585.7188,1179.8906 1585.1563,1179.7031 Q1584.5938,1179.5 1584.0313,1179.5 Q1583.3281,1179.5 1582.7344,1179.7813 Q1582.1563,1180.0625 1581.7031,1180.6875 Q1581.25,1181.3125 1581.25,1182.1719 L1581.25,1183.0938 Q1581.25,1184.125 1582.0938,1184.8125 Q1582.9375,1185.5 1584.4375,1185.5 Q1585.3281,1185.5 1585.9531,1185.2969 Q1586.3125,1185.1875 1586.7188,1184.8281 Q1586.9844,1184.625 1587.125,1184.5625 Q1587.2656,1184.5 1587.4375,1184.5 Q1587.7656,1184.5 1588,1184.7656 Q1588.25,1185.0156 1588.25,1185.375 Q1588.25,1185.7188 1587.9063,1186.125 Q1587.4063,1186.7188 1586.6094,1187.0469 Q1585.5625,1187.5 1584.2813,1187.5 Q1582.7813,1187.5 1581.5781,1186.9063 Q1580.6094,1186.4375 1579.9219,1185.4219 Q1579.25,1184.4063 1579.25,1183.2031 L1579.25,1182.1094 Q1579.25,1180.8594 1579.8438,1179.7656 Q1580.4531,1178.6719 1581.5,1178.0938 Q1582.5625,1177.5 1583.75,1177.5 Q1584.4688,1177.5 1585.0938,1177.75 Q1585.7188,1178 1586.25,1178.5 Z " fill="#000000"/><text fill="#000000" font-family="sans-serif" font-size="14" lengthAdjust="spacing" textLength="103" x="1604.75" y="1187.7285">VaccinationDTO</text><line style="stroke:#181818;stroke-width:0.5;" x1="1541" x2="1739" y1="1198" y2="1198"/><text fill="#000000" font-family="sans-serif" font-size="14" lengthAdjust="spacing" textLength="76" x="1546" y="1216.5332">-snsNumber</text><text fill="#000000" font-family="sans-serif" font-size="14" lengthAdjust="spacing" textLength="89" x="1546" y="1234.1426">-vaccineName</text><text fill="#000000" font-family="sans-serif" font-size="14" lengthAdjust="spacing" textLength="86" x="1546" y="1251.752">-vaccineDose</text><text fill="#000000" font-family="sans-serif" font-size="14" lengthAdjust="spacing" textLength="69" x="1546" y="1269.3613">-lotNumber</text><text fill="#000000" font-family="sans-serif" font-size="14" lengthAdjust="spacing" textLength="131" x="1546" y="1286.9707">-scheduledDateTime</text><text fill="#000000" font-family="sans-serif" font-size="14" lengthAdjust="spacing" textLength="105" x="1546" y="1304.5801">-arrivalDateTime</text><text fill="#000000" font-family="sans-serif" font-size="14" lengthAdjust="spacing" textLength="154" x="1546" y="1322.1895">-administrationDateTime</text><text fill="#000000" font-family="sans-serif" font-size="14" lengthAdjust="spacing" textLength="111" x="1546" y="1339.7988">-leavingDateTime</text><text fill="#000000" font-family="sans-serif" font-size="14" lengthAdjust="spacing" textLength="58" x="1546" y="1357.4082">-centerID</text><line style="stroke:#181818;stroke-width:0.5;" x1="1541" x2="1739" y1="1364.4844" y2="1364.4844"/><text fill="#000000" font-family="sans-serif" font-size="14" lengthAdjust="spacing" textLength="111" x="1546" y="1383.0176">+getSnsNumber()</text><text fill="#000000" font-family="sans-serif" font-size="14" lengthAdjust="spacing" textLength="124" x="1546" y="1400.627">+getVaccineName()</text><text fill="#000000" font-family="sans-serif" font-size="14" lengthAdjust="spacing" textLength="121" x="1546" y="1418.2363">+getVaccineDose()</text><text fill="#000000" font-family="sans-serif" font-size="14" lengthAdjust="spacing" textLength="107" x="1546" y="1435.8457">+getLotNumber()</text><text fill="#000000" font-family="sans-serif" font-size="14" lengthAdjust="spacing" textLength="166" x="1546" y="1453.4551">+getScheduledDateTime()</text><text fill="#000000" font-family="sans-serif" font-size="14" lengthAdjust="spacing" textLength="139" x="1546" y="1471.0645">+getArrivalDateTime()</text><text fill="#000000" font-family="sans-serif" font-size="14" lengthAdjust="spacing" textLength="188" x="1546" y="1488.6738">+getAdministrationDateTime()</text><text fill="#000000" font-family="sans-serif" font-size="14" lengthAdjust="spacing" textLength="149" x="1546" y="1506.2832">+getLeavingDateTime()</text><text fill="#000000" font-family="sans-serif" font-size="14" lengthAdjust="spacing" textLength="94" x="1546" y="1523.8926">+getCenterID()</text></g><!--MD5=[a2530d24bafc45bb45314d96545aa194]
class AdministrationProcess--><g id="elem_AdministrationProcess"><rect codeLine="177" fill="#F1F1F1" height="118.4375" id="AdministrationProcess" rx="2.5" ry="2.5" style="stroke:#181818;stroke-width:0.5;" width="172" x="301" y="811.5"/><ellipse cx="316" cy="827.5" fill="#ADD1B2" rx="11" ry="11" style="stroke:#181818;stroke-width:1.0;"/><path d="M318,824 Q318.2031,823.5 318.4375,823.25 Q318.6719,823 318.9375,823 Q319.4063,823 319.7031,823.2813 Q320,823.5625 320,824.2188 L320,825.7813 Q320,826.4375 319.7188,826.7188 Q319.4375,827 319,827 Q318.6094,827 318.3594,826.8281 Q318.1094,826.6563 318,826.2031 Q317.9531,825.8906 317.7813,825.7188 Q317.4688,825.3906 316.9063,825.2031 Q316.3438,825 315.7813,825 Q315.0781,825 314.4844,825.2813 Q313.9063,825.5625 313.4531,826.1875 Q313,826.8125 313,827.6719 L313,828.5938 Q313,829.625 313.8438,830.3125 Q314.6875,831 316.1875,831 Q317.0781,831 317.7031,830.7969 Q318.0625,830.6875 318.4688,830.3281 Q318.7344,830.125 318.875,830.0625 Q319.0156,830 319.1875,830 Q319.5156,830 319.75,830.2656 Q320,830.5156 320,830.875 Q320,831.2188 319.6563,831.625 Q319.1563,832.2188 318.3594,832.5469 Q317.3125,833 316.0313,833 Q314.5313,833 313.3281,832.4063 Q312.3594,831.9375 311.6719,830.9219 Q311,829.9063 311,828.7031 L311,827.6094 Q311,826.3594 311.5938,825.2656 Q312.2031,824.1719 313.25,823.5938 Q314.3125,823 315.5,823 Q316.2188,823 316.8438,823.25 Q317.4688,823.5 318,824 Z " fill="#000000"/><text fill="#000000" font-family="sans-serif" font-size="14" lengthAdjust="spacing" textLength="140" x="330" y="833.2285">AdministrationProcess</text><line style="stroke:#181818;stroke-width:0.5;" x1="302" x2="472" y1="843.5" y2="843.5"/><text fill="#000000" font-family="sans-serif" font-size="14" lengthAdjust="spacing" textLength="69" x="307" y="862.0332">-ageGroup</text><text fill="#000000" font-family="sans-serif" font-size="14" lengthAdjust="spacing" textLength="52" x="307" y="879.6426">-dosage</text><text fill="#000000" font-family="sans-serif" font-size="14" lengthAdjust="spacing" textLength="108" x="307" y="897.252">-numberOfDoses</text><text fill="#000000" font-family="sans-serif" font-size="14" lengthAdjust="spacing" textLength="77" x="307" y="914.8613">-timeInterval</text><line style="stroke:#181818;stroke-width:0.5;" x1="302" x2="472" y1="921.9375" y2="921.9375"/></g><!--MD5=[02e4b9b7573f1156f41e60aa5b4e25a4]
class Company--><g id="elem_Company"><rect codeLine="185" fill="#F1F1F1" height="153.6563" id="Company" rx="2.5" ry="2.5" style="stroke:#181818;stroke-width:0.5;" width="185" x="1046.5" y="295"/><ellipse cx="1104.75" cy="311" fill="#ADD1B2" rx="11" ry="11" style="stroke:#181818;stroke-width:1.0;"/><path d="M1106.75,307.5 Q1106.9531,307 1107.1875,306.75 Q1107.4219,306.5 1107.6875,306.5 Q1108.1563,306.5 1108.4531,306.7813 Q1108.75,307.0625 1108.75,307.7188 L1108.75,309.2813 Q1108.75,309.9375 1108.4688,310.2188 Q1108.1875,310.5 1107.75,310.5 Q1107.3594,310.5 1107.1094,310.3281 Q1106.8594,310.1563 1106.75,309.7031 Q1106.7031,309.3906 1106.5313,309.2188 Q1106.2188,308.8906 1105.6563,308.7031 Q1105.0938,308.5 1104.5313,308.5 Q1103.8281,308.5 1103.2344,308.7813 Q1102.6563,309.0625 1102.2031,309.6875 Q1101.75,310.3125 1101.75,311.1719 L1101.75,312.0938 Q1101.75,313.125 1102.5938,313.8125 Q1103.4375,314.5 1104.9375,314.5 Q1105.8281,314.5 1106.4531,314.2969 Q1106.8125,314.1875 1107.2188,313.8281 Q1107.4844,313.625 1107.625,313.5625 Q1107.7656,313.5 1107.9375,313.5 Q1108.2656,313.5 1108.5,313.7656 Q1108.75,314.0156 1108.75,314.375 Q1108.75,314.7188 1108.4063,315.125 Q1107.9063,315.7188 1107.1094,316.0469 Q1106.0625,316.5 1104.7813,316.5 Q1103.2813,316.5 1102.0781,315.9063 Q1101.1094,315.4375 1100.4219,314.4219 Q1099.75,313.4063 1099.75,312.2031 L1099.75,311.1094 Q1099.75,309.8594 1100.3438,308.7656 Q1100.9531,307.6719 1102,307.0938 Q1103.0625,306.5 1104.25,306.5 Q1104.9688,306.5 1105.5938,306.75 Q1106.2188,307 1106.75,307.5 Z " fill="#000000"/><text fill="#000000" font-family="sans-serif" font-size="14" lengthAdjust="spacing" textLength="60" x="1125.25" y="316.7285">Company</text><line style="stroke:#181818;stroke-width:0.5;" x1="1047.5" x2="1230.5" y1="327" y2="327"/><line style="stroke:#181818;stroke-width:0.5;" x1="1047.5" x2="1230.5" y1="335" y2="335"/><text fill="#000000" font-family="sans-serif" font-size="14" lengthAdjust="spacing" textLength="114" x="1052.5" y="353.5332">getVaccineStore()</text><text fill="#000000" font-family="sans-serif" font-size="14" lengthAdjust="spacing" textLength="161" x="1052.5" y="371.1426">getVaccinationLogStore()</text><text fill="#000000" font-family="sans-serif" font-size="14" lengthAdjust="spacing" textLength="142" x="1052.5" y="388.752">getVaccineAdmStore()</text><text fill="#000000" font-family="sans-serif" font-size="14" lengthAdjust="spacing" textLength="120" x="1052.5" y="406.3613">getNHSUserStore()</text><text fill="#000000" font-family="sans-serif" font-size="14" lengthAdjust="spacing" textLength="114" x="1052.5" y="423.9707">getWaitingRoom()</text><text fill="#000000" font-family="sans-serif" font-size="14" lengthAdjust="spacing" textLength="173" x="1052.5" y="441.5801">getVaccineScheduleStore()</text></g><!--MD5=[5e97d05a9cfda6ddad88bdb093be2fc3]
class VacType--><g id="elem_VacType"><rect codeLine="194" fill="#F1F1F1" height="65.6094" id="VacType" rx="2.5" ry="2.5" style="stroke:#181818;stroke-width:0.5;" width="88" x="243" y="535.5"/><ellipse cx="258" cy="551.5" fill="#ADD1B2" rx="11" ry="11" style="stroke:#181818;stroke-width:1.0;"/><path d="M260,548 Q260.2031,547.5 260.4375,547.25 Q260.6719,547 260.9375,547 Q261.4063,547 261.7031,547.2813 Q262,547.5625 262,548.2188 L262,549.7813 Q262,550.4375 261.7188,550.7188 Q261.4375,551 261,551 Q260.6094,551 260.3594,550.8281 Q260.1094,550.6563 260,550.2031 Q259.9531,549.8906 259.7813,549.7188 Q259.4688,549.3906 258.9063,549.2031 Q258.3438,549 257.7813,549 Q257.0781,549 256.4844,549.2813 Q255.9063,549.5625 255.4531,550.1875 Q255,550.8125 255,551.6719 L255,552.5938 Q255,553.625 255.8438,554.3125 Q256.6875,555 258.1875,555 Q259.0781,555 259.7031,554.7969 Q260.0625,554.6875 260.4688,554.3281 Q260.7344,554.125 260.875,554.0625 Q261.0156,554 261.1875,554 Q261.5156,554 261.75,554.2656 Q262,554.5156 262,554.875 Q262,555.2188 261.6563,555.625 Q261.1563,556.2188 260.3594,556.5469 Q259.3125,557 258.0313,557 Q256.5313,557 255.3281,556.4063 Q254.3594,555.9375 253.6719,554.9219 Q253,553.9063 253,552.7031 L253,551.6094 Q253,550.3594 253.5938,549.2656 Q254.2031,548.1719 255.25,547.5938 Q256.3125,547 257.5,547 Q258.2188,547 258.8438,547.25 Q259.4688,547.5 260,548 Z " fill="#000000"/><text fill="#000000" font-family="sans-serif" font-size="14" lengthAdjust="spacing" textLength="56" x="272" y="557.2285">VacType</text><line style="stroke:#181818;stroke-width:0.5;" x1="244" x2="330" y1="567.5" y2="567.5"/><text fill="#000000" font-family="sans-serif" font-size="14" lengthAdjust="spacing" textLength="32" x="249" y="586.0332">-type</text><line style="stroke:#181818;stroke-width:0.5;" x1="244" x2="330" y1="593.1094" y2="593.1094"/></g><!--MD5=[57e7c1682e37faba47ef8867440d1bf0]
link VacStatisticsUI to VacStatisticsController--><g id="link_VacStatisticsUI_VacStatisticsController"><path codeLine="199" d="M1248,55.13 C1248,70.35 1248,91.05 1248,110.92 " fill="none" id="VacStatisticsUI-to-VacStatisticsController" style="stroke:#181818;stroke-width:1.0;stroke-dasharray:7.0,7.0;"/><polygon fill="#181818" points="1248,115.94,1252,106.94,1248,110.94,1244,106.94,1248,115.94" style="stroke:#181818;stroke-width:1.0;"/></g><!--MD5=[d7e33e42633d7098d8e3e0d1261261a6]
link Company to VaccineScheduleStore--><g id="link_Company_VaccineScheduleStore"><path codeLine="201" d="M1087.65,449.12 C1075.15,465.6 1061.25,482.45 1047,497 C1034.83,509.42 1020.43,521.54 1006.71,532.13 " fill="none" id="Company-to-VaccineScheduleStore" style="stroke:#181818;stroke-width:1.0;"/><polygon fill="#181818" points="1002.48,535.37,1012.0569,533.0714,1006.449,532.329,1007.1913,526.7211,1002.48,535.37" style="stroke:#181818;stroke-width:1.0;"/><text fill="#000000" font-family="sans-serif" font-size="13" lengthAdjust="spacing" textLength="30" x="1062" y="493.4951">owns</text><text fill="#000000" font-family="sans-serif" font-size="13" lengthAdjust="spacing" textLength="7" x="1075.7649" y="470.2271">1</text><text fill="#000000" font-family="sans-serif" font-size="13" lengthAdjust="spacing" textLength="7" x="1004.3446" y="524.4586">1</text></g><!--MD5=[8092c826980164189f7db552676775e0]
link Company to NHSUserStore--><g id="link_Company_NHSUserStore"><path codeLine="202" d="M1139.02,449.01 C1141.63,465.68 1146.47,482.62 1155,497 C1160.85,506.87 1168.68,515.76 1177.37,523.63 " fill="none" id="Company-to-NHSUserStore" style="stroke:#181818;stroke-width:1.0;"/><polygon fill="#181818" points="1181.14,526.94,1177.0176,517.9954,1177.3833,523.6404,1171.7383,524.0061,1181.14,526.94" style="stroke:#181818;stroke-width:1.0;"/><text fill="#000000" font-family="sans-serif" font-size="13" lengthAdjust="spacing" textLength="30" x="1156" y="493.4951">owns</text><text fill="#000000" font-family="sans-serif" font-size="13" lengthAdjust="spacing" textLength="7" x="1131.7101" y="470.1073">1</text><text fill="#000000" font-family="sans-serif" font-size="13" lengthAdjust="spacing" textLength="7" x="1161.8241" y="516.2377">1</text></g><!--MD5=[f2e0045a3c67c0696cf082af1b4c8493]
link Company to VaccineStore--><g id="link_Company_VaccineStore"><path codeLine="203" d="M1046.47,426.75 C1003.7,450.25 951.69,476.96 903,497 C860.88,514.34 848.27,512.76 805,527 C800.72,528.41 796.35,529.86 791.95,531.35 " fill="none" id="Company-to-VaccineStore" style="stroke:#181818;stroke-width:1.0;"/><polygon fill="#181818" points="787.15,532.97,796.9573,533.8743,791.8862,531.3674,794.3931,526.2964,787.15,532.97" style="stroke:#181818;stroke-width:1.0;"/><text fill="#000000" font-family="sans-serif" font-size="13" lengthAdjust="spacing" textLength="30" x="943" y="493.4951">owns</text><text fill="#000000" font-family="sans-serif" font-size="13" lengthAdjust="spacing" textLength="7" x="1031.5175" y="428.1454">1</text><text fill="#000000" font-family="sans-serif" font-size="13" lengthAdjust="spacing" textLength="7" x="794.856" y="527.1374">1</text></g><!--MD5=[8ad482539ea20abfa48219b16af2c2dc]
link Company to WaitingRoom--><g id="link_Company_WaitingRoom"><path codeLine="204" d="M1231.77,394.28 C1379.09,428.07 1667.67,494.26 1842.33,534.32 " fill="none" id="Company-to-WaitingRoom" style="stroke:#181818;stroke-width:1.0;"/><polygon fill="#181818" points="1847.21,535.44,1839.3285,529.5339,1842.3359,534.3251,1837.5447,537.3325,1847.21,535.44" style="stroke:#181818;stroke-width:1.0;"/><text fill="#000000" font-family="sans-serif" font-size="13" lengthAdjust="spacing" textLength="30" x="1664" y="493.4951">owns</text><text fill="#000000" font-family="sans-serif" font-size="13" lengthAdjust="spacing" textLength="7" x="1239.4415" y="392.9408">1</text><text fill="#000000" font-family="sans-serif" font-size="13" lengthAdjust="spacing" textLength="7" x="1831.0305" y="530.3285">1</text></g><!--MD5=[90f8c9fc547b9ef16e9d87009fc07b1c]
link Company to VaccinationLogStore--><g id="link_Company_VaccinationLogStore"><path codeLine="205" d="M1231.75,416.52 C1283.68,440.65 1349.73,470.96 1409,497 C1429.87,506.17 1452.29,515.76 1473.75,524.81 " fill="none" id="Company-to-VaccinationLogStore" style="stroke:#181818;stroke-width:1.0;"/><polygon fill="#181818" points="1478.6,526.85,1471.8465,519.6813,1473.9889,524.9168,1468.7534,527.0591,1478.6,526.85" style="stroke:#181818;stroke-width:1.0;"/><text fill="#000000" font-family="sans-serif" font-size="13" lengthAdjust="spacing" textLength="30" x="1410" y="493.4951">owns</text><text fill="#000000" font-family="sans-serif" font-size="13" lengthAdjust="spacing" textLength="7" x="1239.4199" y="416.953">1</text><text fill="#000000" font-family="sans-serif" font-size="13" lengthAdjust="spacing" textLength="7" x="1454.7228" y="516.1328">1</text></g><!--MD5=[031af07269ab4de16cd00b95bf911dd2]
link Company to VaccineAdmStore--><g id="link_Company_VaccineAdmStore"><path codeLine="206" d="M1046.23,396.12 C934.13,424.57 740.12,475.48 576,527 C569.16,529.15 562.12,531.44 555.05,533.8 " fill="none" id="Company-to-VaccineAdmStore" style="stroke:#181818;stroke-width:1.0;"/><polygon fill="#181818" points="550.16,535.45,559.9639,536.3898,554.902,533.8646,557.4272,528.8026,550.16,535.45" style="stroke:#181818;stroke-width:1.0;"/><text fill="#000000" font-family="sans-serif" font-size="13" lengthAdjust="spacing" textLength="30" x="730" y="493.4951">owns</text><text fill="#000000" font-family="sans-serif" font-size="13" lengthAdjust="spacing" textLength="7" x="1031.5585" y="394.9274">1</text><text fill="#000000" font-family="sans-serif" font-size="13" lengthAdjust="spacing" textLength="7" x="560.6211" y="524.5551">1</text></g><!--MD5=[1d18162f8ed280e2c85e4aebff0b3fcc]
link VaccineScheduleStore to VaccineSchedule--><g id="link_VaccineScheduleStore_VaccineSchedule"><path codeLine="210" d="M956,601.61 C956,632.01 956,679.88 956,726.8 " fill="none" id="VaccineScheduleStore-to-VaccineSchedule" style="stroke:#181818;stroke-width:1.0;"/><polygon fill="#181818" points="956,731.92,960,722.92,956,726.92,952,722.92,956,731.92" style="stroke:#181818;stroke-width:1.0;"/><text fill="#000000" font-family="sans-serif" font-size="13" lengthAdjust="spacing" textLength="37" x="957" y="654.4951">knows</text><text fill="#000000" font-family="sans-serif" font-size="13" lengthAdjust="spacing" textLength="7" x="948.3766" y="622.4939">1</text><text fill="#000000" font-family="sans-serif" font-size="13" lengthAdjust="spacing" textLength="5" x="950.8555" y="720.9534">*</text></g><!--MD5=[2ce944a0e3b60709f08d8b525bd8af16]
link NHSUserStore to NHSUser--><g id="link_NHSUserStore_NHSUser"><path codeLine="212" d="M1252,610.23 C1252,714.31 1252,994.7 1252,1178.15 " fill="none" id="NHSUserStore-to-NHSUser" style="stroke:#181818;stroke-width:1.0;"/><polygon fill="#181818" points="1252,1183.28,1256,1174.28,1252,1178.28,1248,1174.28,1252,1183.28" style="stroke:#181818;stroke-width:1.0;"/><text fill="#000000" font-family="sans-serif" font-size="13" lengthAdjust="spacing" textLength="37" x="1253" y="875.9951">knows</text><text fill="#000000" font-family="sans-serif" font-size="13" lengthAdjust="spacing" textLength="7" x="1244.4422" y="631.6614">1</text><text fill="#000000" font-family="sans-serif" font-size="13" lengthAdjust="spacing" textLength="5" x="1246.8789" y="1172.3993">*</text></g><!--MD5=[89791a9cd8c9c78fd39f4b892a053799]
link VaccineStore to Vaccine--><g id="link_VaccineStore_Vaccine"><path codeLine="214" d="M675.73,610.27 C655.26,668.74 617.87,775.58 598.08,832.12 " fill="none" id="VaccineStore-to-Vaccine" style="stroke:#181818;stroke-width:1.0;"/><polygon fill="#181818" points="596.34,837.1,603.0983,829.9358,597.9981,832.3829,595.551,827.2828,596.34,837.1" style="stroke:#181818;stroke-width:1.0;"/><text fill="#000000" font-family="sans-serif" font-size="13" lengthAdjust="spacing" textLength="37" x="665" y="654.4951">knows</text><text fill="#000000" font-family="sans-serif" font-size="13" lengthAdjust="spacing" textLength="7" x="665.8979" y="631.7078">1</text><text fill="#000000" font-family="sans-serif" font-size="13" lengthAdjust="spacing" textLength="5" x="593.0804" y="826.5176">*</text></g><!--MD5=[f5c7b61f0fccc2b764bfb83bad599ae8]
link WaitingRoom to UserArrival--><g id="link_WaitingRoom_UserArrival"><path codeLine="216" d="M1986.44,601.75 C1982.86,731.94 1956.2,1227.96 1758,1566 C1735.64,1604.13 1700.72,1638.14 1668.33,1664.44 " fill="none" id="WaitingRoom-to-UserArrival" style="stroke:#181818;stroke-width:1.0;"/><polygon fill="#181818" points="1664.39,1667.61,1673.9132,1665.0985,1668.2902,1664.4813,1668.9073,1658.8582,1664.39,1667.61" style="stroke:#181818;stroke-width:1.0;"/><text fill="#000000" font-family="sans-serif" font-size="13" lengthAdjust="spacing" textLength="37" x="1930" y="1097.4951">knows</text><text fill="#000000" font-family="sans-serif" font-size="13" lengthAdjust="spacing" textLength="7" x="1978.7168" y="622.6589">1</text><text fill="#000000" font-family="sans-serif" font-size="13" lengthAdjust="spacing" textLength="5" x="1671.9092" y="1659.287">*</text></g><!--MD5=[271cba7999ae237cb9146e96ed13ba25]
link VaccinationLogStore to VacAdministration--><g id="link_VaccinationLogStore_VacAdministration"><path codeLine="218" d="M1585.56,610.27 C1589.73,630.1 1595.06,655.5 1600.75,682.61 " fill="none" id="VaccinationLogStore-to-VacAdministration" style="stroke:#181818;stroke-width:1.0;"/><polygon fill="#181818" points="1601.82,687.69,1603.8858,678.0602,1600.7928,682.7966,1596.0564,679.7037,1601.82,687.69" style="stroke:#181818;stroke-width:1.0;"/><text fill="#000000" font-family="sans-serif" font-size="13" lengthAdjust="spacing" textLength="37" x="1594" y="654.4951">knows</text><text fill="#000000" font-family="sans-serif" font-size="13" lengthAdjust="spacing" textLength="7" x="1579.3664" y="631.7078">1</text><text fill="#000000" font-family="sans-serif" font-size="13" lengthAdjust="spacing" textLength="5" x="1595.1038" y="677.1434">*</text></g><!--MD5=[5a62be99ba1f5db7bb67dce05cb19ee5]
link VaccineAdmStore to AdministrationProcess--><g id="link_VaccineAdmStore_AdministrationProcess"><path codeLine="220" d="M453.97,601.61 C441.81,650.27 418.46,743.66 402.8,806.28 " fill="none" id="VaccineAdmStore-to-AdministrationProcess" style="stroke:#181818;stroke-width:1.0;"/><polygon fill="#181818" points="401.5,811.49,407.5472,803.7162,402.7026,806.6368,399.782,801.7921,401.5,811.49" style="stroke:#181818;stroke-width:1.0;"/><text fill="#000000" font-family="sans-serif" font-size="13" lengthAdjust="spacing" textLength="37" x="444" y="654.4951">knows</text><text fill="#000000" font-family="sans-serif" font-size="13" lengthAdjust="spacing" textLength="7" x="444.9162" y="622.4939">1</text><text fill="#000000" font-family="sans-serif" font-size="13" lengthAdjust="spacing" textLength="5" x="397.9625" y="800.813">*</text></g><!--MD5=[d91d0e85eec5680005c42c6b92f9289a]
link VacType to Vaccine--><g id="link_VacType_Vaccine"><path codeLine="223" d="M324.53,601.64 C347.28,619.96 377.52,642.31 407,658 C441.99,676.63 461.14,661.92 491,688 C535.43,726.81 561.79,791.75 574.82,832.52 " fill="none" id="VacType-to-Vaccine" style="stroke:#181818;stroke-width:1.0;"/><polygon fill="#181818" points="576.34,837.37,577.4835,827.5877,574.8535,832.5961,569.8452,829.9661,576.34,837.37" style="stroke:#181818;stroke-width:1.0;"/><text fill="#000000" font-family="sans-serif" font-size="13" lengthAdjust="spacing" textLength="24" x="408" y="654.4951">is of</text><text fill="#000000" font-family="sans-serif" font-size="13" lengthAdjust="spacing" textLength="5" x="325.7697" y="622.5293">*</text><text fill="#000000" font-family="sans-serif" font-size="13" lengthAdjust="spacing" textLength="7" x="566.832" y="826.4586">1</text></g><!--MD5=[1139125aa2eab14f5d5a4e7e1e1cfd57]
link VacType to AdministrationProcess--><g id="link_VacType_AdministrationProcess"><path codeLine="224" d="M286.5,601.87 C286.91,618.81 288.48,639.76 293,658 C305.91,710.09 330.94,765.4 351.93,806.39 " fill="none" id="VacType-to-AdministrationProcess" style="stroke:#181818;stroke-width:1.0;"/><polygon fill="#181818" points="354.46,811.32,353.8746,801.4886,352.1613,806.8797,346.7702,805.1664,354.46,811.32" style="stroke:#181818;stroke-width:1.0;"/><text fill="#000000" font-family="sans-serif" font-size="13" lengthAdjust="spacing" textLength="32" x="294" y="654.4951">has a</text><text fill="#000000" font-family="sans-serif" font-size="13" lengthAdjust="spacing" textLength="7" x="278.8125" y="622.5394">1</text><text fill="#000000" font-family="sans-serif" font-size="13" lengthAdjust="spacing" textLength="7" x="343.0676" y="800.6223">1</text></g><!--MD5=[1e7daa9c0467ddb7aa0513623badbd96]
link VacStatisticsController to Company--><g id="link_VacStatisticsController_Company"><path codeLine="227" d="M1215.44,234.24 C1205.61,251.83 1194.64,271.46 1184.14,290.24 " fill="none" id="VacStatisticsController-to-Company" style="stroke:#181818;stroke-width:1.0;stroke-dasharray:7.0,7.0;"/><polygon fill="#181818" points="1181.48,295,1189.3704,289.1058,1183.9252,290.6387,1182.3923,285.1935,1181.48,295" style="stroke:#181818;stroke-width:1.0;"/></g><!--MD5=[f640b4375c02a713b183f0f7d2985d1e]
link VacStatisticsController to VaccineScheduleStore--><g id="link_VacStatisticsController_VaccineScheduleStore"><path codeLine="228" d="M1152.29,208.1 C1108.96,227.11 1060.51,255.37 1029,295 C973.49,364.82 960.01,473.22 956.86,529.96 " fill="none" id="VacStatisticsController-to-VaccineScheduleStore" style="stroke:#181818;stroke-width:1.0;stroke-dasharray:7.0,7.0;"/><polygon fill="#181818" points="956.59,535.29,961.0483,526.508,956.8475,530.2966,953.0589,526.0959,956.59,535.29" style="stroke:#181818;stroke-width:1.0;"/></g><!--MD5=[0bcbd1db9b5e4f4bbd9999f67c038cce]
link VacStatisticsController to NHSUserStore--><g id="link_VacStatisticsController_NHSUserStore"><path codeLine="229" d="M1251.73,234.06 C1255.44,295.02 1260.89,393.7 1263,479 C1263.2,487 1263.62,489.02 1263,497 C1262.37,505.08 1261.35,513.63 1260.17,521.89 " fill="none" id="VacStatisticsController-to-NHSUserStore" style="stroke:#181818;stroke-width:1.0;stroke-dasharray:7.0,7.0;"/><polygon fill="#181818" points="1259.42,526.99,1264.6897,518.6695,1260.1491,522.0434,1256.7752,517.5029,1259.42,526.99" style="stroke:#181818;stroke-width:1.0;"/></g><!--MD5=[aaa5d10c850a759e3d2ffca4d08a2b8c]
link VacStatisticsController to VaccineStore--><g id="link_VacStatisticsController_VaccineStore"><path codeLine="230" d="M1152.35,206.06 C1093.85,226.63 1018.82,257.03 958,295 C853.58,360.18 832.52,386.77 751,479 C739.24,492.3 727.8,507.95 718.06,522.35 " fill="none" id="VacStatisticsController-to-VaccineStore" style="stroke:#181818;stroke-width:1.0;stroke-dasharray:7.0,7.0;"/><polygon fill="#181818" points="715.09,526.78,723.423,521.5301,717.8734,522.6263,716.7772,517.0767,715.09,526.78" style="stroke:#181818;stroke-width:1.0;"/></g><!--MD5=[9c5361ccb28daa59105a99b28f67b235]
link VacStatisticsController to WaitingRoom--><g id="link_VacStatisticsController_WaitingRoom"><path codeLine="231" d="M1343.61,180.65 C1485.71,189.21 1743.93,211.64 1819,264 C1912.87,329.48 1959.96,465.01 1977.99,530.49 " fill="none" id="VacStatisticsController-to-WaitingRoom" style="stroke:#181818;stroke-width:1.0;stroke-dasharray:7.0,7.0;"/><polygon fill="#181818" points="1979.34,535.46,1980.8555,525.7284,1978.0365,530.6329,1973.1321,527.814,1979.34,535.46" style="stroke:#181818;stroke-width:1.0;"/></g><!--MD5=[708a4d4234e7d0acb5951629be9b340e]
link VacStatisticsController to VaccinationLogStore--><g id="link_VacStatisticsController_VaccinationLogStore"><path codeLine="232" d="M1296.9,234.19 C1363.07,312.92 1479.69,451.7 1539.42,522.78 " fill="none" id="VacStatisticsController-to-VaccinationLogStore" style="stroke:#181818;stroke-width:1.0;stroke-dasharray:7.0,7.0;"/><polygon fill="#181818" points="1542.92,526.95,1540.1966,517.4852,1539.705,523.1206,1534.0696,522.6291,1542.92,526.95" style="stroke:#181818;stroke-width:1.0;"/></g><!--MD5=[591436112315376b6d3f8a6889f732ca]
link VacStatisticsController to VaccineAdmStore--><g id="link_VacStatisticsController_VaccineAdmStore"><path codeLine="233" d="M1152.05,186.2 C1051.95,199.9 892.81,230.41 770,295 C652.52,356.78 543.23,472.55 492.2,531.31 " fill="none" id="VacStatisticsController-to-VaccineAdmStore" style="stroke:#181818;stroke-width:1.0;stroke-dasharray:7.0,7.0;"/><polygon fill="#181818" points="488.92,535.09,497.8389,530.9124,492.1963,531.313,491.7957,525.6703,488.92,535.09" style="stroke:#181818;stroke-width:1.0;"/></g><!--MD5=[db8b531b05a8788464c23f31fc19f2e9]
link VacStatisticsController to VaccinationDTO--><g id="link_VacStatisticsController_VaccinationDTO"><path codeLine="236" d="M1343.56,190.07 C1499.86,215.81 1793,276.66 1793,371 C1793,371 1793,371 1793,871.5 C1793,970.11 1762.87,1074.94 1729.35,1161.04 " fill="none" id="VacStatisticsController-to-VaccinationDTO" style="stroke:#181818;stroke-width:1.0;stroke-dasharray:7.0,7.0;"/><polygon fill="#181818" points="1727.45,1165.91,1734.4626,1158.9945,1729.2774,1161.2559,1727.016,1156.0707,1727.45,1165.91" style="stroke:#181818;stroke-width:1.0;"/></g><!--MD5=[1619d859d00628321d8ffa394dd682e4]
link VaccinationLogStore to VaccinationDTO--><g id="link_VaccinationLogStore_VaccinationDTO"><path codeLine="237" d="M1553.2,610.22 C1541.6,632.41 1528.9,660.82 1523,688 C1488.58,846.53 1492.51,893.67 1523,1053 C1529.85,1088.81 1541,1125.82 1553.76,1161 " fill="none" id="VaccinationLogStore-to-VaccinationDTO" style="stroke:#181818;stroke-width:1.0;stroke-dasharray:7.0,7.0;"/><polygon fill="#181818" points="1555.48,1165.73,1556.1539,1155.9042,1553.7667,1161.0327,1548.6382,1158.6455,1555.48,1165.73" style="stroke:#181818;stroke-width:1.0;"/></g><!--MD5=[e0d4a9fd300d024cc2a82d7cfaa1e7c1]
link VacAdministration to VaccinationDTO--><g id="link_VacAdministration_VaccinationDTO"><path codeLine="238" d="M1640,1053.15 C1640,1088.32 1640,1125.22 1640,1160.55 " fill="none" id="VacAdministration-to-VaccinationDTO" style="stroke:#181818;stroke-width:1.0;stroke-dasharray:7.0,7.0;"/><polygon fill="#181818" points="1640,1165.76,1644,1156.76,1640,1160.76,1636,1156.76,1640,1165.76" style="stroke:#181818;stroke-width:1.0;"/></g><!--MD5=[6966fefb10e581ca743c6bfa6f6f53ee]
link NHSUser to UserArrival--><g id="link_NHSUser_UserArrival"><path codeLine="240" d="M1338.09,1444.43 C1393.08,1505.06 1463.56,1582.78 1515.65,1640.22 " fill="none" id="NHSUser-to-UserArrival" style="stroke:#181818;stroke-width:1.0;"/><polygon fill="#181818" points="1519.05,1643.97,1515.9647,1634.6169,1515.6902,1640.2671,1510.04,1639.9926,1519.05,1643.97" style="stroke:#181818;stroke-width:1.0;"/><text fill="#000000" font-family="sans-serif" font-size="13" lengthAdjust="spacing" textLength="62" x="1489" y="1610.4951">arrives has</text><text fill="#000000" font-family="sans-serif" font-size="13" lengthAdjust="spacing" textLength="7" x="1346.0691" y="1449.7832">1</text><text fill="#000000" font-family="sans-serif" font-size="13" lengthAdjust="spacing" textLength="7" x="1504.9182" y="1633.1292">1</text></g><!--MD5=[5e32848661f8f0d8e4b555aabd7f7b05]
link VaccinationCenter to Center--><g id="link_VaccinationCenter_Center"><path codeLine="242" d="M260.76,413.66 C248.66,444.23 233.39,487.47 226,527 C189.68,721.35 182.14,945.89 182.87,1110.89 " fill="none" id="VaccinationCenter-to-Center" style="stroke:#181818;stroke-width:1.0;"/><polygon fill="none" points="189.87,1110.92,183,1130.96,175.87,1111.01,189.87,1110.92" style="stroke:#181818;stroke-width:1.0;"/></g><!--MD5=[a00d714f0a661d4d0fa1449815b2f985]
link HealthCareCenter to Center--><g id="link_HealthCareCenter_Center"><path codeLine="243" d="M86.55,431.04 C101.31,561.75 137.83,885.34 163.27,1110.72 " fill="none" id="HealthCareCenter-to-Center" style="stroke:#181818;stroke-width:1.0;"/><polygon fill="none" points="170.26,1110.19,165.55,1130.85,156.35,1111.76,170.26,1110.19" style="stroke:#181818;stroke-width:1.0;"/></g><!--MD5=[a3dc061a39b5be6a101ce352edd1d1c0]
link VaccinationCenter to VacType--><g id="link_VaccinationCenter_VacType"><path codeLine="245" d="M279.89,413.77 C281.48,448.14 283.73,496.9 285.28,530.23 " fill="none" id="VaccinationCenter-to-VacType" style="stroke:#181818;stroke-width:1.0;"/><polygon fill="#181818" points="285.52,535.45,289.1036,526.2763,285.291,530.4552,281.112,526.6426,285.52,535.45" style="stroke:#181818;stroke-width:1.0;"/><text fill="#000000" font-family="sans-serif" font-size="13" lengthAdjust="spacing" textLength="30" x="284" y="493.4951">owns</text><text fill="#000000" font-family="sans-serif" font-size="13" lengthAdjust="spacing" textLength="7" x="272.6334" y="435.2078">1</text><text fill="#000000" font-family="sans-serif" font-size="13" lengthAdjust="spacing" textLength="7" x="277.4929" y="524.5551">1</text></g><!--MD5=[af2965508439a801e1c1673d537d315a]
link HealthCareCenter to VacType--><g id="link_HealthCareCenter_VacType"><path codeLine="246" d="M141.83,431.09 C176.6,463.77 218.91,503.52 248.86,531.66 " fill="none" id="HealthCareCenter-to-VacType" style="stroke:#181818;stroke-width:1.0;"/><polygon fill="#181818" points="252.82,535.38,249.0077,526.2989,249.179,531.9532,243.5247,532.1245,252.82,535.38" style="stroke:#181818;stroke-width:1.0;"/><text fill="#000000" font-family="sans-serif" font-size="13" lengthAdjust="spacing" textLength="30" x="209" y="493.4951">owns</text><text fill="#000000" font-family="sans-serif" font-size="13" lengthAdjust="spacing" textLength="7" x="141.939" y="452.7565">1</text><text fill="#000000" font-family="sans-serif" font-size="13" lengthAdjust="spacing" textLength="5" x="240.2548" y="524.4707">*</text></g><!--MD5=[e21de372c26c5e2da53dd202c73662bb]
link VaccineSchedule to Center--><g id="link_VaccineSchedule_Center"><path codeLine="248" d="M861.69,930.11 C709.19,1024.87 411.22,1210.03 269.09,1298.35 " fill="none" id="VaccineSchedule-to-Center" style="stroke:#181818;stroke-width:1.0;"/><polygon fill="#181818" points="264.52,1301.2,274.2741,1299.8368,268.764,1298.5564,270.0443,1293.0464,264.52,1301.2" style="stroke:#181818;stroke-width:1.0;"/><text fill="#000000" font-family="sans-serif" font-size="13" lengthAdjust="spacing" textLength="77" x="596" y="1097.4951">scheduled for</text><text fill="#000000" font-family="sans-serif" font-size="13" lengthAdjust="spacing" textLength="5" x="848.9755" y="931.7349">*</text><text fill="#000000" font-family="sans-serif" font-size="13" lengthAdjust="spacing" textLength="7" x="272.5658" y="1292.9895">1</text></g><!--MD5=[3339106d90f55c721f4bae340bb59f72]
link VaccineSchedule to NHSUser--><g id="link_VaccineSchedule_NHSUser"><path codeLine="249" d="M1041.62,1009.18 C1079.72,1070.45 1124.57,1142.57 1163.05,1204.46 " fill="none" id="VaccineSchedule-to-NHSUser" style="stroke:#181818;stroke-width:1.0;"/><polygon fill="#181818" points="1165.81,1208.89,1164.4468,1199.1359,1163.1664,1204.646,1157.6564,1203.3657,1165.81,1208.89" style="stroke:#181818;stroke-width:1.0;"/><text fill="#000000" font-family="sans-serif" font-size="13" lengthAdjust="spacing" textLength="77" x="1096" y="1097.4951">scheduled for</text><text fill="#000000" font-family="sans-serif" font-size="13" lengthAdjust="spacing" textLength="7" x="1038.8543" y="1030.2494">1</text><text fill="#000000" font-family="sans-serif" font-size="13" lengthAdjust="spacing" textLength="7" x="1151.1023" y="1193.7257">1</text></g><!--MD5=[b47c5eec5060e645dcea46be32ca703e]
@startuml
skinparam classAttributeIconSize 0

class VacStatisticsUI{


}

class VacStatisticsController{
UpdateTable()
ExportVaccinationStatistics()
getDateI()
getDateF()
}

class Center{
-id
-designation
-address
-phoneNumber
-faxNumber
-websiteAddress
-emailAddress
-openTime
-closeTime
-slots
-slotDuration

+getID()
+getdesignation()
+getaddress()
+getphoneNumber()
+getfaxNumber()
+getwebsiteAddress()
+getemailAddress()
+getopenTime()
+getcloseTime()
+getslots()
+getslotDuration()
}

class VaccinationCenter{
-vaccinetype
+getVACVaccinetype()
}

class HealthCareCenter{
-ARS
-AGES

+getARS()
+getAGES()
}


class Vaccine{
-brand
}

class VaccineScheduleStore{
+getScheduledDateTime(int snsNumber)
}

class NHSUserStore{
+getSnsPhoneNumber(int snsNumber)
+getNameBySns(int snsNumber)
}

class NHSUser{
-name
-address
-sex
-phone
-email
-birthDate
-SNSNumber
-citizenCardNumber
+getName()
+getAddress()
+getPhone()
+getEmail()
+getSex()
+getBirthDate()
+getSNSNumber()
+getCitizenCardNumber()
}

class VaccineSchedule{
-date
-time
-centerId
-vacType
-SNSNumber
-user
+getUserFromSNSNumber()
+getDate()
+getTime()
+getCenter()
+getVacType()
+getSNSNumber()
+getUser()
}

class VaccineAdmStore{
+showAdministrationDoses()
}

class VaccineStore{
+showVaccines()
+getVaccineName(int option)
}

class WaitingRoom{
+getDateOfArrival(int centerID, int number)
}

class VaccinationLogStore{
+createRecord(VaccinationDTO vacConfirmation)
+saveRecord(VacAdministration vacConfirmation)
}

class UserArrival{
-centerID
-dateOfArrival
-userNhsNumber

+getCenterID()
+getDate()
+getUserNhsNumber()
}

class VacAdministration{
-snsNumber
-vaccineName
-vaccineDose
-lotNumber
-scheduledDateTime
-arrivalDateTime
-administrationDateTime
-leavingDateTime
-centerID

+getSnsNumber()
+getVaccineName()
+getVaccineDose()
+getLotNumber()
+getScheduledDateTime()
+getArrivalDateTime()
+getAdministrationDateTime()
+getLeavingDateTime()
+getCenterID()

}

class VaccinationDTO{
-snsNumber
-vaccineName
-vaccineDose
-lotNumber
-scheduledDateTime
-arrivalDateTime
-administrationDateTime
-leavingDateTime
-centerID

+getSnsNumber()
+getVaccineName()
+getVaccineDose()
+getLotNumber()
+getScheduledDateTime()
+getArrivalDateTime()
+getAdministrationDateTime()
+getLeavingDateTime()
+getCenterID()

}

class AdministrationProcess{
-ageGroup
-dosage
-numberOfDoses
-timeInterval
}


class Company{
getVaccineStore()
getVaccinationLogStore()
getVaccineAdmStore()
getNHSUserStore()
getWaitingRoom()
getVaccineScheduleStore()
}

class VacType{
-type
}


VacStatisticsUI .-> VacStatisticsController

Company "1" - -> "1" VaccineScheduleStore : owns
Company "1" - -> "1" NHSUserStore : owns
Company "1" - -> "1" VaccineStore : owns
Company "1" - -> "1" WaitingRoom : owns
Company "1" - -> "1" VaccinationLogStore : owns
Company "1" - -> "1" VaccineAdmStore : owns



VaccineScheduleStore "1" - -> "*" VaccineSchedule : knows

NHSUserStore "1" - -> "*" NHSUser : knows

VaccineStore "1" - -> "*" Vaccine : knows

WaitingRoom "1" - -> "*" UserArrival : knows

VaccinationLogStore "1" - -> "*" VacAdministration : knows

VaccineAdmStore "1" - -> "*" AdministrationProcess : knows


VacType "*" - -> "1" Vaccine : is of
VacType "1" - -> "1" AdministrationProcess : has a


VacStatisticsController .-> Company
VacStatisticsController .-> VaccineScheduleStore
VacStatisticsController .-> NHSUserStore
VacStatisticsController .-> VaccineStore
VacStatisticsController .-> WaitingRoom
VacStatisticsController .-> VaccinationLogStore
VacStatisticsController .-> VaccineAdmStore


VacStatisticsController .-> VaccinationDTO
VaccinationLogStore .-> VaccinationDTO
VacAdministration .-> VaccinationDTO

NHSUser "1" - -> "1" UserArrival : arrives has

VaccinationCenter - -|> Center
HealthCareCenter - -|> Center

VaccinationCenter "1" - -> "1" VacType : owns
HealthCareCenter "1" - -> "*" VacType : owns

VaccineSchedule "*" - -> "1" Center: scheduled for
VaccineSchedule "1" - -> "1" NHSUser: scheduled for

@enduml

PlantUML version 1.2022.5(Sat Apr 30 11:55:52 BST 2022)
(GPL source distribution)
Java Runtime: OpenJDK Runtime Environment
JVM: OpenJDK 64-Bit Server VM
Default Encoding: Cp1252
Language: pt
Country: PT
--></g></svg>