@startuml
skinparam classAttributeIconSize 0

class VaccineStore {
    +createVac(Brand)
    +validateVaccine(Vac)
    +addVaccine(Vac)
}
class Company {
    +getVaccineStore
    +getVacAdmStore
}
class CreateVaccineController {
    +createVac(Brand)
    +saveVac()
}

class CreateVacAdmController {
    +createVacAdm(AgeGroup, dosage, numberOfDoses, timeInterval)
    +saveVacAdm()

}

class CreateVaccineUI {

}
class VaccineAdmStore {
    +createVacAdm(AgeGroup, dosage, numberOfDoses, timeInterval)
    +addVacAdm(VacAdm)
}

class Vaccine{
    -Brand
}

class AdministrationProcess{
    -ageGroup
    -dosage
    -numberOfDoses
    -timeInterval
}

CreateVaccineUI ..> CreateVaccineController
CreateVaccineUI ..> CreateVacAdmController
CreateVaccineController ..> Company
CreateVacAdmController ..> Company
CreateVaccineController ..> Vaccine
CreateVacAdmController ..> AdministrationProcess
AdministrationProcess ..> VaccineAdmStore
Vaccine ..> VaccineStore
Company "1" --> "1" VaccineStore : owns
Company "1" --> "1" VaccineAdmStore : owns


@enduml