@startuml
hide methods
left to right direction
skinparam classAttributeIconSize 0

class Employee{
====-id
====-name
====-address
====-phoneNumber
====-emailAddress

}

class NhsUser{

====citizenCardNumber
====-name
====-address
====-nhsNumber
====-birthDate
====-sex
====-phoneNumber
====-email

}

class Vaccination{
====-code

}

class Center {
====-designation
====-address
====-phoneNumber
====-faxNumber
====-websiteAddress
====-emailAddress
====-openTime
====-closeTime
====-slots
====-slotDuration

}

class VaccineSchedule{
====-date
====-time
====-whereAt
====-vaccineType
====-SNSNumber
}

class HealthCareCenter{
====-ARS
====-AGES
}

class Vaccine{
====-brand
}

class AdministrationProcess{
====-ageGroup
====-dosage
====-numberOfDoses
====-timeInterval
}

class VacType{
====-type
}


Employee "*"-up- "1" Administrator : registered by >
Employee "1"-"0..1" Receptionist : play as >
VaccineSchedule "*"---"1" Receptionist : managed by >
VaccineSchedule "1"--"1" Notification : emits if permission is given >
Notification <|-down- Sms

VaccineSchedule "1"---"1" NhsUser : registered in <
Vaccination "1"--"1" VaccineSchedule : scheduled on >
Vaccination "1" -up- "1" NhsUser : < requests
Vaccination "*"----"1" VacType : performed with >
VacType "*" -- "1" Vaccine : is of >
VacType "1" -- "1" AdministrationProcess : has a >

VaccinationCenter "1"---"1" VacType : owns >
HealthCareCenter "1"---"*" VacType : owns >
Center <|-- HealthCareCenter
Center <|-- VaccinationCenter



@enduml