<?xml version="1.0" encoding="UTF-8" standalone="no"?><svg xmlns="http://www.w3.org/2000/svg" xmlns:xlink="http://www.w3.org/1999/xlink" contentScriptType="application/ecmascript" contentStyleType="text/css" height="421px" preserveAspectRatio="none" style="width:1361px;height:421px;background:#FFFFFF;" version="1.1" viewBox="0 0 1361 421" width="1361px" zoomAndPan="magnify"><defs><filter height="300%" id="fzyteisfavddt" width="300%" x="-1" y="-1"><feGaussianBlur result="blurOut" stdDeviation="2.0"/><feColorMatrix in="blurOut" result="blurOut2" type="matrix" values="0 0 0 0 0 0 0 0 0 0 0 0 0 0 0 0 0 0 .4 0"/><feOffset dx="4.0" dy="4.0" in="blurOut2" result="blurOut3"/><feBlend in="SourceGraphic" in2="blurOut3" mode="normal"/></filter></defs><g><!--MD5=[1cf941c7a2ec464c88d480ae8b9735c9]
class NhsUser--><rect codeLine="8" fill="#FEFECE" filter="url(#fzyteisfavddt)" height="150.6875" id="NhsUser" style="stroke:#A80036;stroke-width:1.5;" width="109" x="7" y="35"/><ellipse cx="34.15" cy="51" fill="#ADD1B2" rx="11" ry="11" style="stroke:#A80036;stroke-width:1.0;"/><path d="M36.15,47.5 Q36.3531,47 36.5875,46.75 Q36.8219,46.5 37.0875,46.5 Q37.5563,46.5 37.8531,46.7813 Q38.15,47.0625 38.15,47.7188 L38.15,49.2813 Q38.15,49.9375 37.8688,50.2188 Q37.5875,50.5 37.15,50.5 Q36.7594,50.5 36.5094,50.3281 Q36.2594,50.1563 36.15,49.7031 Q36.1031,49.3906 35.9313,49.2188 Q35.6188,48.8906 35.0563,48.7031 Q34.4938,48.5 33.9313,48.5 Q33.2281,48.5 32.6344,48.7813 Q32.0563,49.0625 31.6031,49.6875 Q31.15,50.3125 31.15,51.1719 L31.15,52.0938 Q31.15,53.125 31.9938,53.8125 Q32.8375,54.5 34.3375,54.5 Q35.2281,54.5 35.8531,54.2969 Q36.2125,54.1875 36.6188,53.8281 Q36.8844,53.625 37.025,53.5625 Q37.1656,53.5 37.3375,53.5 Q37.6656,53.5 37.9,53.7656 Q38.15,54.0156 38.15,54.375 Q38.15,54.7188 37.8063,55.125 Q37.3063,55.7188 36.5094,56.0469 Q35.4625,56.5 34.1813,56.5 Q32.6813,56.5 31.4781,55.9063 Q30.5094,55.4375 29.8219,54.4219 Q29.15,53.4063 29.15,52.2031 L29.15,51.1094 Q29.15,49.8594 29.7438,48.7656 Q30.3531,47.6719 31.4,47.0938 Q32.4625,46.5 33.65,46.5 Q34.3688,46.5 34.9938,46.75 Q35.6188,47 36.15,47.5 Z " fill="#000000"/><text fill="#000000" font-family="sans-serif" font-size="12" lengthAdjust="spacing" textLength="50" x="50.85" y="55.9102">NhsUser</text><line style="stroke:#A80036;stroke-width:1.5;" x1="8" x2="115" y1="67" y2="67"/><text fill="#000000" font-family="sans-serif" font-size="11" font-style="italic" lengthAdjust="spacing" textLength="97" x="13" y="82.4189">citizenCardNumber</text><text fill="#000000" font-family="sans-serif" font-size="11" font-style="italic" lengthAdjust="spacing" textLength="31" x="13" y="96.2549">-name</text><text fill="#000000" font-family="sans-serif" font-size="11" font-style="italic" lengthAdjust="spacing" textLength="44" x="13" y="110.0908">-address</text><text fill="#000000" font-family="sans-serif" font-size="11" font-style="italic" lengthAdjust="spacing" textLength="62" x="13" y="123.9268">-nhsNumber</text><text fill="#000000" font-family="sans-serif" font-size="11" font-style="italic" lengthAdjust="spacing" textLength="50" x="13" y="137.7627">-birthDate</text><text fill="#000000" font-family="sans-serif" font-size="11" font-style="italic" lengthAdjust="spacing" textLength="22" x="13" y="151.5986">-sex</text><text fill="#000000" font-family="sans-serif" font-size="11" font-style="italic" lengthAdjust="spacing" textLength="74" x="13" y="165.4346">-phoneNumber</text><text fill="#000000" font-family="sans-serif" font-size="11" font-style="italic" lengthAdjust="spacing" textLength="31" x="13" y="179.2705">-email</text><!--MD5=[53d58b469dab931cbea506cdf5ebe602]
class Vaccination--><rect codeLine="21" fill="#FEFECE" filter="url(#fzyteisfavddt)" height="53.8359" id="Vaccination" style="stroke:#A80036;stroke-width:1.5;" width="95" x="241" y="131.5"/><ellipse cx="256" cy="147.5" fill="#ADD1B2" rx="11" ry="11" style="stroke:#A80036;stroke-width:1.0;"/><path d="M258,144 Q258.2031,143.5 258.4375,143.25 Q258.6719,143 258.9375,143 Q259.4063,143 259.7031,143.2813 Q260,143.5625 260,144.2188 L260,145.7813 Q260,146.4375 259.7188,146.7188 Q259.4375,147 259,147 Q258.6094,147 258.3594,146.8281 Q258.1094,146.6563 258,146.2031 Q257.9531,145.8906 257.7813,145.7188 Q257.4688,145.3906 256.9063,145.2031 Q256.3438,145 255.7813,145 Q255.0781,145 254.4844,145.2813 Q253.9063,145.5625 253.4531,146.1875 Q253,146.8125 253,147.6719 L253,148.5938 Q253,149.625 253.8438,150.3125 Q254.6875,151 256.1875,151 Q257.0781,151 257.7031,150.7969 Q258.0625,150.6875 258.4688,150.3281 Q258.7344,150.125 258.875,150.0625 Q259.0156,150 259.1875,150 Q259.5156,150 259.75,150.2656 Q260,150.5156 260,150.875 Q260,151.2188 259.6563,151.625 Q259.1563,152.2188 258.3594,152.5469 Q257.3125,153 256.0313,153 Q254.5313,153 253.3281,152.4063 Q252.3594,151.9375 251.6719,150.9219 Q251,149.9063 251,148.7031 L251,147.6094 Q251,146.3594 251.5938,145.2656 Q252.2031,144.1719 253.25,143.5938 Q254.3125,143 255.5,143 Q256.2188,143 256.8438,143.25 Q257.4688,143.5 258,144 Z " fill="#000000"/><text fill="#000000" font-family="sans-serif" font-size="12" lengthAdjust="spacing" textLength="63" x="270" y="152.4102">Vaccination</text><line style="stroke:#A80036;stroke-width:1.5;" x1="242" x2="335" y1="163.5" y2="163.5"/><text fill="#000000" font-family="sans-serif" font-size="11" font-style="italic" lengthAdjust="spacing" textLength="28" x="247" y="178.9189">-code</text><!--MD5=[bbd32abb87742158d8b9937325662454]
class Center--><rect codeLine="26" fill="#FEFECE" filter="url(#fzyteisfavddt)" height="178.3594" id="Center" style="stroke:#A80036;stroke-width:1.5;" width="95" x="241" y="229.5"/><ellipse cx="267.7" cy="245.5" fill="#ADD1B2" rx="11" ry="11" style="stroke:#A80036;stroke-width:1.0;"/><path d="M269.7,242 Q269.9031,241.5 270.1375,241.25 Q270.3719,241 270.6375,241 Q271.1063,241 271.4031,241.2813 Q271.7,241.5625 271.7,242.2188 L271.7,243.7813 Q271.7,244.4375 271.4188,244.7188 Q271.1375,245 270.7,245 Q270.3094,245 270.0594,244.8281 Q269.8094,244.6563 269.7,244.2031 Q269.6531,243.8906 269.4813,243.7188 Q269.1688,243.3906 268.6063,243.2031 Q268.0438,243 267.4813,243 Q266.7781,243 266.1844,243.2813 Q265.6063,243.5625 265.1531,244.1875 Q264.7,244.8125 264.7,245.6719 L264.7,246.5938 Q264.7,247.625 265.5438,248.3125 Q266.3875,249 267.8875,249 Q268.7781,249 269.4031,248.7969 Q269.7625,248.6875 270.1688,248.3281 Q270.4344,248.125 270.575,248.0625 Q270.7156,248 270.8875,248 Q271.2156,248 271.45,248.2656 Q271.7,248.5156 271.7,248.875 Q271.7,249.2188 271.3563,249.625 Q270.8563,250.2188 270.0594,250.5469 Q269.0125,251 267.7313,251 Q266.2313,251 265.0281,250.4063 Q264.0594,249.9375 263.3719,248.9219 Q262.7,247.9063 262.7,246.7031 L262.7,245.6094 Q262.7,244.3594 263.2938,243.2656 Q263.9031,242.1719 264.95,241.5938 Q266.0125,241 267.2,241 Q267.9188,241 268.5438,241.25 Q269.1688,241.5 269.7,242 Z " fill="#000000"/><text fill="#000000" font-family="sans-serif" font-size="12" lengthAdjust="spacing" textLength="37" x="284.3" y="250.4102">Center</text><line style="stroke:#A80036;stroke-width:1.5;" x1="242" x2="335" y1="261.5" y2="261.5"/><text fill="#000000" font-family="sans-serif" font-size="11" font-style="italic" lengthAdjust="spacing" textLength="61" x="247" y="276.9189">-designation</text><text fill="#000000" font-family="sans-serif" font-size="11" font-style="italic" lengthAdjust="spacing" textLength="44" x="247" y="290.7549">-address</text><text fill="#000000" font-family="sans-serif" font-size="11" font-style="italic" lengthAdjust="spacing" textLength="74" x="247" y="304.5908">-phoneNumber</text><text fill="#000000" font-family="sans-serif" font-size="11" font-style="italic" lengthAdjust="spacing" textLength="59" x="247" y="318.4268">-faxNumber</text><text fill="#000000" font-family="sans-serif" font-size="11" font-style="italic" lengthAdjust="spacing" textLength="83" x="247" y="332.2627">-websiteAddress</text><text fill="#000000" font-family="sans-serif" font-size="11" font-style="italic" lengthAdjust="spacing" textLength="72" x="247" y="346.0986">-emailAddress</text><text fill="#000000" font-family="sans-serif" font-size="11" font-style="italic" lengthAdjust="spacing" textLength="53" x="247" y="359.9346">-openTime</text><text fill="#000000" font-family="sans-serif" font-size="11" font-style="italic" lengthAdjust="spacing" textLength="56" x="247" y="373.7705">-closeTime</text><text fill="#000000" font-family="sans-serif" font-size="11" font-style="italic" lengthAdjust="spacing" textLength="28" x="247" y="387.6064">-slots</text><text fill="#000000" font-family="sans-serif" font-size="11" font-style="italic" lengthAdjust="spacing" textLength="64" x="247" y="401.4424">-slotDuration</text><!--MD5=[cd4ce1c0d44638ff9f42448de30e6b92]
class VaccineSchedule--><rect codeLine="40" fill="#FEFECE" filter="url(#fzyteisfavddt)" height="109.1797" id="VaccineSchedule" style="stroke:#A80036;stroke-width:1.5;" width="127" x="490.5" y="7"/><ellipse cx="505.5" cy="23" fill="#ADD1B2" rx="11" ry="11" style="stroke:#A80036;stroke-width:1.0;"/><path d="M507.5,19.5 Q507.7031,19 507.9375,18.75 Q508.1719,18.5 508.4375,18.5 Q508.9063,18.5 509.2031,18.7813 Q509.5,19.0625 509.5,19.7188 L509.5,21.2813 Q509.5,21.9375 509.2188,22.2188 Q508.9375,22.5 508.5,22.5 Q508.1094,22.5 507.8594,22.3281 Q507.6094,22.1563 507.5,21.7031 Q507.4531,21.3906 507.2813,21.2188 Q506.9688,20.8906 506.4063,20.7031 Q505.8438,20.5 505.2813,20.5 Q504.5781,20.5 503.9844,20.7813 Q503.4063,21.0625 502.9531,21.6875 Q502.5,22.3125 502.5,23.1719 L502.5,24.0938 Q502.5,25.125 503.3438,25.8125 Q504.1875,26.5 505.6875,26.5 Q506.5781,26.5 507.2031,26.2969 Q507.5625,26.1875 507.9688,25.8281 Q508.2344,25.625 508.375,25.5625 Q508.5156,25.5 508.6875,25.5 Q509.0156,25.5 509.25,25.7656 Q509.5,26.0156 509.5,26.375 Q509.5,26.7188 509.1563,27.125 Q508.6563,27.7188 507.8594,28.0469 Q506.8125,28.5 505.5313,28.5 Q504.0313,28.5 502.8281,27.9063 Q501.8594,27.4375 501.1719,26.4219 Q500.5,25.4063 500.5,24.2031 L500.5,23.1094 Q500.5,21.8594 501.0938,20.7656 Q501.7031,19.6719 502.75,19.0938 Q503.8125,18.5 505,18.5 Q505.7188,18.5 506.3438,18.75 Q506.9688,19 507.5,19.5 Z " fill="#000000"/><text fill="#000000" font-family="sans-serif" font-size="12" lengthAdjust="spacing" textLength="95" x="519.5" y="27.9102">VaccineSchedule</text><line style="stroke:#A80036;stroke-width:1.5;" x1="491.5" x2="616.5" y1="39" y2="39"/><text fill="#000000" font-family="sans-serif" font-size="11" font-style="italic" lengthAdjust="spacing" textLength="25" x="496.5" y="54.4189">-date</text><text fill="#000000" font-family="sans-serif" font-size="11" font-style="italic" lengthAdjust="spacing" textLength="25" x="496.5" y="68.2549">-time</text><text fill="#000000" font-family="sans-serif" font-size="11" font-style="italic" lengthAdjust="spacing" textLength="43" x="496.5" y="82.0908">-whereAt</text><text fill="#000000" font-family="sans-serif" font-size="11" font-style="italic" lengthAdjust="spacing" textLength="66" x="496.5" y="95.9268">-vaccineType</text><text fill="#000000" font-family="sans-serif" font-size="11" font-style="italic" lengthAdjust="spacing" textLength="66" x="496.5" y="109.7627">-SNSNumber</text><!--MD5=[1db03e903fe0a044a2ca0dcbef10799a]
class HealthCareCenter--><rect codeLine="48" fill="#FEFECE" filter="url(#fzyteisfavddt)" height="67.6719" id="HealthCareCenter" style="stroke:#A80036;stroke-width:1.5;" width="132" x="488" y="222.5"/><ellipse cx="503" cy="238.5" fill="#ADD1B2" rx="11" ry="11" style="stroke:#A80036;stroke-width:1.0;"/><path d="M505,235 Q505.2031,234.5 505.4375,234.25 Q505.6719,234 505.9375,234 Q506.4063,234 506.7031,234.2813 Q507,234.5625 507,235.2188 L507,236.7813 Q507,237.4375 506.7188,237.7188 Q506.4375,238 506,238 Q505.6094,238 505.3594,237.8281 Q505.1094,237.6563 505,237.2031 Q504.9531,236.8906 504.7813,236.7188 Q504.4688,236.3906 503.9063,236.2031 Q503.3438,236 502.7813,236 Q502.0781,236 501.4844,236.2813 Q500.9063,236.5625 500.4531,237.1875 Q500,237.8125 500,238.6719 L500,239.5938 Q500,240.625 500.8438,241.3125 Q501.6875,242 503.1875,242 Q504.0781,242 504.7031,241.7969 Q505.0625,241.6875 505.4688,241.3281 Q505.7344,241.125 505.875,241.0625 Q506.0156,241 506.1875,241 Q506.5156,241 506.75,241.2656 Q507,241.5156 507,241.875 Q507,242.2188 506.6563,242.625 Q506.1563,243.2188 505.3594,243.5469 Q504.3125,244 503.0313,244 Q501.5313,244 500.3281,243.4063 Q499.3594,242.9375 498.6719,241.9219 Q498,240.9063 498,239.7031 L498,238.6094 Q498,237.3594 498.5938,236.2656 Q499.2031,235.1719 500.25,234.5938 Q501.3125,234 502.5,234 Q503.2188,234 503.8438,234.25 Q504.4688,234.5 505,235 Z " fill="#000000"/><text fill="#000000" font-family="sans-serif" font-size="12" lengthAdjust="spacing" textLength="100" x="517" y="243.4102">HealthCareCenter</text><line style="stroke:#A80036;stroke-width:1.5;" x1="489" x2="619" y1="254.5" y2="254.5"/><text fill="#000000" font-family="sans-serif" font-size="11" font-style="italic" lengthAdjust="spacing" textLength="26" x="494" y="269.9189">-ARS</text><text fill="#000000" font-family="sans-serif" font-size="11" font-style="italic" lengthAdjust="spacing" textLength="34" x="494" y="283.7549">-AGES</text><!--MD5=[19e445fc4d3b48519cbe33da05496394]
class Vaccine--><rect codeLine="53" fill="#FEFECE" filter="url(#fzyteisfavddt)" height="53.8359" id="Vaccine" style="stroke:#A80036;stroke-width:1.5;" width="75" x="1231" y="174.5"/><ellipse cx="1246" cy="190.5" fill="#ADD1B2" rx="11" ry="11" style="stroke:#A80036;stroke-width:1.0;"/><path d="M1248,187 Q1248.2031,186.5 1248.4375,186.25 Q1248.6719,186 1248.9375,186 Q1249.4063,186 1249.7031,186.2813 Q1250,186.5625 1250,187.2188 L1250,188.7813 Q1250,189.4375 1249.7188,189.7188 Q1249.4375,190 1249,190 Q1248.6094,190 1248.3594,189.8281 Q1248.1094,189.6563 1248,189.2031 Q1247.9531,188.8906 1247.7813,188.7188 Q1247.4688,188.3906 1246.9063,188.2031 Q1246.3438,188 1245.7813,188 Q1245.0781,188 1244.4844,188.2813 Q1243.9063,188.5625 1243.4531,189.1875 Q1243,189.8125 1243,190.6719 L1243,191.5938 Q1243,192.625 1243.8438,193.3125 Q1244.6875,194 1246.1875,194 Q1247.0781,194 1247.7031,193.7969 Q1248.0625,193.6875 1248.4688,193.3281 Q1248.7344,193.125 1248.875,193.0625 Q1249.0156,193 1249.1875,193 Q1249.5156,193 1249.75,193.2656 Q1250,193.5156 1250,193.875 Q1250,194.2188 1249.6563,194.625 Q1249.1563,195.2188 1248.3594,195.5469 Q1247.3125,196 1246.0313,196 Q1244.5313,196 1243.3281,195.4063 Q1242.3594,194.9375 1241.6719,193.9219 Q1241,192.9063 1241,191.7031 L1241,190.6094 Q1241,189.3594 1241.5938,188.2656 Q1242.2031,187.1719 1243.25,186.5938 Q1244.3125,186 1245.5,186 Q1246.2188,186 1246.8438,186.25 Q1247.4688,186.5 1248,187 Z " fill="#000000"/><text fill="#000000" font-family="sans-serif" font-size="12" lengthAdjust="spacing" textLength="43" x="1260" y="195.4102">Vaccine</text><line style="stroke:#A80036;stroke-width:1.5;" x1="1232" x2="1305" y1="206.5" y2="206.5"/><text fill="#000000" font-family="sans-serif" font-size="11" font-style="italic" lengthAdjust="spacing" textLength="33" x="1237" y="221.9189">-brand</text><!--MD5=[a2530d24bafc45bb45314d96545aa194]
class AdministrationProcess--><rect codeLine="57" fill="#FEFECE" filter="url(#fzyteisfavddt)" height="95.3438" id="AdministrationProcess" style="stroke:#A80036;stroke-width:1.5;" width="157" x="1190" y="264"/><ellipse cx="1205" cy="280" fill="#ADD1B2" rx="11" ry="11" style="stroke:#A80036;stroke-width:1.0;"/><path d="M1207,276.5 Q1207.2031,276 1207.4375,275.75 Q1207.6719,275.5 1207.9375,275.5 Q1208.4063,275.5 1208.7031,275.7813 Q1209,276.0625 1209,276.7188 L1209,278.2813 Q1209,278.9375 1208.7188,279.2188 Q1208.4375,279.5 1208,279.5 Q1207.6094,279.5 1207.3594,279.3281 Q1207.1094,279.1563 1207,278.7031 Q1206.9531,278.3906 1206.7813,278.2188 Q1206.4688,277.8906 1205.9063,277.7031 Q1205.3438,277.5 1204.7813,277.5 Q1204.0781,277.5 1203.4844,277.7813 Q1202.9063,278.0625 1202.4531,278.6875 Q1202,279.3125 1202,280.1719 L1202,281.0938 Q1202,282.125 1202.8438,282.8125 Q1203.6875,283.5 1205.1875,283.5 Q1206.0781,283.5 1206.7031,283.2969 Q1207.0625,283.1875 1207.4688,282.8281 Q1207.7344,282.625 1207.875,282.5625 Q1208.0156,282.5 1208.1875,282.5 Q1208.5156,282.5 1208.75,282.7656 Q1209,283.0156 1209,283.375 Q1209,283.7188 1208.6563,284.125 Q1208.1563,284.7188 1207.3594,285.0469 Q1206.3125,285.5 1205.0313,285.5 Q1203.5313,285.5 1202.3281,284.9063 Q1201.3594,284.4375 1200.6719,283.4219 Q1200,282.4063 1200,281.2031 L1200,280.1094 Q1200,278.8594 1200.5938,277.7656 Q1201.2031,276.6719 1202.25,276.0938 Q1203.3125,275.5 1204.5,275.5 Q1205.2188,275.5 1205.8438,275.75 Q1206.4688,276 1207,276.5 Z " fill="#000000"/><text fill="#000000" font-family="sans-serif" font-size="12" lengthAdjust="spacing" textLength="125" x="1219" y="284.9102">AdministrationProcess</text><line style="stroke:#A80036;stroke-width:1.5;" x1="1191" x2="1346" y1="296" y2="296"/><text fill="#000000" font-family="sans-serif" font-size="11" font-style="italic" lengthAdjust="spacing" textLength="53" x="1196" y="311.4189">-ageGroup</text><text fill="#000000" font-family="sans-serif" font-size="11" font-style="italic" lengthAdjust="spacing" textLength="40" x="1196" y="325.2549">-dosage</text><text fill="#000000" font-family="sans-serif" font-size="11" font-style="italic" lengthAdjust="spacing" textLength="86" x="1196" y="339.0908">-numberOfDoses</text><text fill="#000000" font-family="sans-serif" font-size="11" font-style="italic" lengthAdjust="spacing" textLength="61" x="1196" y="352.9268">-timeInterval</text><!--MD5=[5e97d05a9cfda6ddad88bdb093be2fc3]
class VacType--><rect codeLine="64" fill="#FEFECE" filter="url(#fzyteisfavddt)" height="53.8359" id="VacType" style="stroke:#A80036;stroke-width:1.5;" width="78" x="1005" y="229.5"/><ellipse cx="1020" cy="245.5" fill="#ADD1B2" rx="11" ry="11" style="stroke:#A80036;stroke-width:1.0;"/><path d="M1022,242 Q1022.2031,241.5 1022.4375,241.25 Q1022.6719,241 1022.9375,241 Q1023.4063,241 1023.7031,241.2813 Q1024,241.5625 1024,242.2188 L1024,243.7813 Q1024,244.4375 1023.7188,244.7188 Q1023.4375,245 1023,245 Q1022.6094,245 1022.3594,244.8281 Q1022.1094,244.6563 1022,244.2031 Q1021.9531,243.8906 1021.7813,243.7188 Q1021.4688,243.3906 1020.9063,243.2031 Q1020.3438,243 1019.7813,243 Q1019.0781,243 1018.4844,243.2813 Q1017.9063,243.5625 1017.4531,244.1875 Q1017,244.8125 1017,245.6719 L1017,246.5938 Q1017,247.625 1017.8438,248.3125 Q1018.6875,249 1020.1875,249 Q1021.0781,249 1021.7031,248.7969 Q1022.0625,248.6875 1022.4688,248.3281 Q1022.7344,248.125 1022.875,248.0625 Q1023.0156,248 1023.1875,248 Q1023.5156,248 1023.75,248.2656 Q1024,248.5156 1024,248.875 Q1024,249.2188 1023.6563,249.625 Q1023.1563,250.2188 1022.3594,250.5469 Q1021.3125,251 1020.0313,251 Q1018.5313,251 1017.3281,250.4063 Q1016.3594,249.9375 1015.6719,248.9219 Q1015,247.9063 1015,246.7031 L1015,245.6094 Q1015,244.3594 1015.5938,243.2656 Q1016.2031,242.1719 1017.25,241.5938 Q1018.3125,241 1019.5,241 Q1020.2188,241 1020.8438,241.25 Q1021.4688,241.5 1022,242 Z " fill="#000000"/><text fill="#000000" font-family="sans-serif" font-size="12" lengthAdjust="spacing" textLength="46" x="1034" y="250.4102">VacType</text><line style="stroke:#A80036;stroke-width:1.5;" x1="1006" x2="1082" y1="261.5" y2="261.5"/><text fill="#000000" font-family="sans-serif" font-size="11" font-style="italic" lengthAdjust="spacing" textLength="24" x="1011" y="276.9189">-type</text><!--MD5=[76b5e19c9337179d2d7ae334371d68c8]
class Notification--><rect fill="#FEFECE" filter="url(#fzyteisfavddt)" height="40" id="Notification" style="stroke:#A80036;stroke-width:1.5;" width="93" x="851" y="41.5"/><ellipse cx="866" cy="57.5" fill="#ADD1B2" rx="11" ry="11" style="stroke:#A80036;stroke-width:1.0;"/><path d="M868,54 Q868.2031,53.5 868.4375,53.25 Q868.6719,53 868.9375,53 Q869.4063,53 869.7031,53.2813 Q870,53.5625 870,54.2188 L870,55.7813 Q870,56.4375 869.7188,56.7188 Q869.4375,57 869,57 Q868.6094,57 868.3594,56.8281 Q868.1094,56.6563 868,56.2031 Q867.9531,55.8906 867.7813,55.7188 Q867.4688,55.3906 866.9063,55.2031 Q866.3438,55 865.7813,55 Q865.0781,55 864.4844,55.2813 Q863.9063,55.5625 863.4531,56.1875 Q863,56.8125 863,57.6719 L863,58.5938 Q863,59.625 863.8438,60.3125 Q864.6875,61 866.1875,61 Q867.0781,61 867.7031,60.7969 Q868.0625,60.6875 868.4688,60.3281 Q868.7344,60.125 868.875,60.0625 Q869.0156,60 869.1875,60 Q869.5156,60 869.75,60.2656 Q870,60.5156 870,60.875 Q870,61.2188 869.6563,61.625 Q869.1563,62.2188 868.3594,62.5469 Q867.3125,63 866.0313,63 Q864.5313,63 863.3281,62.4063 Q862.3594,61.9375 861.6719,60.9219 Q861,59.9063 861,58.7031 L861,57.6094 Q861,56.3594 861.5938,55.2656 Q862.2031,54.1719 863.25,53.5938 Q864.3125,53 865.5,53 Q866.2188,53 866.8438,53.25 Q867.4688,53.5 868,54 Z " fill="#000000"/><text fill="#000000" font-family="sans-serif" font-size="12" lengthAdjust="spacing" textLength="61" x="880" y="62.4102">Notification</text><line style="stroke:#A80036;stroke-width:1.5;" x1="852" x2="943" y1="73.5" y2="73.5"/><!--MD5=[84ee3a2de33a207d2296bad987d65a90]
class Sms--><rect fill="#FEFECE" filter="url(#fzyteisfavddt)" height="40" id="Sms" style="stroke:#A80036;stroke-width:1.5;" width="58" x="1015" y="41.5"/><ellipse cx="1030" cy="57.5" fill="#ADD1B2" rx="11" ry="11" style="stroke:#A80036;stroke-width:1.0;"/><path d="M1032,54 Q1032.2031,53.5 1032.4375,53.25 Q1032.6719,53 1032.9375,53 Q1033.4063,53 1033.7031,53.2813 Q1034,53.5625 1034,54.2188 L1034,55.7813 Q1034,56.4375 1033.7188,56.7188 Q1033.4375,57 1033,57 Q1032.6094,57 1032.3594,56.8281 Q1032.1094,56.6563 1032,56.2031 Q1031.9531,55.8906 1031.7813,55.7188 Q1031.4688,55.3906 1030.9063,55.2031 Q1030.3438,55 1029.7813,55 Q1029.0781,55 1028.4844,55.2813 Q1027.9063,55.5625 1027.4531,56.1875 Q1027,56.8125 1027,57.6719 L1027,58.5938 Q1027,59.625 1027.8438,60.3125 Q1028.6875,61 1030.1875,61 Q1031.0781,61 1031.7031,60.7969 Q1032.0625,60.6875 1032.4688,60.3281 Q1032.7344,60.125 1032.875,60.0625 Q1033.0156,60 1033.1875,60 Q1033.5156,60 1033.75,60.2656 Q1034,60.5156 1034,60.875 Q1034,61.2188 1033.6563,61.625 Q1033.1563,62.2188 1032.3594,62.5469 Q1031.3125,63 1030.0313,63 Q1028.5313,63 1027.3281,62.4063 Q1026.3594,61.9375 1025.6719,60.9219 Q1025,59.9063 1025,58.7031 L1025,57.6094 Q1025,56.3594 1025.5938,55.2656 Q1026.2031,54.1719 1027.25,53.5938 Q1028.3125,53 1029.5,53 Q1030.2188,53 1030.8438,53.25 Q1031.4688,53.5 1032,54 Z " fill="#000000"/><text fill="#000000" font-family="sans-serif" font-size="12" lengthAdjust="spacing" textLength="26" x="1044" y="62.4102">Sms</text><line style="stroke:#A80036;stroke-width:1.5;" x1="1016" x2="1072" y1="73.5" y2="73.5"/><!--MD5=[de60e6d4f424ae4d0522096f76a59010]
class VaccinationCenter--><rect fill="#FEFECE" filter="url(#fzyteisfavddt)" height="40" id="VaccinationCenter" style="stroke:#A80036;stroke-width:1.5;" width="132" x="488" y="325.5"/><ellipse cx="503" cy="341.5" fill="#ADD1B2" rx="11" ry="11" style="stroke:#A80036;stroke-width:1.0;"/><path d="M505,338 Q505.2031,337.5 505.4375,337.25 Q505.6719,337 505.9375,337 Q506.4063,337 506.7031,337.2813 Q507,337.5625 507,338.2188 L507,339.7813 Q507,340.4375 506.7188,340.7188 Q506.4375,341 506,341 Q505.6094,341 505.3594,340.8281 Q505.1094,340.6563 505,340.2031 Q504.9531,339.8906 504.7813,339.7188 Q504.4688,339.3906 503.9063,339.2031 Q503.3438,339 502.7813,339 Q502.0781,339 501.4844,339.2813 Q500.9063,339.5625 500.4531,340.1875 Q500,340.8125 500,341.6719 L500,342.5938 Q500,343.625 500.8438,344.3125 Q501.6875,345 503.1875,345 Q504.0781,345 504.7031,344.7969 Q505.0625,344.6875 505.4688,344.3281 Q505.7344,344.125 505.875,344.0625 Q506.0156,344 506.1875,344 Q506.5156,344 506.75,344.2656 Q507,344.5156 507,344.875 Q507,345.2188 506.6563,345.625 Q506.1563,346.2188 505.3594,346.5469 Q504.3125,347 503.0313,347 Q501.5313,347 500.3281,346.4063 Q499.3594,345.9375 498.6719,344.9219 Q498,343.9063 498,342.7031 L498,341.6094 Q498,340.3594 498.5938,339.2656 Q499.2031,338.1719 500.25,337.5938 Q501.3125,337 502.5,337 Q503.2188,337 503.8438,337.25 Q504.4688,337.5 505,338 Z " fill="#000000"/><text fill="#000000" font-family="sans-serif" font-size="12" lengthAdjust="spacing" textLength="100" x="517" y="346.4102">VaccinationCenter</text><line style="stroke:#A80036;stroke-width:1.5;" x1="489" x2="619" y1="357.5" y2="357.5"/><!--MD5=[fcde09df24315c7099b93e176a3fbe92]
link VaccineSchedule to Notification--><path codeLine="70" d="M617.64,61.5 C685.13,61.5 790.9,61.5 850.91,61.5 " fill="none" id="VaccineSchedule-Notification" style="stroke:#A80036;stroke-width:1.0;"/><polygon fill="#000000" points="660,52.6758,650.9549,49.7369,650.9549,55.6147,660,52.6758" style="stroke:#000000;stroke-width:1.0;"/><text fill="#000000" font-family="sans-serif" font-size="13" lengthAdjust="spacing" textLength="156" x="664" y="57.9951">emits if permission is given</text><text fill="#000000" font-family="sans-serif" font-size="13" lengthAdjust="spacing" textLength="7" x="625.4031" y="75.9301">1</text><text fill="#000000" font-family="sans-serif" font-size="13" lengthAdjust="spacing" textLength="7" x="835.9269" y="76.2981">1</text><!--MD5=[f139b4a25d4ae0e7ea0730b1623aea71]
reverse link Notification to Sms--><path codeLine="71" d="M964.5,61.5 C982.19,61.5 1000.38,61.5 1014.8,61.5 " fill="none" id="Notification-backto-Sms" style="stroke:#A80036;stroke-width:1.0;"/><polygon fill="none" points="964.22,68.5,944.22,61.5,964.22,54.5,964.22,68.5" style="stroke:#A80036;stroke-width:1.0;"/><!--MD5=[aa809c511724ff6ae74d6ebb2ff521fd]
link VaccineSchedule to NhsUser--><path codeLine="73" d="M490.15,67.78 C392.96,77.49 207.85,95.98 116.4,105.12 " fill="none" id="VaccineSchedule-NhsUser" style="stroke:#A80036;stroke-width:1.0;"/><polygon fill="#000000" points="255.4752,75.1787,246.1828,73.1535,246.7671,79.0023,255.4752,75.1787" style="stroke:#000000;stroke-width:1.0;"/><text fill="#000000" font-family="sans-serif" font-size="13" lengthAdjust="spacing" textLength="71" x="259.5" y="80.9951">registered in</text><text fill="#000000" font-family="sans-serif" font-size="13" lengthAdjust="spacing" textLength="7" x="475.3627" y="82.9362">1</text><text fill="#000000" font-family="sans-serif" font-size="13" lengthAdjust="spacing" textLength="7" x="123.8825" y="118.9933">1</text><!--MD5=[64fe855304f5fbf98c677ac1efbdd645]
link Vaccination to VaccineSchedule--><path codeLine="74" d="M336.18,145.58 C370.32,135.7 417.53,121.16 458,105.5 C468.59,101.4 479.68,96.68 490.38,91.89 " fill="none" id="Vaccination-VaccineSchedule" style="stroke:#A80036;stroke-width:1.0;"/><polygon fill="#000000" points="375.722,95.0317,366.2135,95.2304,368.1462,100.7814,375.722,95.0317" style="stroke:#000000;stroke-width:1.0;"/><text fill="#000000" font-family="sans-serif" font-size="13" lengthAdjust="spacing" textLength="77" x="380" y="101.9951">scheduled on</text><text fill="#000000" font-family="sans-serif" font-size="13" lengthAdjust="spacing" textLength="7" x="344.0169" y="139.9112">1</text><text fill="#000000" font-family="sans-serif" font-size="13" lengthAdjust="spacing" textLength="7" x="475.6193" y="109.8339">1</text><!--MD5=[1e454e0a01c8f5167fcfcb8d174ec3aa]
link NhsUser to Vaccination--><path codeLine="75" d="M116.11,121.94 C154.06,130.03 204.47,140.79 240.78,148.53 " fill="none" id="NhsUser-Vaccination" style="stroke:#A80036;stroke-width:1.0;"/><polygon fill="#000000" points="155.89,121.7187,147.6569,116.9577,146.4309,122.7063,155.89,121.7187" style="stroke:#000000;stroke-width:1.0;"/><text fill="#000000" font-family="sans-serif" font-size="13" lengthAdjust="spacing" textLength="50" x="160" y="125.9951">requests</text><text fill="#000000" font-family="sans-serif" font-size="13" lengthAdjust="spacing" textLength="7" x="123.9185" y="138.092">1</text><text fill="#000000" font-family="sans-serif" font-size="13" lengthAdjust="spacing" textLength="7" x="225.9369" y="161.7629">1</text><!--MD5=[e7a83371e64d417aa4881cb3b79ec32c]
link Vaccination to VacType--><path codeLine="76" d="M336.34,159.24 C448.3,161.9 739.63,174.16 975,230.5 C984.83,232.85 995.16,236.28 1004.72,239.87 " fill="none" id="Vaccination-VacType" style="stroke:#A80036;stroke-width:1.0;"/><polygon fill="#000000" points="695.964,171.2746,687.336,167.2735,686.632,173.1091,695.964,171.2746" style="stroke:#000000;stroke-width:1.0;"/><text fill="#000000" font-family="sans-serif" font-size="13" lengthAdjust="spacing" textLength="84" x="700" y="175.9951">performed with</text><text fill="#000000" font-family="sans-serif" font-size="13" lengthAdjust="spacing" textLength="5" x="344.0483" y="174.1129">*</text><text fill="#000000" font-family="sans-serif" font-size="13" lengthAdjust="spacing" textLength="7" x="990.0998" y="251.8738">1</text><!--MD5=[d91d0e85eec5680005c42c6b92f9289a]
link VacType to Vaccine--><path codeLine="77" d="M1083.25,247.05 C1124.62,236.82 1190.12,220.63 1230.86,210.56 " fill="none" id="VacType-Vaccine" style="stroke:#A80036;stroke-width:1.0;"/><polygon fill="#000000" points="1126.8539,219.4759,1117.3678,218.7935,1118.7784,224.4996,1126.8539,219.4759" style="stroke:#000000;stroke-width:1.0;"/><text fill="#000000" font-family="sans-serif" font-size="13" lengthAdjust="spacing" textLength="24" x="1131" y="225.9951">is of</text><text fill="#000000" font-family="sans-serif" font-size="13" lengthAdjust="spacing" textLength="5" x="1090.9477" y="260.3253">*</text><text fill="#000000" font-family="sans-serif" font-size="13" lengthAdjust="spacing" textLength="7" x="1216.0177" y="227.3563">1</text><!--MD5=[1139125aa2eab14f5d5a4e7e1e1cfd57]
link VacType to AdministrationProcess--><path codeLine="78" d="M1083.25,265.95 C1112.45,273.17 1153.66,283.36 1189.7,292.27 " fill="none" id="VacType-AdministrationProcess" style="stroke:#A80036;stroke-width:1.0;"/><polygon fill="#000000" points="1122.8538,266.8759,1114.7786,261.8519,1113.3678,267.5579,1122.8538,266.8759" style="stroke:#000000;stroke-width:1.0;"/><text fill="#000000" font-family="sans-serif" font-size="13" lengthAdjust="spacing" textLength="32" x="1127" y="270.9951">has a</text><text fill="#000000" font-family="sans-serif" font-size="13" lengthAdjust="spacing" textLength="7" x="1091.132" y="282.71">1</text><text fill="#000000" font-family="sans-serif" font-size="13" lengthAdjust="spacing" textLength="7" x="1175.113" y="304.7302">1</text><!--MD5=[a3dc061a39b5be6a101ce352edd1d1c0]
link VaccinationCenter to VacType--><path codeLine="80" d="M620.05,336.92 C697.59,326.24 830.89,306.45 944,282.5 C964.17,278.23 986.38,272.49 1004.65,267.49 " fill="none" id="VaccinationCenter-VacType" style="stroke:#A80036;stroke-width:1.0;"/><polygon fill="#000000" points="884.9205,272.7875,875.4971,271.5022,876.5414,277.2866,884.9205,272.7875" style="stroke:#000000;stroke-width:1.0;"/><text fill="#000000" font-family="sans-serif" font-size="13" lengthAdjust="spacing" textLength="30" x="889" y="278.9951">owns</text><text fill="#000000" font-family="sans-serif" font-size="13" lengthAdjust="spacing" textLength="7" x="628.0917" y="350.3684">1</text><text fill="#000000" font-family="sans-serif" font-size="13" lengthAdjust="spacing" textLength="7" x="990.0173" y="284.4136">1</text><!--MD5=[af2965508439a801e1c1673d537d315a]
link HealthCareCenter to VacType--><path codeLine="81" d="M620.05,256.5 C723.33,256.5 921.62,256.5 1004.79,256.5 " fill="none" id="HealthCareCenter-VacType" style="stroke:#A80036;stroke-width:1.0;"/><polygon fill="#000000" points="885,247.6758,875.9549,244.7369,875.9549,250.6147,885,247.6758" style="stroke:#000000;stroke-width:1.0;"/><text fill="#000000" font-family="sans-serif" font-size="13" lengthAdjust="spacing" textLength="30" x="889" y="252.9951">owns</text><text fill="#000000" font-family="sans-serif" font-size="13" lengthAdjust="spacing" textLength="7" x="628.0917" y="270.9594">1</text><text fill="#000000" font-family="sans-serif" font-size="13" lengthAdjust="spacing" textLength="5" x="992.0997" y="271.5177">*</text><!--MD5=[f18f00dac2a4627d6abbc44fd81ea6f4]
reverse link Center to HealthCareCenter--><path codeLine="82" d="M355.7,302.92 C396.08,293.42 447.48,281.33 487.69,271.87 " fill="none" id="Center-backto-HealthCareCenter" style="stroke:#A80036;stroke-width:1.0;"/><polygon fill="none" points="357.07,309.79,336,307.56,353.87,296.16,357.07,309.79" style="stroke:#A80036;stroke-width:1.0;"/><!--MD5=[0d0a27bd6df0182d91a2ea6292743264]
reverse link Center to VaccinationCenter--><path codeLine="83" d="M355.98,325.31 C396.32,329.45 447.57,334.7 487.69,338.81 " fill="none" id="Center-backto-VaccinationCenter" style="stroke:#A80036;stroke-width:1.0;"/><polygon fill="none" points="355.18,332.27,336,323.26,356.61,318.34,355.18,332.27" style="stroke:#A80036;stroke-width:1.0;"/><!--MD5=[de085bea67287b3eade076cba8491030]
@startuml
hide methods
left to right direction
skinparam classAttributeIconSize 0




class NhsUser{

====citizenCardNumber
====-name
====-address
====-nhsNumber
====-birthDate
====-sex
====-phoneNumber
====-email

}

class Vaccination{
====-code

}

class Center {
====-designation
====-address
====-phoneNumber
====-faxNumber
====-websiteAddress
====-emailAddress
====-openTime
====-closeTime
====-slots
====-slotDuration

}

class VaccineSchedule{
====-date
====-time
====-whereAt
====-vaccineType
====-SNSNumber
}

class HealthCareCenter{
====-ARS
====-AGES
}

class Vaccine{
====-brand
}

class AdministrationProcess{
====-ageGroup
====-dosage
====-numberOfDoses
====-timeInterval
}

class VacType{
====-type
}



VaccineSchedule "1"- -"1" Notification : emits if permission is given >
Notification <|-down- Sms

VaccineSchedule "1"- - -"1" NhsUser : registered in <
Vaccination "1"- -"1" VaccineSchedule : scheduled on >
Vaccination "1" -up- "1" NhsUser : < requests
Vaccination "*"- - - -"1" VacType : performed with >
VacType "*" - - "1" Vaccine : is of >
VacType "1" - - "1" AdministrationProcess : has a >

VaccinationCenter "1"- - -"1" VacType : owns >
HealthCareCenter "1"- - -"*" VacType : owns >
Center <|- - HealthCareCenter
Center <|- - VaccinationCenter



@enduml

PlantUML version 1.2022.1(Tue Feb 01 18:19:58 GMT 2022)
(GPL source distribution)
Java Runtime: OpenJDK Runtime Environment
JVM: OpenJDK 64-Bit Server VM
Default Encoding: Cp1252
Language: pt
Country: PT
--></g></svg>