@startuml

title Use case Diagram Sprint B\n

left to right direction


:Administrator: as admin
:Nurse: as nurse
:Coordenator: as coord
:Receptionist: as res
:User: as user

user --- (Chooses day, time and vaccination center)
user --- (Inputs SNS number and type of vaccine)
user --- (Registers to get vaccinated)
user --- (Receives confirmation)

res --- (Verifies user info and health conditions)
res --- (Recieves info on which vaccine to administer to the user)
res --- (Registers users to get vaccinated)
res --- (US03 - Registers a SNS user)

coord --- (Monitors vaccination process)
coord --- (Evaluates the vaccination process with statistics and graphs)
coord --- (Generates reports according to the data)

nurse --- (Vaccinates users)
nurse --- (Emits and delivers vaccination certificates)
nurse --- (Registers the vaccination event)

admin --- (Manages the information necessary for the system to work)
admin --- (Registers SNS centers, users, coordenators, nurses and receptionists envolved in the vaccination process)
admin --- (US09 - Registers a new vaccination center to respond to a certain pandemic)
admin --- (US10 - Registers a new employee)
admin --- (US11 - Recieves a list of employees with a certain role)
admin --- (US13 - Specifies a new vaccine and its administration process)

@enduml