<?xml version="1.0" encoding="UTF-8" standalone="no"?><svg xmlns="http://www.w3.org/2000/svg" xmlns:xlink="http://www.w3.org/1999/xlink" contentStyleType="text/css" height="274px" preserveAspectRatio="none" style="width:577px;height:274px;background:#FFFFFF;" version="1.1" viewBox="0 0 577 274" width="577px" zoomAndPan="magnify"><defs/><g><!--MD5=[da547346deef918ea16944ba046651ef]
class Administrator--><g id="elem_Administrator"><rect codeLine="7" fill="#F1F1F1" height="40" id="Administrator" rx="2.5" ry="2.5" style="stroke:#181818;stroke-width:0.5;" width="115" x="7" y="192.5"/><ellipse cx="22" cy="208.5" fill="#ADD1B2" rx="11" ry="11" style="stroke:#181818;stroke-width:1.0;"/><path d="M24,205 Q24.2031,204.5 24.4375,204.25 Q24.6719,204 24.9375,204 Q25.4063,204 25.7031,204.2813 Q26,204.5625 26,205.2188 L26,206.7813 Q26,207.4375 25.7188,207.7188 Q25.4375,208 25,208 Q24.6094,208 24.3594,207.8281 Q24.1094,207.6563 24,207.2031 Q23.9531,206.8906 23.7813,206.7188 Q23.4688,206.3906 22.9063,206.2031 Q22.3438,206 21.7813,206 Q21.0781,206 20.4844,206.2813 Q19.9063,206.5625 19.4531,207.1875 Q19,207.8125 19,208.6719 L19,209.5938 Q19,210.625 19.8438,211.3125 Q20.6875,212 22.1875,212 Q23.0781,212 23.7031,211.7969 Q24.0625,211.6875 24.4688,211.3281 Q24.7344,211.125 24.875,211.0625 Q25.0156,211 25.1875,211 Q25.5156,211 25.75,211.2656 Q26,211.5156 26,211.875 Q26,212.2188 25.6563,212.625 Q25.1563,213.2188 24.3594,213.5469 Q23.3125,214 22.0313,214 Q20.5313,214 19.3281,213.4063 Q18.3594,212.9375 17.6719,211.9219 Q17,210.9063 17,209.7031 L17,208.6094 Q17,207.3594 17.5938,206.2656 Q18.2031,205.1719 19.25,204.5938 Q20.3125,204 21.5,204 Q22.2188,204 22.8438,204.25 Q23.4688,204.5 24,205 Z " fill="#000000"/><text fill="#000000" font-family="sans-serif" font-size="14" lengthAdjust="spacing" textLength="83" x="36" y="214.2285">Administrator</text><line style="stroke:#181818;stroke-width:0.5;" x1="8" x2="121" y1="224.5" y2="224.5"/></g><!--MD5=[73977ce227ca9ff7ca3f8e1cba53ab7c]
class NHSUser--><g id="elem_NHSUser"><rect codeLine="11" fill="#F1F1F1" height="180.875" id="NHSUser" rx="2.5" ry="2.5" style="stroke:#181818;stroke-width:0.5;" width="136" x="272" y="7"/><ellipse cx="308.6" cy="23" fill="#ADD1B2" rx="11" ry="11" style="stroke:#181818;stroke-width:1.0;"/><path d="M310.6,19.5 Q310.8031,19 311.0375,18.75 Q311.2719,18.5 311.5375,18.5 Q312.0063,18.5 312.3031,18.7813 Q312.6,19.0625 312.6,19.7188 L312.6,21.2813 Q312.6,21.9375 312.3188,22.2188 Q312.0375,22.5 311.6,22.5 Q311.2094,22.5 310.9594,22.3281 Q310.7094,22.1563 310.6,21.7031 Q310.5531,21.3906 310.3813,21.2188 Q310.0688,20.8906 309.5063,20.7031 Q308.9438,20.5 308.3813,20.5 Q307.6781,20.5 307.0844,20.7813 Q306.5063,21.0625 306.0531,21.6875 Q305.6,22.3125 305.6,23.1719 L305.6,24.0938 Q305.6,25.125 306.4438,25.8125 Q307.2875,26.5 308.7875,26.5 Q309.6781,26.5 310.3031,26.2969 Q310.6625,26.1875 311.0688,25.8281 Q311.3344,25.625 311.475,25.5625 Q311.6156,25.5 311.7875,25.5 Q312.1156,25.5 312.35,25.7656 Q312.6,26.0156 312.6,26.375 Q312.6,26.7188 312.2563,27.125 Q311.7563,27.7188 310.9594,28.0469 Q309.9125,28.5 308.6313,28.5 Q307.1313,28.5 305.9281,27.9063 Q304.9594,27.4375 304.2719,26.4219 Q303.6,25.4063 303.6,24.2031 L303.6,23.1094 Q303.6,21.8594 304.1938,20.7656 Q304.8031,19.6719 305.85,19.0938 Q306.9125,18.5 308.1,18.5 Q308.8188,18.5 309.4438,18.75 Q310.0688,19 310.6,19.5 Z " fill="#000000"/><text fill="#000000" font-family="sans-serif" font-size="14" lengthAdjust="spacing" textLength="56" x="327.4" y="28.7285">NHSUser</text><line style="stroke:#181818;stroke-width:0.5;" x1="273" x2="407" y1="39" y2="39"/><text fill="#000000" font-family="sans-serif" font-size="14" lengthAdjust="spacing" textLength="40" x="278" y="57.5332">-name</text><text fill="#000000" font-family="sans-serif" font-size="14" lengthAdjust="spacing" textLength="26" x="278" y="75.1426">-sex</text><text fill="#000000" font-family="sans-serif" font-size="14" lengthAdjust="spacing" textLength="63" x="278" y="92.752">-birthDate</text><text fill="#000000" font-family="sans-serif" font-size="14" lengthAdjust="spacing" textLength="56" x="278" y="110.3613">-address</text><text fill="#000000" font-family="sans-serif" font-size="14" lengthAdjust="spacing" textLength="94" x="278" y="127.9707">-phoneNumber</text><text fill="#000000" font-family="sans-serif" font-size="14" lengthAdjust="spacing" textLength="38" x="278" y="145.5801">-email</text><text fill="#000000" font-family="sans-serif" font-size="14" lengthAdjust="spacing" textLength="77" x="278" y="163.1895">-nhsNumber</text><text fill="#000000" font-family="sans-serif" font-size="14" lengthAdjust="spacing" textLength="124" x="278" y="180.7988">-citizenCardNumber</text></g><!--MD5=[3fd616f346a44cd59a91eb10b19e157c]
class User--><g id="elem_User"><rect codeLine="22" fill="#F1F1F1" height="110.4375" id="User" rx="2.5" ry="2.5" style="stroke:#181818;stroke-width:0.5;" width="77" x="493" y="157.5"/><ellipse cx="515.2" cy="173.5" fill="#ADD1B2" rx="11" ry="11" style="stroke:#181818;stroke-width:1.0;"/><path d="M517.2,170 Q517.4031,169.5 517.6375,169.25 Q517.8719,169 518.1375,169 Q518.6063,169 518.9031,169.2813 Q519.2,169.5625 519.2,170.2188 L519.2,171.7813 Q519.2,172.4375 518.9188,172.7188 Q518.6375,173 518.2,173 Q517.8094,173 517.5594,172.8281 Q517.3094,172.6563 517.2,172.2031 Q517.1531,171.8906 516.9813,171.7188 Q516.6688,171.3906 516.1063,171.2031 Q515.5438,171 514.9813,171 Q514.2781,171 513.6844,171.2813 Q513.1063,171.5625 512.6531,172.1875 Q512.2,172.8125 512.2,173.6719 L512.2,174.5938 Q512.2,175.625 513.0438,176.3125 Q513.8875,177 515.3875,177 Q516.2781,177 516.9031,176.7969 Q517.2625,176.6875 517.6688,176.3281 Q517.9344,176.125 518.075,176.0625 Q518.2156,176 518.3875,176 Q518.7156,176 518.95,176.2656 Q519.2,176.5156 519.2,176.875 Q519.2,177.2188 518.8563,177.625 Q518.3563,178.2188 517.5594,178.5469 Q516.5125,179 515.2313,179 Q513.7313,179 512.5281,178.4063 Q511.5594,177.9375 510.8719,176.9219 Q510.2,175.9063 510.2,174.7031 L510.2,173.6094 Q510.2,172.3594 510.7938,171.2656 Q511.4031,170.1719 512.45,169.5938 Q513.5125,169 514.7,169 Q515.4188,169 516.0438,169.25 Q516.6688,169.5 517.2,170 Z " fill="#000000"/><text fill="#000000" font-family="sans-serif" font-size="14" lengthAdjust="spacing" textLength="29" x="530.8" y="179.2285">User</text><line style="stroke:#181818;stroke-width:0.5;" x1="494" x2="569" y1="189.5" y2="189.5"/><text fill="#000000" font-family="sans-serif" font-size="14" lengthAdjust="spacing" textLength="40" x="499" y="208.0332">-name</text><text fill="#000000" font-family="sans-serif" font-size="14" lengthAdjust="spacing" textLength="38" x="499" y="225.6426">-email</text><text fill="#000000" font-family="sans-serif" font-size="14" lengthAdjust="spacing" textLength="65" x="499" y="243.252">-password</text><text fill="#000000" font-family="sans-serif" font-size="14" lengthAdjust="spacing" textLength="29" x="499" y="260.8613">-role</text></g><!--MD5=[edc107c0a572352bcd12c9afaba4390b]
link Administrator to User--><g id="link_Administrator_User"><path codeLine="29" d="M122.18,216.99 C190.12,221.75 307.41,228.01 408,223.5 C436.48,222.22 468.57,219.29 492.76,216.77 " fill="none" id="Administrator-User" style="stroke:#181818;stroke-width:1.0;"/><polygon fill="#000000" points="321,214.6728,311.9532,211.7393,311.9567,217.6171,321,214.6728" style="stroke:#000000;stroke-width:1.0;"/><text fill="#000000" font-family="sans-serif" font-size="13" lengthAdjust="spacing" textLength="43" x="325" y="219.9951">acts as</text><text fill="#000000" font-family="sans-serif" font-size="13" lengthAdjust="spacing" textLength="7" x="130.0187" y="232.1079">1</text><text fill="#000000" font-family="sans-serif" font-size="13" lengthAdjust="spacing" textLength="7" x="477.972" y="232.5195">1</text></g><!--MD5=[924a3d38e602855435fec7fff172bb70]
link Administrator to NHSUser--><g id="link_Administrator_NHSUser"><path codeLine="30" d="M113.14,192.47 C157.06,174 222.71,146.4 271.93,125.7 " fill="none" id="Administrator-NHSUser" style="stroke:#181818;stroke-width:1.0;"/><polygon fill="#000000" points="152.3909,134.6139,161.868,133.817,159.5897,128.3987,152.3909,134.6139" style="stroke:#000000;stroke-width:1.0;"/><text fill="#000000" font-family="sans-serif" font-size="13" lengthAdjust="spacing" textLength="75" x="166" y="137.9951">registered by</text><text fill="#000000" font-family="sans-serif" font-size="13" lengthAdjust="spacing" textLength="7" x="119.3999" y="181.7829">1</text><text fill="#000000" font-family="sans-serif" font-size="13" lengthAdjust="spacing" textLength="5" x="259.2114" y="143.1806">*</text></g><!--MD5=[63f8bbfc09744b3b69a5ca0cd4d4329e]
link NHSUser to User--><g id="link_NHSUser_User"><path codeLine="31" d="M408.08,138.21 C436.51,155.46 468.58,174.92 492.76,189.6 " fill="none" id="NHSUser-User" style="stroke:#181818;stroke-width:1.0;"/><polygon fill="#000000" points="447.2744,152.2698,441.0666,145.0647,438.0172,150.0896,447.2744,152.2698" style="stroke:#000000;stroke-width:1.0;"/><text fill="#000000" font-family="sans-serif" font-size="13" lengthAdjust="spacing" textLength="10" x="452" y="154.9951">is</text><text fill="#000000" font-family="sans-serif" font-size="13" lengthAdjust="spacing" textLength="7" x="415.9091" y="157.0588">1</text><text fill="#000000" font-family="sans-serif" font-size="13" lengthAdjust="spacing" textLength="7" x="477.972" y="200.34">1</text></g><!--MD5=[73bc8e35ce5b531db9cd418646b28222]
@startuml
skinparam classAttributeIconSize 0
hide methods


left to right direction

class Administrator{

}

class NHSUser{
-name
-sex
-birthDate
-address
-phoneNumber
-email
-nhsNumber
-citizenCardNumber
}

class User{
-name
-email
-password
-role
}

Administrator "1" - - "1" User : acts as >
Administrator "1" - - "*" NHSUser : registered by <
NHSUser "1" - - "1" User : is >

@enduml

PlantUML version 1.2022.4(Sat Apr 09 14:29:17 BST 2022)
(GPL source distribution)
Java Runtime: OpenJDK Runtime Environment
JVM: OpenJDK 64-Bit Server VM
Default Encoding: Cp1252
Language: en
Country: US
--></g></svg>