@startuml
skinparam classAttributeIconSize 0

class RegisterArrivalUI{


}

class US04Controller{
doesUserScheduleExistInCenter(number,centerID)
checkIfInTimeToArrive(number,centerID)
checkDuplicatedEntry(number,centerID)
createUserArival(number,centerID)
}

class Center{
-id
-designation
-address
-phoneNumber
-faxNumber
-websiteAddress
-emailAddress
-openTime
-closeTime
-slots
-slotDuration

+getID()
+getdesignation()
+getaddress()
+getphoneNumber()
+getfaxNumber()
+getwebsiteAddress()
+getemailAddress()
+getopenTime()
+getcloseTime()
+getslots()
+getslotDuration()
}

class VaccinationCenter{

}

class HealthCareCenter{
-ARS
-AGES

+getARS()
+getAGES()
}

class Company{
getCenterStore()
getWaitingRoom()
getVaccineScheduleStore()
}

class CenterStore{
+showVacCenters()
+showHealthCenters()
+getVacCenter()
+getHealthCenter()
}

class WaitingRoom{
checkDuplicatedEntry(number,centerID)

}

class VaccineScheduleStore{
doesUserScheduleExistInCenter(number,centerID)
getAScheduleVaccine(number,centerID)
}

class VaccineSchedule{

}


class UserArrival{
-centerID
-date
-userNhsNumber

+getCenterID()
+getDate()
+getUserNhsNumber()

}


RegisterArrivalUI .-> US04Controller

Company "1" -- "1" CenterStore : owns >
Company "1" -- "1" VaccineScheduleStore : owns >
Company "1" --- "1" WaitingRoom : owns >

CenterStore "1" --> "*" Center : knows >

US04Controller .-> Company
US04Controller .-> CenterStore
US04Controller .-> WaitingRoom
US04Controller .-> VaccineScheduleStore


VaccinationCenter --|> Center
HealthCareCenter --|> Center

WaitingRoom "1" --> "1" Center : < has
WaitingRoom "1" -- "*" UserArrival : knows >

VaccineSchedule "*" -up- "1" VaccineScheduleStore : < knows
VaccineSchedule "*" -- "1" Center: scheduled for >



@enduml