@startuml
autonumber
'hide footbox
actor "Receptionist" as RCP

participant RegisterUserArrivalUI as UI
participant US04Controller as CNTRL
participant Company as COMPANY
participant "store: VaccineScheduleStore" as STORE
participant "waiting: WaitingRoom" as ROOM
participant "arrival : UserArival" as UserArival




activate RCP

RCP-> UI : starts a new user arrival

activate UI

UI -> RCP : requests the user's NHS number (number)

deactivate UI

RCP-> UI : types requested data

activate UI

UI -> CNTRL : doesUserScheduleExistInCenter(number,centerID)

activate CNTRL


CNTRL -> COMPANY : store = getVaccineScheduleStore()

activate COMPANY
deactivate COMPANY

CNTRL -> STORE : doesUserScheduleExistInCenter(number,centerID)

activate STORE

deactivate STORE


deactivate CNTRL

UI -> CNTRL : checkIfInTimeToArrive(number,centerID)

activate CNTRL

CNTRL -> STORE : schedule = getAScheduledVaccine(number,centerID)

activate STORE
deactivate STORE


deactivate CNTRL

UI -> CNTRL : checkDuplicatedEntry(number,centerID)

activate CNTRL

CNTRL -> COMPANY : waitingroom = getWaitingRoom()

activate COMPANY
deactivate COMPANY

CNTRL -> ROOM : checkDuplicatedEntry(number,centerID)

activate ROOM
deactivate ROOM

deactivate CNTRL

UI -> RCP: shows user appointment information and ask for confirmation

deactivate UI

RCP -> UI : confirms the data

activate UI

UI -> CNTRL : createUserArrival(number,centerID)

activate CNTRL

CNTRL --> UserArival ** : arrival = create(number,centerId)

activate UserArival
deactivate UserArival

CNTRL -> ROOM : saveUserArival(arrival)

activate ROOM
deactivate ROOM

deactivate CNTRL

UI -> RCP : informs operation success

deactivate UI
deactivate RCP

deactivate RCP

@enduml